Division,WeightClassKg,Place,Name,Team,BodyweightKg,Best3SquatKg,Best3BenchKg,Best3DeadliftKg,TotalKg,Equipment,Event,Sex
Boys,51.71,1,LA Gonzalez,Alice,51.44,192.78,97.52,179.17,469.47,Single-ply,SBD,M
Boys,51.71,2,Benny Lara,Victoria West,51.26,174.63,95.25,179.17,449.06,Single-ply,SBD,M
Boys,51.71,3,Anthony Garcia,Weslaco,51.17,163.29,102.06,176.9,442.25,Single-ply,SBD,M
Boys,51.71,4,Ricky Lopez,Frisco Centennial,51.53,163.29,95.25,181.44,439.98,Single-ply,SBD,M
Boys,51.71,5,Robert Gonzalez,Laredo Cigarroa,50.89,170.1,92.99,172.37,435.45,Single-ply,SBD,M
Boys,51.71,6,Diego Gallegos,Alvin,51.26,161.03,90.72,181.44,433.18,Single-ply,SBD,M
Boys,51.71,7,Leo Alaniz,Brownsville Lopez,50.8,154.22,95.25,165.56,415.04,Single-ply,SBD,M
Boys,51.71,8,Brian Cunningham,Nederland,50.89,156.49,83.91,163.29,403.7,Single-ply,SBD,M
Boys,51.71,9,Tyler Salazar,Donna,51.17,151.95,92.99,156.49,401.43,Single-ply,SBD,M
Boys,51.71,10,Timothy Le,Port Neches-Groves,50.98,149.69,81.65,163.29,394.63,Single-ply,SBD,M
Boys,51.71,11,Jacory Bellnamy,Houston Madison,51.17,145.15,74.84,161.03,381.02,Single-ply,SBD,M
Boys,51.71,12,Abe Villareal,Belton,51.44,136.08,72.57,172.37,381.02,Single-ply,SBD,M
Boys,51.71,13,Michael Guerrero,Georgetown East View,50.98,145.15,83.91,145.15,374.21,Single-ply,SBD,M
Boys,51.71,14,Gabriel Williams,Cedar Hill,51.26,136.08,81.65,140.61,358.34,Single-ply,SBD,M
Boys,51.71,15,Pablo Gutierrez,Mount Pleasant,51.17,129.27,70.31,136.08,335.66,Single-ply,SBD,M
Boys,51.71,16,John Magbanua,Texarkana Texas,51.53,122.47,61.23,131.54,315.25,Single-ply,SBD,M
Boys,51.71,DQ,Miguel Arroyo,San Angelo Lake View,51.71,120.2,68.04,,,Single-ply,SBD,M
Boys,51.71,DQ,Billy Jackson,Odessa,50.26,,,,,Single-ply,SBD,M
Boys,51.71,DQ,Alex Berrones,Brownsville Lopez,50.62,154.22,,,,Single-ply,SBD,M
Boys,51.71,DQ,Cody Juarez,Alice,50.35,,,,,Single-ply,SBD,M
Boys,,NS,Michael Mitchell,San Antonio Southside,,,,,,Single-ply,SBD,M
Boys,55.79,1,Alec Webster,Killeen Shoemaker,55.07,208.65,124.74,195.04,528.44,Single-ply,SBD,M
Boys,55.79,2,Jose Trevino,San Antonio Southside,55.43,226.8,102.06,188.24,517.1,Single-ply,SBD,M
Boys,55.79,3,Mauro Vargas,La Joya Juarez-Lincoln,55.34,192.78,117.93,204.12,514.83,Single-ply,SBD,M
Boys,55.79,4,Dawson Caruso,Burleson,53.8,185.97,104.33,204.12,494.42,Single-ply,SBD,M
Boys,55.79,5,JJ Ortiz,Los Fresnos,55.61,183.7,115.67,192.78,492.15,Single-ply,SBD,M
Boys,55.79,6,Joey Caruso,Burleson,54.07,192.78,97.52,195.04,485.34,Single-ply,SBD,M
Boys,55.79,7,Blake Gamez,La Porte,55.61,176.9,106.59,197.31,480.81,Single-ply,SBD,M
Boys,55.79,8,Mario Saldivar Jr,Laredo Alexander,55.7,183.7,102.06,188.24,474,Single-ply,SBD,M
Boys,55.79,9,Davion Aldridge,Hutto,55.79,176.9,95.25,199.58,471.74,Single-ply,SBD,M
Boys,55.79,10,Joel Sanchez,Brownsville Veterans Memorial,54.25,188.24,92.99,181.44,462.66,Single-ply,SBD,M
Boys,55.79,11,AJ Ono,Conroe The Woodlands,55.16,172.37,95.25,172.37,439.98,Single-ply,SBD,M
Boys,55.79,12,Ignacio Romero,Plainview,55.7,183.7,77.11,176.9,437.72,Single-ply,SBD,M
Boys,55.79,13,Francisco Guevara,Edinburg Vela,53.89,170.1,95.25,165.56,430.91,Single-ply,SBD,M
Boys,55.79,14,Cody Coombs,San Angelo Lake View,55.07,151.95,95.25,154.22,401.43,Single-ply,SBD,M
Boys,55.79,15,James Fisher,Texarkana Texas,55.7,154.22,86.18,142.88,383.29,Single-ply,SBD,M
Boys,55.79,16,Jordan Estell,North Mesquite,55.16,149.69,83.91,,233.6,Single-ply,SB,M
Boys,55.79,DQ,Angel Flores,Mercedes,55.43,,,,,Single-ply,SBD,M
Boys,55.79,DQ,Joe'ell Morales,Sulphur Springs,55.07,,,,,Single-ply,SBD,M
Boys,55.79,DQ,Misael Marquez,Brownsville Pace,55.16,,,,,Single-ply,SBD,M
Boys,55.79,DQ,Carlos Salazar,Manvel,54.43,,,,,Single-ply,SBD,M
Boys,55.79,DQ,Nate Lunsford,Frisco Wakeland,53.98,,,,,Single-ply,SBD,M
Boys,59.87,1,Jose Alvarado #2,Brownsville Lopez,59.24,226.8,124.74,204.12,555.65,Single-ply,SBD,M
Boys,59.87,2,Elijah Gonzalez,San Antonio East Central,57.97,188.24,120.2,199.58,508.02,Single-ply,SBD,M
Boys,59.87,3,Moc Moo,Port Lavaca Calhoun,58.42,199.58,108.86,185.97,494.42,Single-ply,SBD,M
Boys,59.87,4,Daylon Jackson,Everman,59.6,190.51,99.79,176.9,467.2,Single-ply,SBD,M
Boys,59.87,5,Christian Maldonado,Canyon Randall,59.15,174.63,111.13,167.83,453.59,Single-ply,SBD,M
Boys,59.87,6,Baldemar Carbajal,Sherman,59.15,167.83,106.59,176.9,451.32,Single-ply,SBD,M
Boys,59.87,7,Esteban Fierro,Plainview,59.69,172.37,102.06,176.9,451.32,Single-ply,SBD,M
Boys,59.87,8,Cristian Contreras,Greenville,58.69,181.44,102.06,165.56,449.06,Single-ply,SBD,M
Boys,59.87,DQ,Chien Phan,Dickinson,59.24,204.12,97.52,,,Single-ply,SBD,M
Boys,59.87,DQ,David Tubig,Burleson,58.6,210.92,,,,Single-ply,SBD,M
Boys,59.87,DQ,Laravione Finley,Texarkana Texas,59.87,,,,,Single-ply,SBD,M
Boys,59.87,DQ,Leonardo Calderon,San Marcos,59.06,192.78,,,,Single-ply,SBD,M
Boys,59.87,DQ,Alex Gonzalez,PSJA North,58.51,,,,,Single-ply,SBD,M
Boys,,NS,Brandon Coon,Conroe Caney Creek,,,,,,Single-ply,SBD,M
Boys,67.13,1,Gavin Webster,Conroe The Woodlands,65.5,231.33,149.69,244.94,625.96,Single-ply,SBD,M
Boys,67.13,2,Zach Mutchler,Alvin,66.32,251.74,163.29,206.38,621.42,Single-ply,SBD,M
Boys,67.13,3,Hugo Salas,Brownsville Lopez,65.23,251.74,129.27,231.33,612.35,Single-ply,SBD,M
Boys,67.13,4,Eric Tong,Brownsville Hanna,65.59,235.87,122.47,254.01,612.35,Single-ply,SBD,M
Boys,67.13,5,Oscar Monjaraz,Pharr Valley View,66.95,240.4,127.01,231.33,598.74,Single-ply,SBD,M
Boys,67.13,6,Josue Tobias,Laredo Nixon,66.68,226.8,136.08,226.8,589.67,Single-ply,SBD,M
Boys,67.13,7,Alex Gonzalez,Alice,66.86,244.94,115.67,229.06,589.67,Single-ply,SBD,M
Boys,67.13,8,Kenny Miller,Manor,65.86,215.46,124.74,235.87,576.06,Single-ply,SBD,M
Boys,67.13,9,Camarillo Oscar,Alice,66.5,235.87,129.27,208.65,573.79,Single-ply,SBD,M
Boys,67.13,10,Brandon Palomares,Seguin,65.95,224.53,117.93,226.8,569.26,Single-ply,SBD,M
Boys,67.13,11,Casin Santillo,Hurst Bell,66.41,208.65,145.15,208.65,562.45,Single-ply,SBD,M
Boys,67.13,12,Grayson Brown,Conroe The Woodlands,66.04,235.87,131.54,190.51,557.92,Single-ply,SBD,M
Boys,67.13,13,Sean Wofford,Burleson,64.23,213.19,113.4,226.8,553.38,Single-ply,SBD,M
Boys,67.13,14,Treston Womack,Waco Midway,66.86,197.31,122.47,226.8,546.58,Single-ply,SBD,M
Boys,67.13,15,A'Daireon Madlock,North Mesquite,66.95,210.92,106.59,226.8,544.31,Single-ply,SBD,M
Boys,67.13,16,Jonathan Zelaya,Victoria East,65.32,219.99,120.2,195.04,535.24,Single-ply,SBD,M
Boys,67.13,17,DyTaveion Hill,Ennis,66.22,195.04,104.33,231.33,530.7,Single-ply,SBD,M
Boys,67.13,18,Yayo Segura,Brownsville Pace,66.22,206.38,124.74,197.31,528.44,Single-ply,SBD,M
Boys,67.13,19,Cody Bargerhuff,Greenville,64.77,210.92,95.25,199.58,505.76,Single-ply,SBD,M
Boys,67.13,20,Pablo Cavazos,Dickinson,65.41,204.12,88.45,213.19,505.76,Single-ply,SBD,M
Boys,67.13,21,Jerrico Enriquez,Plainview,65.14,201.85,102.06,190.51,494.42,Single-ply,SBD,M
Boys,67.13,22,Zach Soto,Lubbock Coronado,64.77,174.63,111.13,174.63,460.4,Single-ply,SBD,M
Boys,67.13,DQ,Oscar Galvan,Laredo United South,66.5,,,,,Single-ply,SBD,M
Boys,67.13,DQ,Danny Diaz,Brownsville Lopez,65.95,233.6,,,,Single-ply,SBD,M
Boys,67.13,DQ,Brandon Jackson,Cedar Hill,67.13,208.65,145.15,,,Single-ply,SBD,M
Boys,74.84,1,Chayce Grevey,Victoria West,73.84,260.82,163.29,265.35,689.46,Single-ply,SBD,M
Boys,74.84,2,Taylor Bissell,Burleson,72.21,258.55,142.88,272.16,673.58,Single-ply,SBD,M
Boys,74.84,3,Eliseo Garzoria,Los Fresnos,74.57,260.82,124.74,285.76,671.32,Single-ply,SBD,M
Boys,74.84,4,Rogelio Pulido,Brownsville Lopez,74.3,256.28,140.61,272.16,669.05,Single-ply,SBD,M
Boys,74.84,5,Jacob Gracia,Weslaco,74.57,256.28,145.15,240.4,641.83,Single-ply,SBD,M
Boys,74.84,6,Ja'Vontay Williams,Nacogdoches,74.75,263.08,122.47,256.28,641.83,Single-ply,SBD,M
Boys,74.84,7,Daniel Leita,Port Lavaca Calhoun,71.85,231.33,136.08,260.82,628.23,Single-ply,SBD,M
Boys,74.84,8,Jared Hernandez,Texas City,74.12,244.94,145.15,235.87,625.96,Single-ply,SBD,M
Boys,74.84,9,Arturo Mancias,Brownsville Hanna,74.12,240.4,142.88,242.67,625.96,Single-ply,SBD,M
Boys,74.84,10,Gabe Cantu,Corpus Christi Calallen,72.94,238.14,124.74,258.55,621.42,Single-ply,SBD,M
Boys,74.84,11,Jesse Rodriguez,PSJA Memorial,73.84,247.21,140.61,231.33,619.15,Single-ply,SBD,M
Boys,74.84,12,George Kennard,Frisco Wakeland,74.03,233.6,145.15,233.6,612.35,Single-ply,SBD,M
Boys,74.84,13,Matthew Collier,San Antonio Southside,72.03,244.94,129.27,233.6,607.81,Single-ply,SBD,M
Boys,74.84,14,Joe Rodriguez,PSJA Southwest,74.03,229.06,156.49,217.72,603.28,Single-ply,SBD,M
Boys,74.84,15,Mark Saldana,San Antonio East Central,73.57,217.72,136.08,231.33,585.13,Single-ply,SBD,M
Boys,74.84,16,Omar Essix,Waco,74.66,229.06,115.67,240.4,585.13,Single-ply,SBD,M
Boys,74.84,17,Gage Carreon,Port Neches-Groves,73.75,226.8,124.74,226.8,578.33,Single-ply,SBD,M
Boys,74.84,18,Elvin Martinez,Huntsville,73.12,219.99,138.35,213.19,571.53,Single-ply,SBD,M
Boys,74.84,19,Luis Estrada,Plainview,69.4,210.92,129.27,215.46,555.65,Single-ply,SBD,M
Boys,74.84,20,Devin Romero,Abilene,73.21,210.92,99.79,222.26,532.97,Single-ply,SBD,M
Boys,74.84,DQ,Isaiah Washington,Everman,73.84,233.6,124.74,,,Single-ply,SBD,M
Boys,82.1,1,Roy Pedraza,Weslaco East,80.56,258.55,156.49,272.16,687.19,Single-ply,SBD,M
Boys,82.1,2,Rigo Ayala,Edcouch-Elsa,80.56,265.35,154.22,260.82,680.39,Single-ply,SBD,M
Boys,82.1,3,Cournelious Vaughans,Dickinson,81.37,265.35,170.1,231.33,666.78,Single-ply,SBD,M
Boys,82.1,4,Brandon Atnipp,Del Rio,79.38,240.4,158.76,256.28,655.44,Single-ply,SBD,M
Boys,82.1,5,Ronald Zamora,Nederland,80.83,249.48,167.83,235.87,653.17,Single-ply,SBD,M
Boys,82.1,6,Brandon Martinez,Brownsville Veterans Memorial,81.37,249.48,136.08,249.48,635.03,Single-ply,SBD,M
Boys,82.1,7,Salvador Castillo,Mission Sharyland,80.65,249.48,131.54,249.48,630.49,Single-ply,SBD,M
Boys,82.1,8,Ashton Williams,San Antonio East Central,81.56,254.01,149.69,226.8,630.49,Single-ply,SBD,M
Boys,82.1,9,Isaiah Garza,Somerset,80.47,224.53,142.88,244.94,612.35,Single-ply,SBD,M
Boys,82.1,10,Ramon Delgado,Brownsville Hanna,82.01,256.28,131.54,219.99,607.81,Single-ply,SBD,M
Boys,82.1,11,Kris Narcisse,Beaumont Ozen,80.29,240.4,149.69,213.19,603.28,Single-ply,SBD,M
Boys,82.1,12,Ryan Taylor,Lindale,80.83,231.33,142.88,229.06,603.28,Single-ply,SBD,M
Boys,82.1,13,James Worthy,Everman,80.2,238.14,129.27,226.8,594.21,Single-ply,SBD,M
Boys,82.1,14,Matt Hemphill,Dripping Springs,81.19,226.8,154.22,208.65,589.67,Single-ply,SBD,M
Boys,82.1,15,Robert Franklin,College Station A&M; Cons,79.38,226.8,131.54,224.53,582.87,Single-ply,SBD,M
Boys,82.1,16,Brian Aguilar,Everman,79.38,222.26,115.67,226.8,564.72,Single-ply,SBD,M
Boys,82.1,17,Gavin Pringle,Waxahachie,78.38,213.19,124.74,210.92,548.85,Single-ply,SBD,M
Boys,82.1,18,Tyler Gonzales,Midland,75.66,204.12,136.08,204.12,544.31,Single-ply,SBD,M
Boys,82.1,DQ,Raymond Castillo,Manvel,81.1,256.28,156.49,,,Single-ply,SBD,M
Boys,82.1,DQ,Rolando Gill,Plainview,81.47,204.12,129.27,,,Single-ply,SBD,M
Boys,82.1,DQ,Daniel Rodriguez #6,Port Lavaca Calhoun,81.92,,,,,Single-ply,SBD,M
Boys,82.1,DQ,Fabian Rodriguez,Los Fresnos,81.1,,,,,Single-ply,SBD,M
Boys,82.1,DQ,Robert Hernandez,La Joya Juarez-Lincoln,80.92,240.4,145.15,,,Single-ply,SBD,M
Boys,82.1,DQ,Pablo Garza,Brownsville Pace,81.28,226.8,,,,Single-ply,SBD,M
Boys,89.81,1,Seth Garcia,Edcouch-Elsa,87.36,319.78,156.49,294.84,771.11,Single-ply,SBD,M
Boys,89.81,2,Brandon Ragoonath,Burleson,86.82,272.16,181.44,294.84,748.43,Single-ply,SBD,M
Boys,89.81,3,David Luna,Laredo Johnson,89.63,283.5,161.03,274.42,718.94,Single-ply,SBD,M
Boys,89.81,4,Carandal Hale,Greenville,88.54,301.64,154.22,260.82,716.68,Single-ply,SBD,M
Boys,89.81,5,Danny Ramos,Brownsville Lopez,89.81,278.96,170.1,260.82,709.87,Single-ply,SBD,M
Boys,89.81,6,Caleb Johnson,Lumberton,88.9,254.01,167.83,258.55,680.39,Single-ply,SBD,M
Boys,89.81,7,Dylan Bates,Conroe Oak Ridge,87.27,265.35,149.69,249.48,664.51,Single-ply,SBD,M
Boys,89.81,8,Daniel Yanez,Donna,88.81,265.35,161.03,238.14,664.51,Single-ply,SBD,M
Boys,89.81,9,Fernando Hernandez,La Joya Juarez-Lincoln,88.72,251.74,151.95,256.28,659.98,Single-ply,SBD,M
Boys,89.81,10,Alexis Olalde,Brownsville Lopez,88,260.82,138.35,258.55,657.71,Single-ply,SBD,M
Boys,89.81,11,Bowen Kirkbride,Denison,89.09,272.16,149.69,235.87,657.71,Single-ply,SBD,M
Boys,89.81,12,Chris Reyes,Crowley,89.27,249.48,154.22,254.01,657.71,Single-ply,SBD,M
Boys,89.81,13,Julio Garcia,La Joya Juarez-Lincoln,88.09,251.74,151.95,251.74,655.44,Single-ply,SBD,M
Boys,89.81,14,Omar Galan,Laredo Alexander,89.54,258.55,156.49,238.14,653.17,Single-ply,SBD,M
Boys,89.81,15,Demontre Bell,Texas City,87.91,249.48,122.47,272.16,644.1,Single-ply,SBD,M
Boys,89.81,16,Nathan Silva,Brownsville Hanna,86.91,258.55,127.01,249.48,635.03,Single-ply,SBD,M
Boys,89.81,17,Rene Osornia,Port Lavaca Calhoun,89.54,249.48,145.15,238.14,632.76,Single-ply,SBD,M
Boys,89.81,18,Jonathan Jones,Willis,88.09,208.65,154.22,249.48,612.35,Single-ply,SBD,M
Boys,89.81,19,Chris Arnold,Texarkana Texas,89.72,231.33,117.93,242.67,591.94,Single-ply,SBD,M
Boys,89.81,20,Buddy Curry,Belton,87.72,235.87,142.88,210.92,589.67,Single-ply,SBD,M
Boys,89.81,21,Vincent Tran,Nederland,88.63,233.6,133.81,219.99,587.4,Single-ply,SBD,M
Boys,89.81,22,Josh Chandler,Midland,87,208.65,140.61,222.26,571.53,Single-ply,SBD,M
Boys,89.81,23,Carlos Pina,Lubbock Cooper,86.45,219.99,138.35,204.12,562.45,Single-ply,SBD,M
Boys,89.81,DQ,Trace Gray,Lumberton,89.27,263.08,,,,Single-ply,SBD,M
Boys,89.81,DQ,Jose Nicoleau,Sharyland Pioneer,89.81,,,,,Single-ply,SBD,M
Boys,89.81,DQ,Luis Salinas,Sharyland Pioneer,89.54,263.08,,,,Single-ply,SBD,M
Boys,89.81,DQ,Jaytron Phillips,Fort Worth Chisholm Trail,88,238.14,,,,Single-ply,SBD,M
Boys,89.81,DQ,Jaylon Parmes,Everman,87.63,,,,,Single-ply,SBD,M
Boys,99.79,1,Cole Stewart,Aledo,97.61,297.1,176.9,290.3,764.3,Single-ply,SBD,M
Boys,99.79,2,Travis Anderson,Crosby,92.71,274.42,195.04,285.76,755.23,Single-ply,SBD,M
Boys,99.79,3,Eddie Garcia,Port Lavaca Calhoun,99.7,319.78,163.29,272.16,755.23,Single-ply,SBD,M
Boys,99.79,4,Israel Alfaro,Weslaco East,98.34,288.03,192.78,265.35,746.16,Single-ply,SBD,M
Boys,99.79,5,Fernando Gonzalez,La Joya Palmview,99.25,306.17,170.1,256.28,732.55,Single-ply,SBD,M
Boys,99.79,6,Elijah Sanchez,Edcouch-Elsa,96.07,285.76,190.51,249.48,725.75,Single-ply,SBD,M
Boys,99.79,7,Ryan Brooks,Dallas Jesuit,98.43,292.57,188.24,240.4,721.21,Single-ply,SBD,M
Boys,99.79,8,Joe Thomas,Beaumont Ozen,94.26,294.84,147.42,272.16,714.41,Single-ply,SBD,M
Boys,99.79,9,Zevaughn Shelton,Victoria West,97.07,299.37,154.22,256.28,709.87,Single-ply,SBD,M
Boys,99.79,10,Ernesto Ibarra,Cleburne,96.43,272.16,163.29,272.16,707.6,Single-ply,SBD,M
Boys,99.79,11,Caleb High,Waxahachie,95.71,288.03,161.03,251.74,700.8,Single-ply,SBD,M
Boys,99.79,12,Brant Kobersky,Alvin,97.98,303.91,161.03,231.33,696.26,Single-ply,SBD,M
Boys,99.79,13,Paul Sanchez,Hutto,98.88,272.16,151.95,272.16,696.26,Single-ply,SBD,M
Boys,99.79,14,Keeland Moore,Georgetown,97.61,290.3,165.56,233.6,689.46,Single-ply,SBD,M
Boys,99.79,15,Rafa Pena,Brownsville Hanna,98.97,288.03,149.69,249.48,687.19,Single-ply,SBD,M
Boys,99.79,16,Leo Gonzalez,Brownsville Hanna,95.71,265.35,154.22,265.35,684.92,Single-ply,SBD,M
Boys,99.79,17,Will Efendiev,College Station,98.16,249.48,181.44,254.01,684.92,Single-ply,SBD,M
Boys,99.79,18,Ricky Arreola,Brownsville Hanna,97.61,278.96,170.1,233.6,682.66,Single-ply,SBD,M
Boys,99.79,19,Nick Stewart,Waxahachie,95.89,265.35,163.29,251.74,680.39,Single-ply,SBD,M
Boys,99.79,20,Mark Sustaita,Castroville Medina Valley,96.25,274.42,154.22,242.67,671.32,Single-ply,SBD,M
Boys,99.79,21,Tanner Oliver,Keller Timber Creek,98.52,249.48,167.83,254.01,671.32,Single-ply,SBD,M
Boys,99.79,22,Joseph Rodriguez,Bastrop Cedar Creek,99.16,260.82,156.49,249.48,666.78,Single-ply,SBD,M
Boys,99.79,23,Eric Luck,Victoria East,96.07,274.42,176.9,208.65,659.98,Single-ply,SBD,M
Boys,99.79,24,Turner Phillips,Midland,93.98,240.4,136.08,240.4,616.89,Single-ply,SBD,M
Boys,99.79,DQ,Dallin Hack,San Antonio Southwest,95.07,,,,,Single-ply,SBD,M
Boys,99.79,DQ,Frankie Lopez,Corpus Christi Tuloso-Midway,94.89,281.23,176.9,,,Single-ply,SBD,M
Boys,99.79,DQ,David Caddie,Livingston,95.53,272.16,,,,Single-ply,SBD,M
Boys,99.79,DQ,Cameron Williams,Keller,92.17,,,,,Single-ply,SBD,M
Boys,,NS,Crystin Baston,Plainview,,,,,,Single-ply,SBD,M
Boys,99.79,DQ,Kevin Nguyen #9,Friendswood Clear Brook,97.7,,,,,Single-ply,SBD,M
Boys,99.79,DQ,Roy Kelley,Conroe,93.62,306.17,138.35,,,Single-ply,SBD,M
Boys,109.77,1,Kaylond North,Dickinson,107.41,353.8,195.04,303.91,852.75,Single-ply,SBD,M
Boys,109.77,2,Carlos Chester,Manor,106.5,283.5,174.63,294.84,752.96,Single-ply,SBD,M
Boys,109.77,3,Juan Martinez,Donna North,107.05,308.44,172.37,272.16,752.96,Single-ply,SBD,M
Boys,109.77,4,Eddie Gomez,Edcouch-Elsa,107.14,317.51,156.49,272.16,746.16,Single-ply,SBD,M
Boys,109.77,5,Jonathan Grimaldo,Donna,109.59,303.91,176.9,265.35,746.16,Single-ply,SBD,M
Boys,109.77,6,Corban James,Fort Worth Arlington Heights,104.96,299.37,170.1,258.55,728.02,Single-ply,SBD,M
Boys,109.77,7,Nathaniel Rutherford,Joshua,104.69,294.84,156.49,256.28,707.6,Single-ply,SBD,M
Boys,109.77,8,Freddy Martinez,Los Fresnos,108.41,281.23,195.04,229.06,705.34,Single-ply,SBD,M
Boys,109.77,9,Teodoro Garcia,McAllen Memorial,107.86,294.84,181.44,226.8,703.07,Single-ply,SBD,M
Boys,109.77,10,Justin Knight,Lumberton,108.5,317.51,145.15,240.4,703.07,Single-ply,SBD,M
Boys,109.77,11,Isahi Cardenas,Victoria West,108.86,319.78,158.76,222.26,700.8,Single-ply,SBD,M
Boys,109.77,12,Rene Troche-Baez,Conroe The Woodlands,105.69,272.16,140.61,278.96,691.73,Single-ply,SBD,M
Boys,109.77,13,Diundre Washington,Beaumont Ozen,109.04,265.35,188.24,238.14,691.73,Single-ply,SBD,M
Boys,109.77,14,Roy Abanonu,Plainview,108.23,272.16,161.03,251.74,684.92,Single-ply,SBD,M
Boys,109.77,15,Matt Frazier,Port Lavaca Calhoun,109.04,294.84,163.29,226.8,684.92,Single-ply,SBD,M
Boys,109.77,16,Eddie Moreno,Somerset,107.95,263.08,172.37,247.21,682.66,Single-ply,SBD,M
Boys,109.77,17,Wilfredo Valladares,Tyler,103.87,283.5,156.49,240.4,680.39,Single-ply,SBD,M
Boys,109.77,18,Abel Longoria,Kyle Lehman,102.6,272.16,149.69,226.8,648.64,Single-ply,SBD,M
Boys,109.77,19,Amir Sa'id,Cedar Hill,104.78,240.4,127.01,249.48,616.89,Single-ply,SBD,M
Boys,,NS,Anthoney Perez,Waxahachie,,,,,,Single-ply,SBD,M
Boys,109.77,DQ,Jose Hernandez,San Marcos,106.78,285.76,149.69,,,Single-ply,SBD,M
Boys,109.77,DQ,Andres Enriquez,PSJA,106.59,272.16,170.1,,,Single-ply,SBD,M
Boys,,NS,Derek Parish,Pearland,,,,,,Single-ply,SBD,M
Boys,109.77,DQ,Keoni Garcia,Midland,104.14,272.16,181.44,,,Single-ply,SBD,M
Boys,124.74,1,Kody Russey,Burleson,121.97,326.59,210.92,335.66,873.17,Single-ply,SBD,M
Boys,124.74,2,Chase Kellar,Conroe Caney Creek,122.29,317.51,201.85,301.64,821,Single-ply,SBD,M
Boys,124.74,3,Anietie Etuk,Dickinson,120.47,299.37,197.31,310.71,807.39,Single-ply,SBD,M
Boys,124.74,4,Devon Miller,Midland,118.66,306.17,208.65,290.3,805.13,Single-ply,SBD,M
Boys,124.74,5,Braden Martinez,Belton,123.29,331.12,170.1,292.57,793.79,Single-ply,SBD,M
Boys,124.74,6,Christian Bluiett,Beaumont West Brook,122.47,306.17,192.78,281.23,780.18,Single-ply,SBD,M
Boys,124.74,7,Jacob Rodriguez,Corpus Christi Tuloso-Midway,120.84,340.19,167.83,263.08,771.11,Single-ply,SBD,M
Boys,124.74,8,Tyler Moran,Port Neches-Groves,122.74,288.03,219.99,251.74,759.77,Single-ply,SBD,M
Boys,124.74,9,Chris Garcia,Prosper,122.92,285.76,204.12,263.08,752.96,Single-ply,SBD,M
Boys,124.74,10,Johnathan Banda,Weslaco East,121.38,294.84,158.76,294.84,748.43,Single-ply,SBD,M
Boys,124.74,11,Antonio Washington,Marshall,121.29,317.51,149.69,272.16,739.36,Single-ply,SBD,M
Boys,124.74,12,Jared Spivey,Bryan,115.12,308.44,181.44,240.4,730.28,Single-ply,SBD,M
Boys,124.74,13,Kyler Gentry,Santa Fe,124.28,294.84,176.9,258.55,730.28,Single-ply,SBD,M
Boys,124.74,14,Pablo Trevino,Edinburg Vela,118.48,294.84,170.1,263.08,728.02,Single-ply,SBD,M
Boys,124.74,15,Fabian Castillo,Edinburg Economedes,121.11,272.16,183.7,260.82,716.68,Single-ply,SBD,M
Boys,124.74,16,Andre Gonzalez,Brownsville Hanna,121.02,292.57,151.95,249.48,694,Single-ply,SBD,M
Boys,124.74,17,Roman Ruiz,Lockhart,118.66,265.35,161.03,258.55,684.92,Single-ply,SBD,M
Boys,124.74,18,Dante Hayes,Texas City,124.74,267.62,167.83,249.48,684.92,Single-ply,SBD,M
Boys,124.74,19,Ja'Coby Paul,Terrell,115.94,263.08,170.1,249.48,682.66,Single-ply,SBD,M
Boys,124.74,20,Miller Nguyen,Garland Naaman Forest,120.38,276.69,142.88,256.28,675.85,Single-ply,SBD,M
Boys,124.74,20,Miller Nguyen,Garland Naaman Forest,120.38,276.69,142.88,256.28,675.85,Single-ply,SBD,M
Boys,124.74,21,Corey Stang,Magnolia,112.04,272.16,156.49,244.94,673.58,Single-ply,SBD,M
Boys,124.74,22,Paxton Heiting,Midland,122.38,242.67,170.1,260.82,673.58,Single-ply,SBD,M
Boys,124.74,DQ,Charles Owens,Bryan Rudder,124.28,,,,,Single-ply,SBD,M
Boys,,NS,Camren Thompson,Frisco Wakeland,,,,,,Single-ply,SBD,M
Boys,124.74+,1,Carlos Sanchez,Laredo United South,129.09,362.87,192.78,312.98,868.63,Single-ply,SBD,M
Boys,124.74+,2,Chance Harmanson,Dickinson,150.68,347,224.53,297.1,868.63,Single-ply,SBD,M
Boys,124.74+,3,Jordan Seymore,College Station,148.78,344.73,181.44,272.16,798.32,Single-ply,SBD,M
Boys,124.74+,4,Eli Olivo,Donna North,142.7,331.12,204.12,258.55,793.79,Single-ply,SBD,M
Boys,124.74+,5,Julio Contreras,Edcouch-Elsa,126.19,328.85,174.63,288.03,791.52,Single-ply,SBD,M
Boys,124.74+,6,Brandon Jackson,Port Arthur Memorial,133.63,308.44,172.37,299.37,780.18,Single-ply,SBD,M
Boys,124.74+,7,Josh Trevino,Brownsville Lopez,140.34,317.51,183.7,272.16,773.37,Single-ply,SBD,M
Boys,124.74+,8,Collin Partridge,Wichita Falls Rider,138.89,328.85,199.58,226.8,755.23,Single-ply,SBD,M
Boys,124.74+,9,Eric Roberts,Terrell,142.7,308.44,192.78,254.01,755.23,Single-ply,SBD,M
Boys,124.74+,10,Norris Floyd,North Forney,148.87,317.51,158.76,272.16,748.43,Single-ply,SBD,M
Boys,124.74+,11,Javon Chambers,Belton,136.71,340.19,165.56,235.87,741.62,Single-ply,SBD,M
Boys,124.74+,12,Brandon Perez,Weslaco,162.75,310.71,174.63,251.74,737.09,Single-ply,SBD,M
Boys,124.74+,13,Chris Rogers,Katy Taylor,137.44,294.84,158.76,274.42,728.02,Single-ply,SBD,M
Boys,124.74+,14,Braxton Gardner,Midland,137.62,297.1,147.42,263.08,707.6,Single-ply,SBD,M
Boys,124.74+,15,Keenan Murphy,Crosby,138.62,265.35,170.1,263.08,698.53,Single-ply,SBD,M
Boys,124.74+,DQ,Jesus Verastegui,Abilene,149.32,276.69,,,,Single-ply,SBD,M
Boys,124.74+,DQ,Dawson Smith,Huntsville,130,285.76,,,,Single-ply,SBD,M
Boys,124.74+,DQ,Terry Carter,Livingston,154.67,,,,,Single-ply,SBD,M
Boys,,NS,Terrance Manning,Dayton,,,,,,Single-ply,SBD,M
Boys,124.74+,DQ,Clifton Coffey,Cedar Hill,168.55,299.37,179.17,,,Single-ply,SBD,M
