Name,Equipment,BodyweightKg,WeightClassKg,AgeClass,Squat1Kg,Squat2Kg,Squat3Kg,Best3SquatKg,Bench1Kg,Bench2Kg,Bench3Kg,Best3BenchKg,Deadlift1Kg,Deadlift2Kg,Deadlift3Kg,Best3DeadliftKg,TotalKg,Place,Division,Sex,Event,Age,BirthDate
Chloe Dickinson,Raw,45.5,47,0-22.5,75,82.5,-90,82.5,42.5,-47.5,-47.5,42.5,90,100,-102.5,100,225,1,F-C-U23,F,SBD,,
Emily Norley,Raw,56.9,57,0-22.5,120,127.5,130,130,70,75,-77.5,75,130,140,-150,140,345,1,F-C-U23,F,SBD,,
Ellenah Sayers,Raw,55.5,57,0-22.5,-112.5,112.5,-120,112.5,-50,52.5,-57.5,52.5,120,130,135,135,300,2,F-C-U23,F,SBD,,
Anouska Bridgeman,Raw,55.3,57,0-22.5,85,90,92.5,92.5,40,45,47.5,47.5,110,120,127.5,127.5,267.5,3,F-C-U23,F,SBD,,
Kayleigh Russell,Raw,55.5,57,0-22.5,77.5,85,-90,85,45,47.5,-50,47.5,105,112.5,120,120,252.5,4,F-C-U23,F,SBD,,
Victoria Hammond,Raw,62.85,63,0-22.5,125,132.5,137.5,137.5,62.5,65,67.5,67.5,145,155,165,165,370,1,F-C-U23,F,SBD,,
Karenjeet Bains,Raw,61.75,63,0-22.5,115,122.5,127.5,127.5,67.5,72.5,75,75,140,152.5,160,160,362.5,2,F-C-U23,F,SBD,,
Elizabeth Mills,Raw,70.2,72,0-22.5,127.5,135,140,140,70,75,-77.5,75,167.5,180,185,185,400,1,F-C-U23,F,SBD,,
Lydia Charles,Raw,70.65,72,0-22.5,140,147.5,152.5,152.5,67.5,72.5,-75,72.5,167.5,175,-185,175,400,2,F-C-U23,F,SBD,,
Charlie Chester,Raw,112.8,84+,0-22.5,177.5,187.5,200.5,200.5,90,97.5,102.5,102.5,177.5,187.5,197.5,197.5,500.5,1,F-C-U23,F,SBD,,
Rebecca Heath,Raw,46.4,47,23.5-38.5,105,110,112.5,112.5,62.5,67.5,70,70,120,130,137.5,137.5,320,1,F-C-Open,F,SBD,,
Jazmine Franks,Raw,51.55,52,23.5-38.5,105,-112.5,-112.5,105,57.5,60,-62.5,60,115,-125,125,125,290,1,F-C-Open,F,SBD,,
Natalie Banks,Raw,51.4,52,23.5-38.5,-90,90,-95,90,57.5,60,-62.5,60,137.5,-142.5,-142.5,137.5,287.5,2,F-C-Open,F,SBD,,
Amanda Hughes,Raw,50.45,52,23.5-38.5,75,82.5,85,85,55,60,-62.5,60,102.5,112.5,122.5,122.5,267.5,3,F-C-Open,F,SBD,,
Leanne Singleton,Raw,51.6,52,23.5-38.5,82.5,-87.5,90,90,37.5,42.5,-45,42.5,125,135,-140,135,267.5,4,F-C-Open,F,SBD,,
Romina Basting,Raw,51.55,52,23.5-38.5,-92.5,92.5,97.5,97.5,47.5,50,52.5,52.5,102.5,110,112.5,112.5,262.5,5,F-C-Open,F,SBD,,
Bobbie Butters,Raw,56.8,57,23.5-38.5,140,150,157.5,157.5,80,87.5,92.5,92.5,150,162.5,,162.5,412.5,1,F-C-Open,F,SBD,,
Moya Williams,Raw,56.1,57,23.5-38.5,110,117.5,120,120,60,65,67.5,67.5,160,175,180,180,367.5,2,F-C-Open,F,SBD,,
Esther Rimmer,Raw,54.7,57,23.5-38.5,110,115,120,120,60,65,-67.5,65,132.5,140,150,150,335,3,F-C-Open,F,SBD,,
Suzana Sorokova,Raw,55.1,57,23.5-38.5,107.5,112.5,-117.5,112.5,65,70,-72.5,70,137.5,145,150,150,332.5,4,F-C-Open,F,SBD,,
Jess Goodchild,Raw,54.3,57,23.5-38.5,-110,110,-120,110,57.5,62.5,-65,62.5,125,135,-142.5,135,307.5,5,F-C-Open,F,SBD,,
Emma Drackford,Raw,55.4,57,23.5-38.5,112.5,117.5,122.5,122.5,50,55,60,60,112.5,117.5,125,125,307.5,6,F-C-Open,F,SBD,,
Emily Przeslak,Raw,56.6,57,23.5-38.5,95,102.5,107.5,107.5,55,60,-62.5,60,125,132.5,140,140,307.5,7,F-C-Open,F,SBD,,
Leanne Brumby,Raw,56.7,57,23.5-38.5,102.5,112.5,115,115,57.5,62.5,-65,62.5,-115,115,122.5,122.5,300,8,F-C-Open,F,SBD,,
Tina Lee,Raw,55.3,57,23.5-38.5,100,110,117.5,117.5,50,55,-57.5,55,110,120,-127.5,120,292.5,9,F-C-Open,F,SBD,,
Felicity Sadler,Raw,55.9,57,23.5-38.5,92.5,102.5,-105,102.5,52.5,57.5,-60,57.5,102.5,110,-115,110,270,10,F-C-Open,F,SBD,,
Alexandra Munns,Raw,56.2,57,23.5-38.5,82.5,87.5,-90,87.5,52.5,-57.5,-57.5,52.5,110,120,130,130,270,11,F-C-Open,F,SBD,,
Rowina Westermeier,Raw,56.5,57,23.5-38.5,90,95,100,100,40,45,50,50,100,110,-120,110,260,12,F-C-Open,F,SBD,,
Jessica Hobson,Raw,53.2,57,23.5-38.5,67.5,72.5,75,75,47.5,52.5,-55,52.5,97.5,105,110,110,237.5,13,F-C-Open,F,SBD,,
Rima Baki,Raw,62.7,63,23.5-38.5,130,-140,145,145,80,85,-87.5,85,155,165,-170,165,395,1,F-C-Open,F,SBD,,
Grace Stilgoe,Raw,62.3,63,23.5-38.5,130,137.5,142.5,142.5,72.5,75,-77.5,75,155,165,-170,165,382.5,2,F-C-Open,F,SBD,,
April Howe,Raw,60.4,63,23.5-38.5,147.5,-155.5,-155.5,147.5,75,80,-85,80,125,132.5,142.5,142.5,370,3,F-C-Open,F,SBD,,
Sophie Thomas,Raw,62.4,63,23.5-38.5,122.5,-130,-130,122.5,57.5,-62.5,-70,57.5,150,165,180,180,360,4,F-C-Open,F,SBD,,
Debbie Gathercole,Raw,59.5,63,23.5-38.5,112.5,120,-125,120,70,75,-80,75,145,155,162.5,162.5,357.5,5,F-C-Open,F,SBD,,
Maariyah Tahir,Raw,61.6,63,23.5-38.5,105,112.5,-117.5,112.5,65,-70,-70,65,155,167.5,-177.5,167.5,345,6,F-C-Open,F,SBD,,
Hayley Gamblin,Raw,61,63,23.5-38.5,102.5,107.5,-110,107.5,65,67.5,-70,67.5,135,140,152.5,152.5,327.5,7,F-C-Open,F,SBD,,
Emelie Forsberg,Raw,61.1,63,23.5-38.5,-112.5,112.5,-120,112.5,65,70,-72.5,70,130,140,-147.5,140,322.5,8,F-C-Open,F,SBD,,
Cassandra Marillier,Raw,62.3,63,23.5-38.5,102.5,110,117.5,117.5,45,50,-55,50,110,120,132.5,132.5,300,9,F-C-Open,F,SBD,,
Angharad Fraser-Williams,Raw,62.8,63,23.5-38.5,97.5,-105,105,105,52.5,55,-57.5,55,130,140,-145,140,300,10,F-C-Open,F,SBD,,
Faye Jordan,Single-ply,61.6,63,23.5-38.5,130,-135,135,135,-85,85,90,90,130,140,-150,140,365,1,F-E-Open,F,SBD,,
Amy Spencer,Single-ply,72,72,23.5-38.5,177.5,187.5,-195,187.5,92.5,-100,-105,92.5,140,150,160,160,440,1,F-E-Open,F,SBD,,
Sheri Miles,Raw,71.1,72,23.5-38.5,135,145,150,150,85,-90,-90,85,185,-202.5,202.5,202.5,437.5,1,F-C-Open,F,SBD,,
Rachel Bradish,Raw,70.65,72,23.5-38.5,140,150,-155,150,75,80,85,85,160,170,177.5,177.5,412.5,2,F-C-Open,F,SBD,,
Emily Greenway,Raw,70.6,72,23.5-38.5,147.5,157.5,-167.5,157.5,70,72.5,-75,72.5,160,170,177.5,177.5,407.5,3,F-C-Open,F,SBD,,1994-12-18
Rowena Roos,Raw,67.1,72,23.5-38.5,145,155,-160,155,70,72.5,-75,72.5,170,-177.5,-177.5,170,397.5,4,F-C-Open,F,SBD,,
Emily Williams,Raw,71.1,72,23.5-38.5,140,150,157.5,157.5,67.5,72.5,75,75,140,152.5,162.5,162.5,395,5,F-C-Open,F,SBD,,
Florence Walton,Raw,70.2,72,23.5-38.5,140,147.5,152.5,152.5,75,80,85,85,130,145,152.5,152.5,390,6,F-C-Open,F,SBD,,
Rebecca Kay,Raw,68.1,72,23.5-38.5,115,125,130,130,60,65,70,70,145,155,165,165,365,7,F-C-Open,F,SBD,,
Naomi Botham,Raw,69.9,72,23.5-38.5,120,125,-130,125,60,62.5,65,65,155,162.5,170,170,360,8,F-C-Open,F,SBD,,
Heather Murray,Raw,71.9,72,23.5-38.5,120,127.5,130,130,65,70,-75,70,145,155,-160,155,355,9,F-C-Open,F,SBD,,
Lauren-May Drake,Raw,70.2,72,23.5-38.5,-110,112.5,117.5,117.5,57.5,60,-62.5,60,155,162.5,-170,162.5,340,10,F-C-Open,F,SBD,,
Bea Wright,Raw,72,72,23.5-38.5,117.5,-125,125,125,70,-75,-75,70,142.5,-152.5,-152.5,142.5,337.5,11,F-C-Open,F,SBD,,
Laura Parkinson,Raw,71.6,72,23.5-38.5,110,120,122.5,122.5,60,62.5,-65,62.5,140,145,-150,145,330,12,F-C-Open,F,SBD,,
Janine Kessel,Raw,66.7,72,23.5-38.5,112.5,120,125,125,55,-60,-60,55,115,125,-132.5,125,305,13,F-C-Open,F,SBD,,
Laura Battersby,Raw,69,72,23.5-38.5,90,95,-100,95,57.5,60,-62.5,60,140,145,-150,145,300,14,F-C-Open,F,SBD,,
Alexandra Lilley,Raw,69.9,72,23.5-38.5,97.5,-102.5,-102.5,97.5,50,-55,-55,50,125,132.5,140,140,287.5,15,F-C-Open,F,SBD,,
Temitope Nuga,Raw,81.5,84,23.5-38.5,157.5,162.5,-167.5,162.5,82.5,85,87.5,87.5,180,192.5,200,200,450,1,F-C-Open,F,SBD,,
Chloe Whylie,Raw,83.5,84,23.5-38.5,152.5,157.5,162.5,162.5,75,80,-82.5,80,180,190,197.5,197.5,440,2,F-C-Open,F,SBD,,
Nicola Stimpson,Raw,82.85,84,23.5-38.5,160,165,-167.5,165,60,67.5,-72.5,67.5,-160,160,-165,160,392.5,3,F-C-Open,F,SBD,,
Lola Alabi,Raw,76.95,84,23.5-38.5,-147.5,-152.5,152.5,152.5,55,60,-65,60,167.5,175,-180,175,387.5,4,F-C-Open,F,SBD,,
Claire Dickson,Raw,82.2,84,23.5-38.5,-125,125,-130,125,82.5,-85,-85,82.5,140,145,150,150,357.5,5,F-C-Open,F,SBD,,
Lucy Hyde,Raw,81.95,84,23.5-38.5,90,92.5,107.5,107.5,80,85,87.5,87.5,140,150,160,160,355,6,F-C-Open,F,SBD,,1979-09-28
Elizabeth Robinson,Raw,81.85,84,23.5-38.5,105,112.5,-117.5,112.5,55,60,-62.5,60,140,150,160,160,332.5,7,F-C-Open,F,SBD,,
Mariam Mahmoud,Raw,80.2,84,23.5-38.5,110,120,125,125,57.5,62.5,65,65,130,140,-150,140,330,8,F-C-Open,F,SBD,,
Leigh Wetheridge,Raw,105.45,84+,23.5-38.5,185,-195,195,195,100,110,-118,110,210,220,-230,220,525,1,F-C-Open,F,SBD,,
Scarlett Sotiris,Raw,92.45,84+,23.5-38.5,140,150,160,160,70,80,85,85,170,182.5,195,195,440,2,F-C-Open,F,SBD,,
Alex Foden,Raw,107.45,84+,23.5-38.5,-170,175,-185,175,85,87.5,-90,87.5,165,175,-180,175,437.5,3,F-C-Open,F,SBD,,
Katrina Sweatman,Raw,109.55,84+,23.5-38.5,160,170,-175,170,80,87.5,-90,87.5,162.5,172.5,177.5,177.5,435,4,F-C-Open,F,SBD,,
Steevi Pugh,Raw,100.75,84+,23.5-38.5,175,182.5,190,190,70,75,77.5,77.5,150,160,-162.5,160,427.5,5,F-C-Open,F,SBD,,
Mary McCance,Raw,92.1,84+,23.5-38.5,140,-150,150,150,70,75,80,80,180,190,-195,190,420,6,F-C-Open,F,SBD,,
Mariemy Montero,Raw,109.05,84+,23.5-38.5,120,130,-135,130,107.5,-112.5,-112.5,107.5,155,165,-175,165,402.5,7,F-C-Open,F,SBD,,
Emma Baggaley,Raw,93.25,84+,23.5-38.5,140,-145,-145,140,70,-77.5,-80,70,165,170,172.5,172.5,382.5,8,F-C-Open,F,SBD,,1980-03-20
Susy Pyzer-Knapp,Raw,94.1,84+,23.5-38.5,125,132.5,-140,132.5,50,55,60,60,160,172.5,180,180,372.5,9,F-C-Open,F,SBD,,
Kelly-Marie Edwards,Raw,127.4,84+,23.5-38.5,-135,-135,135,135,65,70,72.5,72.5,145,155,165,165,372.5,10,F-C-Open,F,SBD,,
Lizzy Terry,Raw,93.75,84+,23.5-38.5,-140,140,-147.5,140,55,-60,60,60,160,170,-175,170,370,11,F-C-Open,F,SBD,,
Elizabeth Morrissey,Raw,90.45,84+,23.5-38.5,137.5,142.5,145,145,65,70,-72.5,70,140,145,-147.5,145,360,12,F-C-Open,F,SBD,,
Lucy Jackson,Raw,102,84+,23.5-38.5,-190,-190,-190,,95,100,-107.5,100,190,-195,-195,190,,DQ,F-C-Open,F,SBD,,
Imelda Flanagan,Raw,42.4,47,49.5-58.5,67.5,72.5,75,75,35,37.5,40,40,105,110,-112.5,110,225,1,F-C-M2,F,SBD,,
Marina Cornwall,Raw,43.95,47,59.5-68.5,65,67.5,70,70,37.5,42.5,45,45,105,110,-112.5,110,225,2,F-C-M3,F,SBD,,
Sofia Rufus,Raw,51.05,52,39.5-48.5,107.5,115,-117.5,115,50,55,-57.5,55,112.5,122.5,-127.5,122.5,292.5,1,F-C-M1,F,SBD,,
Sarah Butcher,Raw,55.25,57,59.5-68.5,70,75,80,80,35,-40,40,40,100,-107.5,110,110,230,1,F-C-M3,F,SBD,,
Donna Bradbury,Raw,59.5,63,39.5-48.5,122.5,127.5,132.5,132.5,62.5,65,67.5,67.5,135,142.5,147.5,147.5,347.5,1,F-C-M1,F,SBD,,
Sharon Holmes #1,Raw,62,63,39.5-48.5,125,132.5,-140,132.5,65,70,72.5,72.5,130,135,140,140,345,2,F-C-M1,F,SBD,,
Helen Hughes #2,Raw,60.05,63,39.5-48.5,82.5,87.5,90,90,47.5,52.5,-55,52.5,102.5,107.5,110,110,252.5,3,F-C-M1,F,SBD,,
Yasmina Couty,Single-ply,62,63,39.5-48.5,135,145,-150,145,-65,-65,-65,,150,157.5,167.5,167.5,,DQ,F-E-M1,F,SBD,,
Diane Stockwell,Raw,61.5,63,49.5-58.5,102.5,107.5,110,110,62.5,-67.5,67.5,67.5,122.5,130,135,135,312.5,4,F-C-M2,F,SBD,,
Ness Butler,Raw,59.25,63,49.5-58.5,80,-90,90,90,47.5,50,-52.5,50,100,112.5,122.5,122.5,262.5,5,F-C-M2,F,SBD,,
Emma Taylor,Raw,68.4,72,39.5-48.5,-125,135,-140,135,67.5,70,-72.5,70,162.5,170,180,180,385,1,F-C-M1,F,SBD,,
Nina Cambatta,Raw,68.55,72,39.5-48.5,125,132.5,-137.5,132.5,70,75,-77.5,75,155,165,175,175,382.5,2,F-C-M1,F,SBD,,
Cassie Kane,Raw,71.4,72,39.5-48.5,110,120,-125,120,65,70,72.5,72.5,140,160,-170,160,352.5,3,F-C-M1,F,SBD,,
Paula Gentle,Raw,65.1,72,39.5-48.5,105,110,115,115,50,52.5,55,55,-135,140,-145,140,310,4,F-C-M1,F,SBD,,
Ajanta Hilton,Raw,70.4,72,39.5-48.5,95,105,112.5,112.5,50,52.5,-57.5,52.5,127.5,132.5,140,140,305,5,F-C-M1,F,SBD,,
Debbie Cornish,Raw,71.9,72,39.5-48.5,-70,75,-80,75,-45,52.5,55,55,105,117.5,125,125,255,6,F-C-M1,F,SBD,,
Rita Shergold,Raw,67.8,72,49.5-58.5,85,95,105,105,55,62.5,-65,62.5,115,125,132.5,132.5,300,7,F-C-M2,F,SBD,,
Kelly Clark,Raw,69.35,72,49.5-58.5,75,80,85,85,45,50,52.5,52.5,100,110,-120,110,247.5,8,F-C-M2,F,SBD,,
Kitty Burroughs,Single-ply,82.15,84,39.5-48.5,150,160,170,170,85,90,95,95,160,170,-185,170,435,1,F-E-M1,F,SBD,,
Netty Hall,Raw,80.6,84,39.5-48.5,110,120,130,130,60,65,70,70,130,-140,140,140,340,1,F-C-M1,F,SBD,43,
Verena Manchip,Raw,83,84,39.5-48.5,-130,140,150,150,-57.5,-62.5,-62.5,,140,150,160,160,,DQ,F-C-M1,F,SBD,,
Sarah Marsden,Raw,92.75,84+,39.5-48.5,140,150,-155,150,77.5,82.5,-85,82.5,140,150,157.5,157.5,390,1,F-C-M1,F,SBD,,
Siobhan Taylor,Raw,97.35,84+,39.5-48.5,120,132.5,-142.5,132.5,65,70,-75,70,140,150,160,160,362.5,2,F-C-M1,F,SBD,,
Paula Craven,Raw,97.1,84+,39.5-48.5,110,117.5,-120,117.5,57.5,60,-62.5,60,130,135,140,140,317.5,3,F-C-M1,F,SBD,,
Claire Vize,Raw,94.9,84+,39.5-48.5,100,110,-117.5,110,50,55,60,60,125,135,-140,135,305,4,F-C-M1,F,SBD,,
Claire Stansfield,Raw,92.35,84+,39.5-48.5,77.5,80,82.5,82.5,57.5,60,62.5,62.5,112.5,115,117.5,117.5,262.5,5,F-C-M1,F,SBD,,
Joel Wakeham,Raw,57.4,59,0-17.5,135,145,150,150,75,80,-85,80,150,160,-170,160,390,1,M-C-U18,M,SBD,,
Tom Hitchcock-Wyatt,Raw,57.8,59,0-22.5,157.5,-167.5,-167.5,157.5,-85,-85,85,85,157.5,-160,-160,157.5,400,1,M-C-U23,M,SBD,,
Callum McGovern,Raw,62.1,66,0-17.5,130,135,142.5,142.5,72.5,77.5,82.5,82.5,160,167.5,175,175,400,1,M-C-U18,M,SBD,17,
Ploutis Koumi,Raw,65.7,66,0-22.5,140,,,140,117.5,120,122.5,122.5,180,190,200,200,462.5,1,M-C-U23,M,SBD,,
Nathan Gevao,Raw,70.85,74,0-17.5,155,165,175,175,-90,95,-97.5,95,170,187.5,200,200,470,1,M-C-U18,M,SBD,,
Nathan van der Reit,Raw,69.3,74,0-17.5,125,130,-132.5,130,75,-80,80,80,145,152.5,160,160,370,2,M-C-U18,M,SBD,,
Luke Wilson #2,Raw,73,74,0-22.5,-220,220,-230,220,-130,132.5,-140,132.5,220,225,-230,225,577.5,1,M-C-U23,M,SBD,,
Tim Rew,Raw,72.7,74,0-22.5,185,195,200,200,107.5,115,-120,115,225,237.5,-247.5,237.5,552.5,2,M-C-U23,M,SBD,,
Iftidar Rahman,Raw,71.3,74,0-22.5,-190,200,205,205,107.5,112.5,-115,112.5,200,220,230,230,547.5,3,M-C-U23,M,SBD,,
Zechi Gan,Raw,74,74,0-22.5,-175,175,185,185,102.5,110,115,115,225,235,-252.5,235,535,4,M-C-U23,M,SBD,,
Robert Christie,Raw,83,83,0-17.5,175,186,190,190,105,115,-120,115,202.5,207.5,-216,207.5,512.5,1,M-C-U18,M,SBD,,
Ramsay Kirkhy,Raw,79.5,83,0-22.5,175,185,190,190,115,120,125,125,197.5,210,-220,210,525,1,M-C-U23,M,SBD,,
Charlie Hibbert,Raw,92,93,0-22.5,207.5,220,222.5,222.5,150,157.5,162.5,162.5,245,260,272.5,272.5,657.5,1,M-C-U23,M,SBD,,
Eoghan Moriarty,Raw,92.5,93,0-22.5,227.5,-240,240,240,132.5,137.5,142.5,142.5,265,-272.5,-275,265,647.5,2,M-C-U23,M,SBD,,
Will Lewis,Raw,92.7,93,0-22.5,210,222.5,227.5,227.5,130,-137.5,137.5,137.5,230,242.5,-250,242.5,607.5,3,M-C-U23,M,SBD,,
Dan Wooldridge,Raw,91.5,93,0-22.5,-207.5,-212.5,-212.5,,137.5,147.5,-152.5,147.5,212.5,227.5,237.5,237.5,,DQ,M-C-U23,M,SBD,,
Ben Glasscock,Raw,103.9,105,0-22.5,225,232.5,237.5,237.5,127.5,135,-142.5,135,275,287.5,-300,287.5,660,1,M-C-U23,M,SBD,,
Bradley Horne #1,Raw,104.7,105,0-22.5,197.5,207.5,217.5,217.5,177.5,183,-185,183,250,257.5,-260,257.5,658,2,M-C-U23,M,SBD,,
Joe MaCarthy,Raw,100.5,105,0-22.5,215,-225,227.5,227.5,115,125,-130,125,240,255,270,270,622.5,3,M-C-U23,M,SBD,,
Sam McLeod,Raw,102,105,0-22.5,-210,-210,210,210,145,152.5,157.5,157.5,217.5,230,245,245,612.5,4,M-C-U23,M,SBD,,
Luke Huggins,Raw,105,105,0-22.5,205,217.5,222.5,222.5,127.5,135,-142.5,135,230,245,255,255,612.5,5,M-C-U23,M,SBD,,
Beck Phillips,Raw,95.9,105,0-22.5,80,,,80,145,155,-160,155,245,255,260,260,495,6,M-C-U23,M,SBD,,
Lewis Harding,Raw,115.5,120,0-22.5,215,235,-250,235,155,160,165,165,290,295,-297.5,295,695,1,M-C-U23,M,SBD,,
Scott Newbould,Raw,106.9,120,0-22.5,225,242.5,255,255,150,155,157.5,157.5,230,250,262.5,262.5,675,2,M-C-U23,M,SBD,,
David Brown,Raw,58.9,59,59.5-68.5,85,87.5,90,90,67.5,70,72.5,72.5,122.5,125,127.5,127.5,290,1,M-C-M3,M,SBD,,
Roger Hamilton-Smith,Raw,65.1,66,39.5-48.5,157.5,172.5,177.5,177.5,102.5,112.5,115,115,205,217.5,,217.5,510,1,M-C-M1,M,SBD,,
Shaun Bateman,Raw,64.5,66,49.5-58.5,150,160,162.5,162.5,-115,115,-117.5,115,185,195,-200,195,472.5,1,M-C-M2,M,SBD,,
Malcolm Bainbridge,Raw,64.6,66,69.5-999,100,110,-122.5,110,-72.5,77.5,80,80,170,180,,180,370,1,M-C-M4,M,SBD,,
Nicholas Bentley,Raw,73,74,39.5-48.5,-145,145,150,150,90,95,100,100,200,210,220,220,470,1,M-C-M1,M,SBD,,
Jody Carvell,Raw,71,74,39.5-48.5,140,150,-157.5,150,80,85,87.5,87.5,170,180,185,185,422.5,2,M-C-M1,M,SBD,,
Nigel Gillis,Raw,68.7,74,49.5-58.5,170,185,-190,185,100,107.5,112.5,112.5,170,182.5,195,195,492.5,1,M-C-M2,M,SBD,,1960-08-09
Kevin Payne,Raw,70.7,74,59.5-68.5,107.5,117.5,-126,117.5,72.5,77.5,82.5,82.5,170,180,190,190,390,1,M-C-M3,M,SBD,,
Hari Singh Cheema,Single-ply,73.7,74,59.5-68.5,-160,-165,-165,,-115,,,,,,,,,DQ,M-E-M3,M,SBD,,
Henry Clark,Raw,73.1,74,69.5-999,-110,110,-120,110,52.5,55,-57.5,55,-125,125,,125,290,1,M-C-M4,M,SBD,,
William Mann,Raw,81.2,83,39.5-48.5,180,-190,190,190,125,130,-135,130,232.5,252.5,-270.5,252.5,572.5,1,M-C-M1,M,SBD,,
Lee Griffiths,Raw,80.6,83,39.5-48.5,150,160,-170,160,90,92.5,95,95,185,192.5,200,200,455,2,M-C-M1,M,SBD,,
Ali Wilson,Raw,80.3,83,39.5-48.5,130,140,-150,140,102.5,107.5,-110,107.5,190,-205,-205,190,437.5,3,M-C-M1,M,SBD,,
David Clifford,Raw,82.5,83,49.5-58.5,190,-202.5,202.5,202.5,120,127.5,-132.5,127.5,230,240,-250.5,240,570,1,M-C-M2,M,SBD,,
David Horne,Raw,81.8,83,49.5-58.5,130,140,147.5,147.5,100,105,107.5,107.5,195,202.5,207.5,207.5,462.5,2,M-C-M2,M,SBD,,
Neil Butler,Raw,80.9,83,49.5-58.5,150,155,-160,155,95,97.5,-100,97.5,190,200,-205,200,452.5,3,M-C-M2,M,SBD,,
Nigel Seymour,Raw,80.1,83,49.5-58.5,137.5,145,-150,145,97.5,102.5,-107.5,102.5,190,-205,-205,190,437.5,4,M-C-M2,M,SBD,,1967-08-27
Karnel Singh,Single-ply,80.5,83,59.5-68.5,-205,220,230,230,135,-142.5,142.5,142.5,210,227.5,-240.5,227.5,600,1,M-E-M3,M,SBD,,
Jason Talbot,Single-ply,92.5,93,39.5-48.5,165,182.5,190,190,185,-200.5,200.5,200.5,160,190,200,200,590.5,1,M-E-M1,M,SBD,,
Drew Blackman,Raw,91.7,93,39.5-48.5,190,205,215,215,142.5,150,155,155,220,-235,-235,220,590,1,M-C-M1,M,SBD,,
David Martin #4,Raw,89.4,93,39.5-48.5,177.5,187.5,192.5,192.5,102.5,110,-112.5,110,220,230,237.5,237.5,540,2,M-C-M1,M,SBD,,
Philip Varcas,Raw,92.3,93,39.5-48.5,155,-162.5,-162.5,155,122.5,-125,125,125,180,185,,185,465,3,M-C-M1,M,SBD,,
Richard Parish,Raw,92.5,93,49.5-58.5,175,187.5,195,195,102.5,110,115,115,220,235,-245,235,545,1,M-C-M2,M,SBD,,
Kevin Jane,Single-ply,92.9,93,59.5-68.5,230,245,-257.5,245,145,-152.5,-152.5,145,230,250,-260,250,640,1,M-E-M3,M,SBD,,
Thomas Celestin,Raw,102.2,105,39.5-48.5,235,245,252.5,252.5,110,115,120,120,285,302.5,312.5,312.5,685,1,M-C-M1,M,SBD,,
Chris Ashton,Raw,102.7,105,39.5-48.5,180,-190,-190,180,115,-122.5,122.5,122.5,215,225,237.5,237.5,540,2,M-C-M1,M,SBD,,1975-12-09
Adam Anderson #1,Raw,103.3,105,39.5-48.5,155,160,162.5,162.5,102.5,-105,-105,102.5,190,200,-205,200,465,3,M-C-M1,M,SBD,,
Michael Denzil,Raw,102.2,105,49.5-58.5,167.5,177.5,182.5,182.5,102.5,110,112.5,112.5,187.5,200,-207.5,200,495,1,M-C-M2,M,SBD,,
Chris Godfrey,Raw,117.1,120,39.5-48.5,215,222.5,-225,222.5,125,132.5,-135,132.5,230,240,-242.5,240,595,1,M-C-M1,M,SBD,,
Stephen Irving,Raw,118.2,120,39.5-48.5,165,-170,170,170,105,110,-112.5,110,210,215,-220,215,495,2,M-C-M1,M,SBD,,
Andrew Rodney,Raw,119.5,120,49.5-58.5,190,216,230,230,132.5,142.5,155,155,232.5,250,,250,635,1,M-C-M2,M,SBD,,
David Charnock,Single-ply,115.5,120,49.5-58.5,210,225,-235,225,150,160,-170,160,220,240,-255,240,625,2,M-E-M2,M,SBD,,
Ian Finch,Raw,117.8,120,59.5-68.5,175,,,175,115,122.5,127.5,127.5,200,,,200,502.5,1,M-C-M3,M,SBD,,
Trevor Walker #1,Raw,117.5,120,69.5-999,130,135,-140,135,90,95,-97.5,95,180,190,195.5,195.5,425.5,1,M-C-M4,M,SBD,,
Mark Townend,Raw,148.5,120+,39.5-48.5,180,200,220,220,135,-142.5,-142.5,135,200,220,230,230,585,1,M-C-M1,M,SBD,,
Luke Bennett,Raw,57.85,59,23.5-38.5,185,192.5,-200,192.5,107.5,-113,114,114,177.5,185,192.5,192.5,499,1,M-C-Open,M,SBD,,
Ben Hampson,Raw,58.8,59,23.5-38.5,165,172.5,180,180,102.5,110,-115,110,177.5,192.5,-202.5,192.5,482.5,2,M-C-Open,M,SBD,,
Aftab Uddin,Raw,58.9,59,23.5-38.5,-145,-145,145,145,-97.5,97.5,-102.5,97.5,180,190,195,195,437.5,3,M-C-Open,M,SBD,,
Nathan Miller #2,Raw,55.9,59,23.5-38.5,135,145,150,150,72.5,77.5,80,80,157.5,170,180,180,410,4,M-C-Open,M,SBD,,
Joseph Diva,Raw,64.2,66,23.5-38.5,167.5,175,180,180,110,117.5,122.5,122.5,195,212.5,-222.5,212.5,515,1,M-C-Open,M,SBD,,
Andy Kershaw,Raw,64.3,66,23.5-38.5,155,160,-162.5,160,110,115,-120,115,180,-190,190,190,465,2,M-C-Open,M,SBD,,
Danny Smith #1,Raw,65.3,66,23.5-38.5,150,160,-167.5,160,95,100,105,105,190,-200,-200,190,455,3,M-C-Open,M,SBD,,
Sean Maloney,Raw,65.2,66,23.5-38.5,140,150,155,155,95,100,-102.5,100,175,185,-195,185,440,4,M-C-Open,M,SBD,,
William George,Raw,66,66,23.5-38.5,-165,-165,-165,,-110,,,,,,,,,DQ,M-C-Open,M,SBD,,
Luke Rogers #1,Raw,73.35,74,23.5-38.5,225,237.5,-243.5,237.5,122.5,130,135,135,247.5,262.5,272.5,272.5,645,1,M-C-Open,M,SBD,,
Nathaniel Shaw,Raw,72.4,74,23.5-38.5,197.5,207.5,-215,207.5,105,112.5,117.5,117.5,227.5,240,-247.5,240,565,2,M-C-Open,M,SBD,,
Jordan Partington,Raw,72.6,74,23.5-38.5,-197.5,210,220,220,122.5,132.5,-137.5,132.5,195,205,210,210,562.5,3,M-C-Open,M,SBD,,
Joshua Burton,Raw,73.2,74,23.5-38.5,180,190,-200,190,120,127.5,-130,127.5,215,230,-247.5,230,547.5,4,M-C-Open,M,SBD,,
David Saunders,Raw,73.65,74,23.5-38.5,190,-195,195,195,100,-105,-105,100,225,237.5,-240,237.5,532.5,5,M-C-Open,M,SBD,,
Qasim Iqbal,Raw,73.05,74,23.5-38.5,195,-207.5,-207.5,195,102.5,110,115,115,210,220,-227.5,220,530,6,M-C-Open,M,SBD,,
Wayne Barber,Raw,74,74,23.5-38.5,172.5,180,185,185,115,117.5,-122.5,117.5,200,210,-217.5,210,512.5,7,M-C-Open,M,SBD,,
Michael Roskell,Raw,73.85,74,23.5-38.5,167.5,-175,175,175,102.5,107.5,110,110,190,210,-220,210,495,8,M-C-Open,M,SBD,,
Owen Lockwood,Raw,82.5,83,23.5-38.5,235,247.5,255,255,142.5,150,155,155,245,265,270,270,680,1,M-C-Open,M,SBD,,
Steven Varney,Raw,81.2,83,23.5-38.5,217.5,227.5,-235,227.5,150,157.5,-160,157.5,250,262.5,-272.5,262.5,647.5,2,M-C-Open,M,SBD,,
Joshua Bosman,Raw,82.6,83,23.5-38.5,200,210,220,220,135,140,142.5,142.5,265,285,-301,285,647.5,3,M-C-Open,M,SBD,,
Jasvinder Singh Cheema,Single-ply,81.8,83,23.5-38.5,215,-225,225,225,190,200,207.5,207.5,200,205,210,210,642.5,1,M-E-Open,M,SBD,,
Jac Lewis,Raw,81.6,83,23.5-38.5,215,225,230,230,162.5,-167.5,-167.5,162.5,-240,-240,240,240,632.5,4,M-C-Open,M,SBD,,
Adam Manery,Raw,82,83,23.5-38.5,215,225,232.5,232.5,147.5,152.5,-155,152.5,220,235,245,245,630,5,M-C-Open,M,SBD,,
Christopher Teague,Raw,82.6,83,23.5-38.5,200,210,220,220,160,-165,-165,160,250,-255,-255,250,630,6,M-C-Open,M,SBD,,
Simon Chan,Raw,82.5,83,23.5-38.5,205,217.5,222.5,222.5,142.5,150,152.5,152.5,227.5,242.5,-252.5,242.5,617.5,2,M-C-Open,M,SBD,,
David Murray,Single-ply,81.9,83,23.5-38.5,-237.5,237.5,252.5,252.5,155,-165,-165,155,180,-195,-195,180,587.5,7,M-E-Open,M,SBD,,
Taha Iqbal,Raw,81.6,83,23.5-38.5,192.5,200,-207.5,200,110,120,125,125,230,240,-245,240,565,8,M-C-Open,M,SBD,,
Stuart Nicholson,Raw,82.3,83,23.5-38.5,200,-210,-215,200,135,-142.5,-142.5,135,220,-240,-240,220,555,9,M-C-Open,M,SBD,,
Kyran O'Neill,Raw,81.4,83,23.5-38.5,197.5,210,-215,210,117.5,125,-130,125,192.5,212.5,-217.5,212.5,547.5,10,M-C-Open,M,SBD,,
Pierre Shillingford,Raw,91.9,93,23.5-38.5,245,257.5,265,265,162.5,172.5,180,180,280,300,310,310,755,1,M-C-Open,M,SBD,,
Lenny Oseni,Raw,91.6,93,23.5-38.5,-235,235,250,250,155,162.5,167.5,167.5,265,285,-292.5,285,702.5,2,M-C-Open,M,SBD,,
Hugo Duarte,Raw,91.2,93,23.5-38.5,-245,245,255,255,142.5,-150,150,150,275,-290,290,290,695,3,M-C-Open,M,SBD,,
James Blundell,Raw,91.7,93,23.5-38.5,225,240,-250,240,160,170,-177.5,170,265,285,-300,285,695,4,M-C-Open,M,SBD,,
Aleem Majid,Raw,92.9,93,23.5-38.5,250,260,265,265,145,155,160,160,255,270,-277.5,270,695,5,M-C-Open,M,SBD,,
Justin White,Raw,88.7,93,23.5-38.5,200,-210,220,220,115,122.5,132.5,132.5,265,287.5,300,300,652.5,6,M-C-Open,M,SBD,,
Tom Gee #2,Raw,89.6,93,23.5-38.5,200,-212.5,,200,135,-140,140,140,270,280,-290,280,620,7,M-C-Open,M,SBD,,
Rino Shala,Raw,87,93,23.5-38.5,192.5,200,212.5,212.5,-125,127.5,132.5,132.5,235,250,262.5,262.5,607.5,8,M-C-Open,M,SBD,,
Neil Mehrtens,Raw,91.6,93,23.5-38.5,197.5,207.5,217.5,217.5,142.5,150,-155,150,220,232.5,235,235,602.5,9,M-C-Open,M,SBD,,
Oliver Butler,Raw,90.2,93,23.5-38.5,215,-225,225,225,130,135,140,140,220,235,-245,235,600,10,M-C-Open,M,SBD,,
Nick Humphries,Raw,91.6,93,23.5-38.5,200,210,-215,210,120,-125,-125,120,240,255,-265,255,585,11,M-C-Open,M,SBD,,
George Seeger,Single-ply,103.6,105,23.5-38.5,-285,285,-300,285,210,-217.5,220,220,302.5,317.5,-329,317.5,822.5,1,M-E-Open,M,SBD,,
Robert Rees,Raw,104.1,105,23.5-38.5,245,255,260,260,175,185,-192.5,185,-310,310,-336,310,755,1,M-C-Open,M,SBD,,
Marvin Turner,Raw,104.3,105,23.5-38.5,230,242.5,255,255,172.5,182.5,187.5,187.5,282.5,302.5,-317.5,302.5,745,2,M-C-Open,M,SBD,,
Joe Lindsay,Raw,102.5,105,23.5-38.5,235,245,255,255,155,162.5,167.5,167.5,280,295,-305,295,717.5,3,M-C-Open,M,SBD,,
Akin Makinde,Single-ply,103.6,105,23.5-38.5,260,-270,277.5,277.5,145,152.5,-160,152.5,-280,280,-285,280,710,2,M-E-Open,M,SBD,,
Alex Pearson-Jones,Raw,103.2,105,23.5-38.5,240,252.5,-262.5,252.5,142.5,-150,,142.5,-277.5,297.5,-313.5,297.5,692.5,4,M-C-Open,M,SBD,,
James Lawrence,Raw,102.3,105,23.5-38.5,230,245,250,250,140,150,-155,150,270,290,-300,290,690,5,M-C-Open,M,SBD,,
Antonio Shinebourne,Raw,99.4,105,23.5-38.5,-240,240,255,255,137.5,145,-150,145,255,270,-275,270,670,6,M-C-Open,M,SBD,,
Mason Mills,Raw,101.1,105,23.5-38.5,235,247.5,-250,247.5,130,135,-140,135,250,265,272.5,272.5,655,7,M-C-Open,M,SBD,,
Matthew Dempsey,Raw,104.2,105,23.5-38.5,230,242.5,252.5,252.5,140,150,155,155,230,240,245,245,652.5,8,M-C-Open,M,SBD,,
Chris Horton,Raw,103,105,23.5-38.5,225,-232.5,232.5,232.5,167.5,172.5,-175,172.5,235,245,-250,245,650,9,M-C-Open,M,SBD,,
Sean McPhillips,Raw,103,105,23.5-38.5,215,225,-235,225,145,150,-152.5,150,260,275,-285,275,650,10,M-C-Open,M,SBD,,
Daniel Walton,Raw,102.5,105,23.5-38.5,210,-220,-220,210,160,-170,-170,160,-250,260,-280,260,630,11,M-C-Open,M,SBD,,
Robert Haddock,Raw,101.3,105,23.5-38.5,-240,-240,-240,,125,127.5,-130,127.5,245,-252.5,-252.5,245,,DQ,M-C-Open,M,SBD,,
Iain McConnachie,Raw,119.4,120,23.5-38.5,305,-325,340,340,170,180,190,190,270,285,295,295,825,1,M-C-Open,M,SBD,,
Dave Richardson #1,Raw,118.5,120,23.5-38.5,-292.5,-292.5,292.5,292.5,170,175,180,180,320,337.5,342.5,342.5,815,2,M-C-Open,M,SBD,,
Greg Lewis #1,Raw,119.4,120,23.5-38.5,240,260,270,270,150,160,-162.5,160,300,320,322.5,322.5,752.5,3,M-C-Open,M,SBD,,
Sam Hinks,Raw,115,120,23.5-38.5,250,262.5,272.5,272.5,182.5,192.5,200,200,252.5,267.5,277.5,277.5,750,4,M-C-Open,M,SBD,,
Daniel Lindsell,Raw,118.9,120,23.5-38.5,240,-260,-260,240,190,200,205,205,280,-300,300,300,745,5,M-C-Open,M,SBD,,
Francis Sanders,Raw,114.4,120,23.5-38.5,252.5,267.5,272.5,272.5,152.5,-162.5,-162.5,152.5,295,310,-322.5,310,735,6,M-C-Open,M,SBD,,
Will Knowland,Raw,107.8,120,23.5-38.5,235,250,-265,250,167.5,177.5,180,180,255,272.5,-285,272.5,702.5,7,M-C-Open,M,SBD,,
Mani Owugha,Raw,109.4,120,23.5-38.5,215,225,230,230,127.5,132.5,135,135,272.5,290,-300,290,655,8,M-C-Open,M,SBD,,
Ranbir Singh Sahota,Single-ply,130.2,120+,23.5-38.5,345,360,367.5,367.5,210,220,-225,220,290,-310,-310,290,877.5,1,M-E-Open,M,SBD,,
Wesley Hall,Raw,129,120+,23.5-38.5,-300,310,-325,310,200,-207.5,-207.5,200,300,320,-332.5,320,830,1,M-C-Open,M,SBD,,
Andy Foster,Raw,140.8,120+,23.5-38.5,275,285,295,295,185,-195,195,195,290,-300,-300,290,780,2,M-C-Open,M,SBD,,
Danny Harper,Raw,131.1,120+,23.5-38.5,225,240,250,250,130,142.5,152.5,152.5,235,250,-262.5,250,652.5,3,M-C-Open,M,SBD,,
