16,Sort-on,,,,Div,,Wt Cls,,1,0,,,,,,,,,,,,,,,,,,,,,,$b$9:$b$44,,Setup!O7:O247,,,,,,,,,,,,,,,,,Push Pull Total,$BB$1:$BI$1,Bench 1,Bench 2,Bench 3,Bench 4,Deadlift 1,Deadlift 2,Deadlift 3,Deadlift 4,0,0,0,0,,,A,0,,,,,,,,,,,,,,,,,,,,,,,,,,,,,,,,,,,,,,,,,,,,,,,,,,,,,,,,,,,,,,,,,,,,,,,,,,,,,,,,,,,,,,,,,,,,,,,,,,,,,,,,,,,
#N/A,John Miller,,,,#N/A,,#N/A,#N/A,0.00,,,,,,,,,,,,,,,,,,,,,,,,,,,,,,,,,,,,,,,,,,Best Bench,$BB$1:$BE$1,Bench 1,Bench 2,Bench 3,Bench 4,,,,,,,,,,,B,1,,,,,,,,,,,,,,,,,,,,,,,,,,,,,,,,,,,,,,,,,,,,,,,,,,,,,,,,,,,,,,,,,,,,,,,,,,,,,,,,,,,,,,,,,,,,,,,,,,,,,,,,,,,
25,Deadlift 3,,#N/A,,,Kg,#N/A,#N/A,0.00,,,,,,,,,,,,,,,,,,,,,,,,,,,,,,,,,,,,,,,,,,Best Deadlift,$BB$1:$BE$1,Deadlift 1,Deadlift 2,Deadlift 3,Deadlift 4,,,,,,,,,,,C,2,,,,,,,,,,,,,,,,,,,,,,,,,,,,,,,,,,,,,,,,,,,,,,,,,,,,,,,,,,,,,,,,,,,,,,,,,,,,,,,,,,,,,,,,,,,,,,,,,,,,,,,,,,,
#N/A,,,#N/A,,,Lb,Y19,,0.00,,,,,,,,,,,,,,,,,,,,,,,,,,,,,,,,,,,,,,,,,,Best Squat,$BB$1:$BE$1, Squat  1, Squat  2, Squat  3, Squat  4,,,,,,,,,,,D,3,,,,,,,,,,,,,,,,,,,,,,,,,,,,,,,,,,,,,,,,,,,,,,,,,,,,,,,,,,,,,,,,,,,,,,,,,,,,,,,,,,,,,,,,,,,,,,,,,,,,,,,,,,,
#N/A,,,,,automatic,,,,00:00:00,,,,,,,,,,,,,,,,,,,,,,,,,,,,,,,,,,,,,,,,,,PL Total,$BB$1:$BM$1, Squat  1, Squat  2, Squat  3, Squat  4,Bench 1,Bench 2,Bench 3,Bench 4,Deadlift 1,Deadlift 2,Deadlift 3,Deadlift 4,,,E,4,,,,,,,,,,,,,,,,,,,,,,,,,,,,,,,,,,,,,,,,,,,,,,,,,,,,,,,,,,,,,,,,,,,,,,,,,,,,,,,,,,,,,,,,,,,,,,,,,,,,,,,,,,,
AA1,,,,,,,,,,,,,,,,,,,,,,,,,,,,,,,26,,,,,,,,,,,,,,,,,,,,Push Pull Total,$BB$1:$BI$1,Bench 1,Bench 2,Bench 3,Bench 4,Deadlift 1,Deadlift 2,Deadlift 3,Deadlift 4,,,,,,,F,5,,,,,,,,,,,,,,,,,,,,,,,,,,,,,,,,,,,,,,,,,,,,,,,,,,,,,,,,,,,,,,,,,,,,,,,,,,,,,,,,,,,,,,,,,,,,,,,,,,,,,,,,,,,
$C$10:$C$25,,,,,,,,,,,,,,,,,,,,,,,,,,,,,,,44,$AG$9:$AG$44,,,PP,,,,,,,,,AR10:AR44,,AT10:AT44,,,,,,,,,,,,,,,,,,,,,G,6,,,,,,,,,,,,,,,,,,,,,,,,,,,,,,,,,,,,,,,,,,,,,,,,,,,,,,,,,,,,,,,,,,,,,,,,,,,,,,,,,,,,,,,,,,,,,,,,,,,,,,,,,,,
Sort data,Flt A,Name,Age,Div,BWt (Kg),WtCls (Kg),Wilks,Lot #,RH Sq, Squat  1, Squat  2, Squat  3, Squat  4,Best Squat,RH BP,Bench 1,Bench 2,Bench 3,Bench 4,Best Bench,Sub Total,Deadlift 1,Deadlift 2,Deadlift 3,Deadlift 4,Best Deadlift,Push Pull Total,Coeff Score,Age  & Coeff,Pl code,Pl-Div-WtCl,Tm Pts,Team,Events,Event check,sort #,lbs/kg,PL Total,Push Pull Total,M/F,,valid score?,scoring value,rank,Div wt,Div rank,place,bwt,bwt rank,abs score,,,,,,,,,,,,,,,,,H,7,,,,,,,,,,,,,,,,,,,status, Squat  1, Squat  2, Squat  3, Squat  4,Best Squat,RH BP,Bench 1,Bench 2,Bench 3,Bench  4,Best Bench,Sub Total,Deadlift 1,Deadlift 2,Deadlift 3,Deadlift 4,Best Deadlift,,,,,,,,,,,,,,,,,,,,,,,,,,,,,,,,,,,,,,,,,,,,,,,,,,,,,,,,,,,,,,,,,,,,,,,
,,,,,,,0,,,,,,,0,,,,,,0,0,,,,,0,0,0.000,0.000,,0,0,,PP,1,,0,0,0,,,0,0.000,23,0,23,1,0,23,0.000,,,,,,,,,,,,,,,,,,,,,,,,,,,,,,,,,,,,,0,0,0,0,0,0,0,0,0,0,0,0,0,0,0,0,0,,,,,,,,,,,,,,,,,,,,,,,,,,,,,,,,,,,,,,,,,,,,,,,,,,,,,,,,,,,,,,,,,,,,,,,,
,A,Emmy Louise,35,F_O_R_BPU,55.3,56,1.1883,,,,,,,0,3,70,75,-80,,75,0,,,,,0,0,0.000,0.000,1,0,0,,BP DL,0,0,55.3,0,0,F,,0,12112000000.000,4,12112,4,1,55.3,19,12112000000.000,,,,,,,,,,,,,,,,,,,,,,,,,,,,,,,,,,,,,0,0,0,0,0,0,0,1,1,-1,0,0,0,0,0,0,0,,,,,,,,,,,,,,,,,,,,,,,,,,,,,,,,,,,,,,,,,,,,,,,,,,,,,,,,,,,,,,,,,,,,,,,,
,A,Cat Donnelly,25,F_O_R_BPU,96,SHW,0.8434,,,,,,,0,4,110,117.5,-122.5,,117.5,0,,,,,0,0,0.000,0.000,1,0,0,,BP,0,0,96,0,0,F,,0,12106000000.000,7,12106,7,1,96,10,12106000000.000,,,,,,,,,,,,,,,,,,,,,,,,,,,,,,,,,,,,,0,0,0,0,0,0,0,1,1,-1,0,0,0,0,0,0,0,,,,,,,,,,,,,,,,,,,,,,,,,,,,,,,,,,,,,,,,,,,,,,,,,,,,,,,,,,,,,,,,,,,,,,,,
,A,Richard Willis,49,M_M2_R_ABPU,51.2,52,0.9975,,,,,,,0,0,118,-122.5,-122.5,,118,0,,,,,0,0,0.000,0.000,1,0,0,,BP,0,0,51.2,0,0,M,,0,5815000000.000,11,5815,11,1,51.2,22,5815000000.000,,,,,,,,,,,,,,,,,,,,,,,,,,,,,,,,,,,,,0,0,0,0,0,0,0,1,-1,-1,0,0,0,0,0,0,0,,,,,,,,,,,,,,,,,,,,,,,,,,,,,,,,,,,,,,,,,,,,,,,,,,,,,,,,,,,,,,,,,,,,,,,,
,A,Catherine Croydon,27,F_O_R_BPU,80.7,82.5,0.9106,,,,,,,0,1,132.5,-140,-140,,132.5,0,,,,,0,0,0.000,0.000,1,0,0,,BP,0,0,80.7,0,0,F,,0,12108000000.000,6,12108,6,1,80.7,15,12108000000.000,,,,,,,,,,,,,,,,,,,,,,,,,,,,,,,,,,,,,0,0,0,0,0,0,0,1,-1,-1,0,0,0,0,0,0,0,,,,,,,,,,,,,,,,,,,,,,,,,,,,,,,,,,,,,,,,,,,,,,,,,,,,,,,,,,,,,,,,,,,,,,,,
,A,Michael Delastie ,27,M_O_R_BPU,107.1,110,0.5935,,,,,,,0,4,150,165,170,,170,0,,,,,0,0,0.000,0.000,1,0,0,,BP,0,0,107.1,0,0,M,,0,107000000.000,20,107,20,1,107.1,7,107000000.000,,,,,,,,,,,,,,,,,,,,,,,,,,,,,,,,,,,,,0,0,0,0,0,0,0,1,1,1,0,0,0,0,0,0,0,,,,,,,,,,,,,,,,,,,,,,,,,,,,,,,,,,,,,,,,,,,,,,,,,,,,,,,,,,,,,,,,,,,,,,,,
,A,Josh Brown ,27,M_O_R_BPU,147.3,SHW,0.5547,,,,,,,0,4,170,182.5,-195,,182.5,0,,,,,0,0,0.000,0.000,1,0,0,,DL,0,0,147.3,0,0,M,,0,104000000.000,22,104,22,1,147.3,3,104000000.000,,,,,,,,,,,,,,,,,,,,,,,,,,,,,,,,,,,,,0,0,0,0,0,0,0,1,1,-1,0,0,0,0,0,0,0,,,,,,,,,,,,,,,,,,,,,,,,,,,,,,,,,,,,,,,,,,,,,,,,,,,,,,,,,,,,,,,,,,,,,,,,
,A,Aaron Widdows ,30,M_O_R_BPU,120.1,125,0.5748,,,,,,,0,4,-200,210,220,,220,0,,,,,0,0,0.000,0.000,1,0,0,,BP,0,0,120.1,0,0,M,,0,106000000.000,21,106,21,1,120.1,5,106000000.000,,,,,,,,,,,,,,,,,,,,,,,,,,,,,,,,,,,,,0,0,0,0,0,0,0,-1,1,1,0,0,0,0,0,0,0,,,,,,,,,,,,,,,,,,,,,,,,,,,,,,,,,,,,,,,,,,,,,,,,,,,,,,,,,,,,,,,,,,,,,,,,
,A,David Morris,48,M_M2_R_BPU,164.2,SHW,0.5461,,,,,,,0,5,213,222.5,-235,,222.5,0,,,,,0,0,0.000,0.000,1,0,0,,BP DL,0,0,164.2,0,0,M,,0,5704000000.000,12,5704,12,1,164.2,1,5704000000.000,,,,,,,,,,,,,,,,,,,,,,,,,,,,,,,,,,,,,0,0,0,0,0,0,0,1,1,-1,0,0,0,0,0,0,0,,,,,,,,,,,,,,,,,,,,,,,,,,,,,,,,,,,,,,,,,,,,,,,,,,,,,,,,,,,,,,,,,,,,,,,,
,A,Iain Connor ,41,M_O_M_BPU,122.1,125,0.5727,,,,,,,0,3,-335,-335,-335,,0,0,,,,,0,0,0.000,0.000,1,0,0,,BP,0,0,122.1,0,0,M,,0,506000000.000,17,506,17,1,122.1,4,506000000.000,,,,,,,,,,,,,,,,,,,,,,,,,,,,,,,,,,,,,0,0,0,0,0,0,0,-1,-1,-1,0,0,0,0,0,0,0,,,,,,,,,,,,,,,,,,,,,,,,,,,,,,,,,,,,,,,,,,,,,,,,,,,,,,,,,,,,,,,,,,,,,,,,
,A,Dave Pennington,51,M_M1_R_BPU,110,110,0.5885,,,,,,,0,,190,,,,190,0,,,,,0,0,0.000,0.000,1,0,0,,BP,0,0,110,0,0,M,,0,4907000000.000,16,4907,16,1,110,6,4907000000.000,,,,,,,,,,,,,,,,,,,,,,,,,,,,,,,,,,,,,0,0,0,0,0,0,0,1,0,0,0,0,0,0,0,0,0,,,,,,,,,,,,,,,,,,,,,,,,,,,,,,,,,,,,,,,,,,,,,,,,,,,,,,,,,,,,,,,,,,,,,,,,
,A,Scott Halliday,41,M_M1_M_BPU,105.5,110,0.5966,,,,,,,0,4,205,,,,205,0,,,,,0,0,0.000,0.000,1,0,0,,PP,1,0,105.5,0,0,M,,0,5307000000.000,14,5307,14,1,105.5,8,5307000000.000,,,,,,,,,,,,,,,,,,,,,,,,,,,,,,,,,,,,,0,0,0,0,0,0,0,1,0,0,0,0,0,0,0,0,0,,,,,,,,,,,,,,,,,,,,,,,,,,,,,,,,,,,,,,,,,,,,,,,,,,,,,,,,,,,,,,,,,,,,,,,,
,A,Vick Ellis ,38,F_O_R_ABPU,,,0,,,,,,,0,,,,,,0,0,,,,,0,0,0.000,0.000,1,0,0,,PP,1,0,0,0,0,F,,0,0.000,23,0,23,1,0,23,0.000,,,,,,,,,,,,,,,,,,,,,,,,,,,,,,,,,,,,,0,0,0,0,0,0,0,0,0,0,0,0,0,0,0,0,0,,,,,,,,,,,,,,,,,,,,,,,,,,,,,,,,,,,,,,,,,,,,,,,,,,,,,,,,,,,,,,,,,,,,,,,,
,A,Simon Barrington,33,M_O_R_BPU,,,0,,,,,,,0,,,,,,0,0,,,,,0,0,0.000,0.000,1,0,0,,PP,1,0,0,0,0,M,,0,0.000,23,0,23,1,0,23,0.000,,,,,,,,,,,,,,,,,,,,,,,,,,,,,,,,,,,,,0,0,0,0,0,0,0,0,0,0,0,0,0,0,0,0,0,,,,,,,,,,,,,,,,,,,,,,,,,,,,,,,,,,,,,,,,,,,,,,,,,,,,,,,,,,,,,,,,,,,,,,,,
,A,Doug Lisle,37,M_O_S_ABPU,,,0,,,,,,,0,,,,,,0,0,,,,,0,0,0.000,0.000,1,0,0,,PP,1,0,0,0,0,M,,0,0.000,23,0,23,1,0,23,0.000,,,,,,,,,,,,,,,,,,,,,,,,,,,,,,,,,,,,,0,0,0,0,0,0,0,0,0,0,0,0,0,0,0,0,0,,,,,,,,,,,,,,,,,,,,,,,,,,,,,,,,,,,,,,,,,,,,,,,,,,,,,,,,,,,,,,,,,,,,,,,,
,A,Josh Rushton,25,M_O_R_ABPU,,,0,,,,,,,0,,,,,,0,0,,,,,0,0,0.000,0.000,1,0,0,,PP,1,0,0,0,0,M,,0,0.000,23,0,23,1,0,23,0.000,,,,,,,,,,,,,,,,,,,,,,,,,,,,,,,,,,,,,0,0,0,0,0,0,0,0,0,0,0,0,0,0,0,0,0,,,,,,,,,,,,,,,,,,,,,,,,,,,,,,,,,,,,,,,,,,,,,,,,,,,,,,,,,,,,,,,,,,,,,,,,
,A,Iain Connor ,40,M_M1_M_BPU,,,0,,,,,,,0,,,,,,0,0,,,,,0,0,0.000,0.000,1,0,0,,PP,1,0,0,0,0,M,,0,0.000,23,0,23,1,0,23,0.000,,,,,,,,,,,,,,,,,,,,,,,,,,,,,,,,,,,,,0,0,0,0,0,0,0,0,0,0,0,0,0,0,0,0,0,,,,,,,,,,,,,,,,,,,,,,,,,,,,,,,,,,,,,,,,,,,,,,,,,,,,,,,,,,,,,,,,,,,,,,,,
115,B,Kayleigh Morris Teen & Open,18,F_T3_R_ABPU,87.6,90,0.8742,,,,,,,0,,,,,,0,0,90,105,-115,,105,0,0.000,0.000,1,0,0,,BP,0,1,87.6,0,0,F,,0,14607000000.000,2,14607,2,1,87.6,13,14607000000.000,,,,,,,,,,,,,,,,,,,,,,,,,,,,,,,,,,,,,0,0,0,0,0,0,0,0,0,0,0,0,0,1,1,-1,0,,,,,,,,,,,,,,,,,,,,,,,,,,,,,,,,,,,,,,,,,,,,,,,,,,,,,,,,,,,,,,,,,,,,,,,,
132.5,B,Georgie Hodson,32,F_O_R_ABPU,54.6,56,1.2002,,,,,,,0,,,,,,0,0,105,115,-132.5,,115,0,0.000,0.000,1,0,0,,DL,0,1,54.6,0,0,F,,0,12212000000.000,3,12212,3,1,54.6,21,12212000000.000,,,,,,,,,,,,,,,,,,,,,,,,,,,,,,,,,,,,,0,0,0,0,0,0,0,0,0,0,0,0,0,1,1,-1,0,,,,,,,,,,,,,,,,,,,,,,,,,,,,,,,,,,,,,,,,,,,,,,,,,,,,,,,,,,,,,,,,,,,,,,,,
140,B,Gwennan Evans,21,F_J_R_ABPU,72.6,75,0.9707,,,,,,,0,,,,,,0,0,125,130,-140,,130,0,0.000,0.000,1,0,0,,DL,0,1,72.6,0,0,F,,0,15409000000.000,1,15409,1,1,72.6,18,15409000000.000,,,,,,,,,,,,,,,,,,,,,,,,,,,,,,,,,,,,,0,0,0,0,0,0,0,0,0,0,0,0,0,1,1,-1,0,,,,,,,,,,,,,,,,,,,,,,,,,,,,,,,,,,,,,,,,,,,,,,,,,,,,,,,,,,,,,,,,,,,,,,,,
150,B,Emmy Louise,35,F_O_R_BPU,55.3,56,1.1883,,,,,,,0,,,,,,0,0,140,-150,-150,,140,0,0.000,0.000,1,0,0,,PP,1,1,55.3,0,0,F,,0,12112000000.000,4,12112,4,1,55.3,19,12112000000.000,,,,,,,,,,,,,,,,,,,,,,,,,,,,,,,,,,,,,0,0,0,0,0,0,0,0,0,0,0,0,0,1,-1,-1,0,,,,,,,,,,,,,,,,,,,,,,,,,,,,,,,,,,,,,,,,,,,,,,,,,,,,,,,,,,,,,,,,,,,,,,,,
192.5,B,Chris Mills,57,M_M4_R_ABPU,79.6,82.5,0.6849,,,,,,,0,,,,,,0,0,160,180,192.5,,192.5,0,0.000,0.000,1,0,0,,DL,0,1,79.6,0,0,M,,0,7410000000.000,9,7410,9,1,79.6,16,7410000000.000,,,,,,,,,,,,,,,,,,,,,,,,,,,,,,,,,,,,,0,0,0,0,0,0,0,0,0,0,0,0,0,1,1,1,0,,,,,,,,,,,,,,,,,,,,,,,,,,,,,,,,,,,,,,,,,,,,,,,,,,,,,,,,,,,,,,,,,,,,,,,,
202.5,B,Cat Donnelly,25,F_O_R_BPU,96,SHW,0.8434,,,,,,,0,,,,,,0,0,180,190,202.5,,202.5,0,0.000,0.000,1,0,0,,DL,0,1,96,0,0,F,,0,12106000000.000,7,12106,7,1,96,10,12106000000.000,,,,,,,,,,,,,,,,,,,,,,,,,,,,,,,,,,,,,0,0,0,0,0,0,0,0,0,0,0,0,0,1,1,1,0,,,,,,,,,,,,,,,,,,,,,,,,,,,,,,,,,,,,,,,,,,,,,,,,,,,,,,,,,,,,,,,,,,,,,,,,
230,B,David Hodson,34,M_O_R_ABPU,79.5,82.5,0.6854,,,,,,,0,,,,,,0,0,180,210,-230,,210,0,0.000,0.000,1,0,0,,DL,0,1,79.5,0,0,M,,0,210000000.000,18,210,18,1,79.5,17,210000000.000,,,,,,,,,,,,,,,,,,,,,,,,,,,,,,,,,,,,,0,0,0,0,0,0,0,0,0,0,0,0,0,1,1,-1,0,,,,,,,,,,,,,,,,,,,,,,,,,,,,,,,,,,,,,,,,,,,,,,,,,,,,,,,,,,,,,,,,,,,,,,,,
255,B,Jacob Hoy,26,M_O_R_BPU,82,82.5,0.6724,,,,,,,0,,,,,,0,0,242.5,250,255,,255,0,0.000,0.000,1,0,0,,DL,0,1,82,0,0,M,,0,110000000.000,19,110,19,1,82,14,110000000.000,,,,,,,,,,,,,,,,,,,,,,,,,,,,,,,,,,,,,0,0,0,0,0,0,0,0,0,0,0,0,0,1,1,1,0,,,,,,,,,,,,,,,,,,,,,,,,,,,,,,,,,,,,,,,,,,,,,,,,,,,,,,,,,,,,,,,,,,,,,,,,
267.5,B,Darryl Triance,42,M_M1_R_BPU,90,90,0.6384,,,,,,,0,,,,,,0,0,240,257.5,-267.5,,257.5,0,0.000,0.000,1,0,0,,DL,0,1,90,0,0,M,,0,4909000000.000,15,4909,15,1,90,12,4909000000.000,,,,,,,,,,,,,,,,,,,,,,,,,,,,,,,,,,,,,0,0,0,0,0,0,0,0,0,0,0,0,0,1,1,-1,0,,,,,,,,,,,,,,,,,,,,,,,,,,,,,,,,,,,,,,,,,,,,,,,,,,,,,,,,,,,,,,,,,,,,,,,,
310,B,David Morris,48,M_M2_R_BPU,164.2,SHW,0.5461,,,,,,,0,,,,,,0,0,280,-310,310,,310,0,0.000,0.000,1,0,0,,DL,0,1,164.2,0,0,M,,0,5704000000.000,12,5704,12,1,164.2,1,5704000000.000,,,,,,,,,,,,,,,,,,,,,,,,,,,,,,,,,,,,,0,0,0,0,0,0,0,0,0,0,0,0,0,1,-1,1,0,,,,,,,,,,,,,,,,,,,,,,,,,,,,,,,,,,,,,,,,,,,,,,,,,,,,,,,,,,,,,,,,,,,,,,,,
,B,John Miller,52,M_M3_R_BPU,103.3,110,0.6011,,,,,,,0,,,,,,0,0,,,,,0,0,0.000,0.000,1,0,0,,PP,1,1,103.3,0,0,M,,0,6507000000.000,10,6507,10,1,103.3,9,6507000000.000,,,,,,,,,,,,,,,,,,,,,,,,,,,,,,,,,,,,,0,0,0,0,0,0,0,0,0,0,0,0,0,0,0,0,0,,,,,,,,,,,,,,,,,,,,,,,,,,,,,,,,,,,,,,,,,,,,,,,,,,,,,,,,,,,,,,,,,,,,,,,,
,B,Vick Ellis ,38,F_O_R_ABPU,,,0,,,,,,,0,,,,,,0,0,,,,,0,0,0.000,0.000,1,0,0,,PP,1,1,0,0,0,F,,0,0.000,23,0,23,1,0,23,0.000,,,,,,,,,,,,,,,,,,,,,,,,,,,,,,,,,,,,,0,0,0,0,0,0,0,0,0,0,0,0,0,0,0,0,0,,,,,,,,,,,,,,,,,,,,,,,,,,,,,,,,,,,,,,,,,,,,,,,,,,,,,,,,,,,,,,,,,,,,,,,,
,B,Melanie Harriot,53,F_M3_R_BPU,,,0,,,,,,,0,,,,,,0,0,,,,,0,0,0.000,0.000,1,0,0,,PP,1,1,0,0,0,F,,0,0.000,23,0,23,1,0,23,0.000,,,,,,,,,,,,,,,,,,,,,,,,,,,,,,,,,,,,,0,0,0,0,0,0,0,0,0,0,0,0,0,0,0,0,0,,,,,,,,,,,,,,,,,,,,,,,,,,,,,,,,,,,,,,,,,,,,,,,,,,,,,,,,,,,,,,,,,,,,,,,,
,B,Catherine Croyden,26,F_O_R_BPU,,,0,,,,,,,0,,,,,,0,0,,,,,0,0,0.000,0.000,1,0,0,,PP,1,1,0,0,0,F,,0,0.000,23,0,23,1,0,23,0.000,,,,,,,,,,,,,,,,,,,,,,,,,,,,,,,,,,,,,0,0,0,0,0,0,0,0,0,0,0,0,0,0,0,0,0,,,,,,,,,,,,,,,,,,,,,,,,,,,,,,,,,,,,,,,,,,,,,,,,,,,,,,,,,,,,,,,,,,,,,,,,
,B,David Morris,48,M_M2_R_BPU,,,0,,,,,,,0,,,,,,0,0,,,,,0,0,0.000,0.000,1,0,0,,PP,1,1,0,0,0,M,,0,0.000,23,0,23,1,0,23,0.000,,,,,,,,,,,,,,,,,,,,,,,,,,,,,,,,,,,,,0,0,0,0,0,0,0,0,0,0,0,0,0,0,0,0,0,,,,,,,,,,,,,,,,,,,,,,,,,,,,,,,,,,,,,,,,,,,,,,,,,,,,,,,,,,,,,,,,,,,,,,,,
,B,Owain Tobias,23,M_J_R_BPU,,,0,,,,,,,0,,,,,,0,0,,,,,0,0,0.000,0.000,1,0,0,,PP,1,1,0,0,0,M,,0,0.000,23,0,23,1,0,23,0.000,,,,,,,,,,,,,,,,,,,,,,,,,,,,,,,,,,,,,0,0,0,0,0,0,0,0,0,0,0,0,0,0,0,0,0,,,,,,,,,,,,,,,,,,,,,,,,,,,,,,,,,,,,,,,,,,,,,,,,,,,,,,,,,,,,,,,,,,,,,,,,
,B,David Wade,45,M_M2_R_BPU,,,0,,,,,,,0,,,,,,0,0,,,,,0,0,0.000,0.000,1,0,0,,PP,1,1,0,0,0,M,,0,0.000,23,0,23,1,0,23,0.000,,,,,,,,,,,,,,,,,,,,,,,,,,,,,,,,,,,,,0,0,0,0,0,0,0,0,0,0,0,0,0,0,0,0,0,,,,,,,,,,,,,,,,,,,,,,,,,,,,,,,,,,,,,,,,,,,,,,,,,,,,,,,,,,,,,,,,,,,,,,,,
,B,Lloyd Green,47,M_M2_R_ABPU,,,0,,,,,,,0,,,,,,0,0,,,,,0,0,0.000,0.000,1,0,0,,PP,1,1,0,0,0,M,,0,0.000,23,0,23,1,0,23,0.000,,,,,,,,,,,,,,,,,,,,,,,,,,,,,,,,,,,,,0,0,0,0,0,0,0,0,0,0,0,0,0,0,0,0,0,,,,,,,,,,,,,,,,,,,,,,,,,,,,,,,,,,,,,,,,,,,,,,,,,,,,,,,,,,,,,,,,,,,,,,,,
,B,Josh Rushton,25,M_O_R_ABPU,,,0,,,,,,,0,,,,,,0,0,,,,,0,0,0.000,0.000,1,0,0,,PP,1,1,0,0,0,M,,0,0.000,23,0,23,1,0,23,0.000,,,,,,,,,,,,,,,,,,,,,,,,,,,,,,,,,,,,,0,0,0,0,0,0,0,0,0,0,0,0,0,0,0,0,0,,,,,,,,,,,,,,,,,,,,,,,,,,,,,,,,,,,,,,,,,,,,,,,,,,,,,,,,,,,,,,,,,,,,,,,,