Place,WeightClassKg,Name,State,BodyweightKg,Squat4Kg,Best3SquatKg,Bench4Kg,Best3BenchKg,Deadlift4Kg,Best3DeadliftKg,TotalKg,Division,Sex,Event,Equipment
1,44,McKylie Davidson,MO,42.86,,,,37.5,,,37.5,whs,F,B,Raw
1,48,Karissa Davidson,MO,46.08,,,,42.5,,,42.5,whs,F,B,Raw
1,52,Ashton Ewoldsen,KS,49.58,,,,77.5,,,77.5,whs,F,B,Raw
2,52,Hayley Wells,MO,48.44,,,,42.5,,,42.5,whs,F,B,Raw
1,60,Chloe Miller,MO,59.69,,,,45,,,45,whs,F,B,Raw
2,60,Tara Fielder,MO,59.19,,,,50,,,50,whs,F,B,Raw
1,67.5,Amy Gruschka,MO,64.73,,,,55,,,55,whs,F,B,Raw
2,67.5,MacKenzie Wieberg,MO,63.64,,,,50,,,50,whs,F,B,Raw
3,67.5,Halie Gelatko,MO,63.32,,,,47.5,,,47.5,whs,F,B,Raw
1,75,Bethany Elkins,MO,71.12,,,,52.5,,,52.5,whs,F,B,Raw
2,75,Sydney Bandy,MO,71.03,,,,50,,,50,whs,F,B,Raw
3,75,Alexandra Floyd,MO,73.89,,,,52.5,,,52.5,whs,F,B,Raw
1,82.5,Brittney Frazier,MO,78.24,,,,65,,,65,whs,F,B,Raw
2,82.5,Sarah D'Attoma,MO,79.24,,,,52.5,,,52.5,whs,F,B,Raw
1,90,Ahnya Anderson,MO,89.81,,,67.50,65,,,65,whs,F,B,Raw
1,90+,Alba Laredo,MO,100.88,,,,77.5,,,77.5,whs,F,B,Raw
1,60,Halley Ihng,TX,56.02,,105,,45,,135,285,whs,F,SBD,Single-ply
2,67.5,Tori Bollinger,TX,62.37,,85,,42.5,,95,222.5,whs,F,SBD,Single-ply
1,67.5,Charlotte Smith,TX,60.42,,97.5,,52.5,,107.5,257.5,whs,F,SBD,Single-ply
2,82.5,Brooklyn Coach,KS,79.65,,70,,40,,107.5,217.5,whs,F,SBD,Single-ply
1,82.5,Brianna Hunter,TX,81.19,,97.5,,62.5,,107.5,267.5,whs,F,SBD,Single-ply
2,90+,Zuri Garcia,TX,110.99,,157.5,,72.5,,140,370,whs,F,SBD,Single-ply
1,90+,Tess Hickey,TX,123.33,,200,,115,,167.5,482.5,whs,F,SBD,Single-ply
1,67.5,Mallorie Sanders,IL,66.5,,175,,80,,147.5,402.5,whs,F,SBD,Single-ply
1,75,Talor Parker,TX,73.89,-192.50,185,-127.50,120,-176.00,165,470,whs,F,SBD,Single-ply
2,75,Holli Morgan,TX,68.76,,125,,65,,132.5,322.5,whs,F,SBD,Single-ply
1,82.5,Chandler UpChurch,TX,77.47,,147.5,,85,,155,387.5,whs,F,SBD,Single-ply
1,90,Riley Clifton,TX,83.96,,180,,97.5,,157.5,435,whs,F,SBD,Single-ply
2,90,Kirbee Taylor,TX,85.96,,167.5,,97.5,,125,390,whs,F,SBD,Single-ply
3,90,Clarissa Rios,TX,87.09,,150,,75,,150,375,whs,F,SBD,Single-ply
4,90,Meagan Galan,TX,89.13,,125.5,,82.5,,130,338,whs,F,SBD,Single-ply
1,90+,Lexi Harris,TX,169.1,,240,,142.5,-227.50,215,597.5,whs,F,SBD,Single-ply
DQ,75,Libby Thomasson,OK,75,,,,,,,,wbphs,F,B,Raw
1,44,McKylie Davidson,MO,42.86,77.50,75,,37.5,,67.5,180,whs,F,SBD,Wraps
1,48,Karissa Davidson,MO,46.08,,70,,42.5,,77.5,190,whs,F,SBD,Wraps
1,52,Ashton Ewoldsen,KS,49.58,,125,,77.5,,136,338.5,whs,F,SBD,Wraps
1,60,Tara Fielder,MO,59.19,,112.5,,50,,105,267.5,whs,F,SBD,Wraps
2,60,Alexis Mowell,OH,56.47,,80,,42.5,,127.5,250,whs,F,SBD,Wraps
1,67.5,Cadyn Hernandez,OK,61.73,,82.5,,47.5,,115,245,whs,F,SBD,Wraps
2,67.5,May Padder,IL,65.18,,75,,32.5,,92.5,200,whs,F,SBD,Wraps
3,67.5,Jillian Econemos,IL,62.5,,57.5,,35,,70,162.5,whs,F,SBD,Wraps
1,75,Madelaine Reardon,IL,71.44,,70,,37.5,,85,192.5,whs,F,SBD,Wraps
1,52,Hayley Wells,MO,48.44,,85,,42.5,,117.5,245,whs,F,SBD,Wraps
2,52,Taylor Devine,IL,50.89,,67.5,,32.5,,92.5,192.5,whs,F,SBD,Wraps
1,60,Shelbi Shackelford,OK,59.42,,165,,82.5,,165,412.5,whs,F,SBD,Wraps
2,60,Chloe Miller,MO,59.69,,97.5,,45,,100,242.5,whs,F,SBD,Wraps
3,60,Kathryn Evenson,IL,57.52,,82.5,,35,,110,227.5,whs,F,SBD,Wraps
1,67.5,Leanne Cates,MO,65.36,,107.5,,55,,122.5,285,whs,F,SBD,Wraps
2,67.5,Ellie Bisceglia,IL,64.91,-117.50,110,,45,,115,270,whs,F,SBD,Wraps
3,67.5,Halie Gelatko,MO,63.32,,107.5,,47.5,,112.5,267.5,whs,F,SBD,Wraps
4,67.5,Amy Gruschka,MO,64.73,,115,,55,,92.5,262.5,whs,F,SBD,Wraps
5,67.5,Mata Stilp,IL,67.04,,72.5,,32.5,,92.5,197.5,whs,F,SBD,Wraps
1,75,Alexandra Floyd,MO,73.89,,102.5,,52.5,,132.5,287.5,whs,F,SBD,Wraps
3,75,Bethany Elkins,MO,71.12,,117.5,,52.5,,115,285,whs,F,SBD,Wraps
2,75,Sydney Bandy,MO,71.03,,97.5,,50,,137.5,285,whs,F,SBD,Wraps
4,75,Melanie Mandell,IL,71.4,,75,,37.5,,92.5,205,whs,F,SBD,Wraps
1,82.5,Sarah D'Attoma,MO,79.24,,115,,52.5,,135,302.5,whs,F,SBD,Wraps
2,82.5,Brittney Frazier,MO,78.24,,110,,65,,107.5,282.5,whs,F,SBD,Wraps
3,82.5,Isabella Miller,IL,80.15,,95,,45,,120,260,whs,F,SBD,Wraps
1,90,Nia Brown,MO,87,-140.00,137.5,67.50,62.5,,147.5,347.5,whs,F,SBD,Wraps
DQ,90,Ahnya Anderson,MO,89.81,,,67.50,65,,,,whs,F,SBD,Wraps
1,90+,Lendie Nolting,MO,114.99,,147.5,,70,,157.5,375,whs,F,SBD,Wraps
2,90+,Alba Laredo,MO,100.88,,145,,77.5,,150,372.5,whs,F,SBD,Wraps
3,90+,Nicole Stickle,OH,95.53,,117.5,,55,,145,317.5,whs,F,SBD,Wraps
1,90+,Nicole Stickle,OH,95.53,,,,55,,145,200,whs,F,BD,Raw
1,52,Lawrence Caro,AR,50.98,,,,67.5,,,67.5,bphs,M,B,Raw
1,56,Khang Yang,AR,53.75,,,,62.5,,,62.5,bphs,M,B,Raw
1,90,Tanner Christie,AR,86.95,,,,92.5,,,92.5,bphs,M,B,Raw
1,110,Mason Clark,AR,103.92,,,,110,,,110,bphs,M,B,Raw
2,110,Tomas Gomez,AR,103.37,,,,105,,,105,bphs,M,B,Raw
1,125,Chance Cooper,AR,117.66,,,,140,,,140,bphs,M,B,Raw
1,67.5,Tyous Lor,AR,66.45,,,,100,,,100,bphs,M,B,Raw
2,67.5,Kong Lor,AR,65.23,,,,87.5,,,87.5,bphs,M,B,Raw
1,75,Peter Thao,AR,69.58,,,,90,,,90,bphs,M,B,Raw
2,75,Tylor Lor,AR,69.26,,,,67.5,,,67.5,bphs,M,B,Raw
1,82.5,Hayden Robles,TN,81.51,,,,142.5,,,142.5,bphs,M,B,Raw
2,82.5,Keeten Jones,AR,79.38,,,,115,,,115,bphs,M,B,Raw
3,82.5,Trey Welch,AR,81.96,,,,102.5,,,102.5,bphs,M,B,Raw
1,90,Kaven Flesner,AR,87.09,,,,140,,,140,bphs,M,B,Raw
1,140,Collyn Richardson,SC,129.05,,,167.50,162.5,,,162.5,bphs,M,B,Raw
1,56,Khang Yang,AR,53.75,,97.5,,62.5,137.50,135,295,hs,M,SBD,Wraps
1,60,Nicholas Hammer,MO,58.38,,152.5,,92.5,,160,405,hs,M,SBD,Wraps
2,60,Dara Safe,IL,59.15,,135,,85,,157.5,377.5,hs,M,SBD,Wraps
3,60,Donavon Anderson,KS,57.15,,100,,62.5,,137.5,300,hs,M,SBD,Wraps
4,60,Tyler Price,KS,58.11,,95,,70,,112.5,277.5,hs,M,SBD,Wraps
5,60,Brenden Alexander,TX,58.15,,82.5,,52.5,,125,260,hs,M,SBD,Wraps
6,60,Justan Vaughan,TX,58.11,,82.5,,50,,125,257.5,hs,M,SBD,Wraps
1,67.5,Dante Madden,MO,65.73,,150,,97.5,,182.5,430,hs,M,SBD,Wraps
2,67.5,Logan Ferrari,MO,66.27,,145,,77.5,,155,377.5,hs,M,SBD,Wraps
3,67.5,Nash Kolb,MO,65.82,,122.5,,77.5,,157.5,357.5,hs,M,SBD,Wraps
4,67.5,Hunter Gray,MO,66.59,,107.5,,77.5,,110,295,hs,M,SBD,Wraps
5,67.5,Caleb Muurmy,TX,66.54,,77.5,,67.5,,137.5,282.5,hs,M,SBD,Wraps
DQ,67.5,Spencer Barnard,KS,64.73,,,,77.5,,150,,hs,M,SBD,Wraps
1,75,Logan Hackman,MO,74.71,,152.5,,105,,185,442.5,hs,M,SBD,Wraps
2,75,Patrick Connery,MO,72.98,,145,,87.5,,170,402.5,hs,M,SBD,Wraps
3,75,Narciso Ortiz,KS,74.84,,152.5,,90,,155,397.5,hs,M,SBD,Wraps
4,75,Payton Graves,MO,70.9,,142.5,,97.5,,157.5,397.5,hs,M,SBD,Wraps
5,75,Tanner Streiff,MO,74.25,,137.5,,87.5,,170,395,hs,M,SBD,Wraps
6,75,Ian Hoffman,MO,71.49,,127.5,,80,,140,347.5,hs,M,SBD,Wraps
1,82.5,Ardell Hooker,MO,81.15,,172.5,,115,,195,482.5,hs,M,SBD,Wraps
2,82.5,Taylor Dobbins,MO,79.11,,157.5,,105,,177.5,440,hs,M,SBD,Wraps
3,82.5,Noah Floyd,MO,79.02,,142.5,,92.5,,157.5,392.5,hs,M,SBD,Wraps
1,90,Loegun Covey,MO,87.23,,172.5,,120,,227.5,520,hs,M,SBD,Wraps
2,90,Max Bowers,MO,88.54,,167.5,,112.5,,192.5,472.5,hs,M,SBD,Wraps
3,90,Brant Miller,OK,84.05,,170,,102.5,,200,472.5,hs,M,SBD,Wraps
4,90,Brock Willis,MO,88.95,,155,,100,,210,465,hs,M,SBD,Wraps
5,90,Tanner Christie,AR,86.95,,120,,92.5,,135,347.5,hs,M,SBD,Wraps
1,100,Daniel Piburn,MO,99.43,,210,-132.50,127.5,,237.5,575,hs,M,SBD,Wraps
2,100,Kevin Jordan,MO,90.99,,182.5,,105,,192.5,480,hs,M,SBD,Wraps
3,100,Garrett Pazadara,MO,91.94,,160,,112.5,,205,477.5,hs,M,SBD,Wraps
4,100,Samson Hou-Seye,WI,99.34,,192.5,,91,,187.5,471,hs,M,SBD,Wraps
5,100,Tyler Harryman,MO,98.34,,182.5,,92.5,,195,470,hs,M,SBD,Wraps
6,100,Brennan Bradley,MO,94.48,,162.5,,112.5,,182.5,457.5,hs,M,SBD,Wraps
7,100,Michael Dardenne,OK,93.89,,130,,82.5,,170,382.5,hs,M,SBD,Wraps
8,100,Cade Hampton,MO,93.98,,132.5,,87.5,,145,365,hs,M,SBD,Wraps
1,110,Anthony Antos,MO,108.73,,167.5,,117.5,,182.5,467.5,hs,M,SBD,Wraps
2,110,Auston Himes,KS,102.6,,162.5,,87.5,,190,440,hs,M,SBD,Wraps
3,110,Tomas Gomez,AR,103.37,,147.5,,105,,157.5,410,hs,M,SBD,Wraps
4,110,Aidan Howry,OK,103.33,,140,,80,,145,365,hs,M,SBD,Wraps
1,125,Chance Cooper,AR,117.66,,192.5,,140,,230,562.5,hs,M,SBD,Wraps
2,125,Alex Updike,MO,117.34,,182.5,,97.5,,222.5,502.5,hs,M,SBD,Wraps
3,125,Kenny Herrenbruck,KS,111.08,,160,,117.5,,200,477.5,hs,M,SBD,Wraps
4,125,Dawson Adams,KS,121.02,,167.5,,75,,180,422.5,hs,M,SBD,Wraps
DQ,125,Tristian Bush,KS,116.66,,170,,,,220,,hs,M,SBD,Wraps
1,140,Justin Schnieders,OK,133.58,,167.5,,102.5,,215,485,hs,M,SBD,Wraps
1,52,Will Jenkins,IL,51.71,,102.5,,57.5,,135,295,hs,M,SBD,Wraps
1,56,Judd Babbitt,IL,55.66,,117.5,,70,,150,337.5,hs,M,SBD,Wraps
2,56,Blake Smith,MO,53.89,,115,,77.5,,125,317.5,hs,M,SBD,Wraps
3,56,Joshua Elliston,OK,55.79,,105,,52.5,,135,292.5,hs,M,SBD,Wraps
1,67.5,Lyle Reel,MO,66.59,162.50,157.5,-112.50,110,,185,452.5,hs,M,SBD,Wraps
2,67.5,Justin Shaw,MO,66.77,,165,,87.5,,187.5,440,hs,M,SBD,Wraps
3,67.5,Aaron Mello,KS,66.27,,155,,100,,162.5,417.5,hs,M,SBD,Wraps
4,67.5,Kong Lor,AR,65.23,,130,,87.5,,192.5,410,hs,M,SBD,Wraps
5,67.5,Tyous Lor,AR,66.45,,135,,100,,170,405,hs,M,SBD,Wraps
DQ,67.5,Liam Grobeyn,IL,66.95,,,,110,,185,,hs,M,SBD,Wraps
DQ,67.5,Makhoul Cassis,IL,66.41,,142.5,,,,177.5,,hs,M,SBD,Wraps
1,75,Marcus Harris,KS,73.75,,187.5,,112.5,,220,520,hs,M,SBD,Wraps
2,75,Nicholas Swisher,TX,74.3,,182.5,,97.5,,205,485,hs,M,SBD,Wraps
3,75,Dylan Smith,MO,74.53,,172.5,,97.5,,182.5,452.5,hs,M,SBD,Wraps
4,75,Brandon Zingale,IL,74.39,,135,,102.5,,197.5,435,hs,M,SBD,Wraps
5,75,Peter Thao,AR,69.58,,125,,90,,182.5,397.5,hs,M,SBD,Wraps
6,75,Chase Davis,MO,71.94,,142.5,,90,,160,392.5,hs,M,SBD,Wraps
7,75,Jacob Freitas,MO,73.07,,122.5,,85,,172.5,380,hs,M,SBD,Wraps
1,82.5,Payton Ireland,MO,80.88,,215,-152.50,150,258.50,255,620,hs,M,SBD,Wraps
2,82.5,Hayden Robles,TN,81.51,,192.5,,142.5,,210,545,hs,M,SBD,Wraps
3,82.5,Kashaun Barber,OK,80.78,-230.00,227.5,,125,,187.5,540,hs,M,SBD,Wraps
4,82.5,Tyler McMurray,MO,80.83,,192.5,,107.5,,202.5,502.5,hs,M,SBD,Wraps
5,82.5,Keeten Jones,AR,79.38,,167.5,,115,,212.5,495,hs,M,SBD,Wraps
6,82.5,Logan Parson,KS,81.74,,162.5,,125,,207.5,495,hs,M,SBD,Wraps
7,82.5,Casey Miller,OK,76.43,,175,,117.5,,192.5,485,hs,M,SBD,Wraps
1,90,Zach Willis,MO,84.19,,242.5,,147.5,,227.5,617.5,hs,M,SBD,Wraps
2,90,Kaven Flesner,AR,87.09,,182.5,,140,,212.5,535,hs,M,SBD,Wraps
3,90,Dylon Kupka,OK,85,,185,,132.5,,205,522.5,hs,M,SBD,Wraps
4,90,Andrew Buckley,MO,87.27,,182.5,,110,,205,497.5,hs,M,SBD,Wraps
5,90,James Riley,IL,88.13,,157.5,,107.5,,220,485,hs,M,SBD,Wraps
1,100,Kody Johnson,MO,99.65,,232.5,,140,,255,627.5,hs,M,SBD,Wraps
2,100,Devin Hunter,MO,91.22,,237.5,,125,,265,627.5,hs,M,SBD,Wraps
3,100,Sam Baum,MO,98.88,,220,,142.5,,237.5,600,hs,M,SBD,Wraps
4,100,Chris Bisceglia,IL,93.89,,215,,110,,217.5,542.5,hs,M,SBD,Wraps
5,100,Shawhin Safe,IL,96.98,,207.5,,137.5,,187.5,532.5,hs,M,SBD,Wraps
6,100,Larry Hall,MO,92.67,,180,,102.5,,205,487.5,hs,M,SBD,Wraps
7,100,Jeremiah Smith,MO,91.08,,165,,112.5,,182.5,460,hs,M,SBD,Wraps
8,100,Cole Prather,MO,96.16,,142.5,,100,,182.5,425,hs,M,SBD,Wraps
1,110,Blake Riley,OK,107.91,,250,,150,,275,675,hs,M,SBD,Wraps
2,110,Andrew Sturm,OK,108.91,,230,,125,,235,590,hs,M,SBD,Wraps
3,110,Andrew Thullesen,MO,108.54,,210,,140,,230,580,hs,M,SBD,Wraps
4,110,Tucker Elkins,MO,102.56,,235,,125,,215,575,hs,M,SBD,Wraps
5,110,Roger McDaniel,MO,108.73,,217.5,,112.5,,197.5,527.5,hs,M,SBD,Wraps
6,110,Brendan Nowack,MO,107.18,,180,,105,,192.5,477.5,hs,M,SBD,Wraps
7,110,Preston Guzman,MO,107.5,,170,,110,,182.5,462.5,hs,M,SBD,Wraps
1,125,Brandon Gonzales,MO,122.24,,215,152.50,150,,227.5,592.5,hs,M,SBD,Wraps
2,125,Nick Freitas,MO,117.75,,207.5,,140,,240,587.5,hs,M,SBD,Wraps
3,125,Tusiata Huston,MO,122.88,,205,,120,,232.5,557.5,hs,M,SBD,Wraps
4,125,Garrett Miller,MO,123.24,,190,,142.5,,222.5,555,hs,M,SBD,Wraps
1,140,Louie Etuale,MO,129.55,,272.5,,175,-280.00,272.5,720,hs,M,SBD,Wraps
2,140,Collyn Richardson,SC,129.05,,260,167.50,162.5,,227.5,650,hs,M,SBD,Wraps
3,140,Noah Nevitt,KS,130.27,,200,,100,,212.5,512.5,hs,M,SBD,Wraps
4,140,Marcel Bauby,IL,131.81,,210,,92.5,,195,497.5,hs,M,SBD,Wraps
1,140+,Ham Nowack,MO,149.5,,217.5,,127.5,,215,560,hs,M,SBD,Wraps
2,140+,William Baker,MO,142.88,,215,,140,,190,545,hs,M,SBD,Wraps
1,52,Lawrence Caro,AR,50.98,,,,67.5,,,67.5,hs,M,B,Raw
1,56,Khang Yang,AR,53.75,,,,62.5,,,62.5,hs,M,B,Raw
1,60,Nicholas Hammer,MO,58.38,,,,92.5,,,92.5,hs,M,B,Raw
1,67.5,Dante Madden,MO,65.73,,,,97.5,,,97.5,hs,M,B,Raw
2,67.5,Nash Kolb,MO,65.82,,,,77.5,,,77.5,hs,M,B,Raw
3,67.5,Hunter Gray,MO,66.59,,,,77.5,,,77.5,hs,M,B,Raw
1,75,Logan Hackman,MO,74.71,,,,105,,,105,hs,M,B,Raw
2,75,Payton Graves,MO,70.9,,,,97.5,,,97.5,hs,M,B,Raw
3,75,Grant Hutchison,MO,74.3,,,,87.5,,,87.5,hs,M,B,Raw
4,75,Tanner Streiff,MO,74.25,,,,87.5,,,87.5,hs,M,B,Raw
5,75,Patrick Connery,MO,72.98,,,,87.5,,,87.5,hs,M,B,Raw
6,75,Ian Hoffman,MO,71.49,,,,80,,,80,hs,M,B,Raw
1,82.5,Ardell Hooker,MO,81.15,,,,115,,,115,hs,M,B,Raw
2,82.5,Noah Floyd,MO,79.02,,,,92.5,,,92.5,hs,M,B,Raw
1,56,Blake Smith,MO,53.89,,,,77.5,,,77.5,hs,M,B,Raw
1,67.5,Lyle Reel,MO,66.59,,,-112.50,110,,,110,hs,M,B,Raw
2,67.5,Aaron Mello,KS,66.27,,,,100,,,100,hs,M,B,Raw
3,67.5,Justin Shaw,MO,66.77,,,,87.5,,,87.5,hs,M,B,Raw
4,67.5,Tyous Lor,AR,66.45,,,,100,,,100,hs,M,B,Raw
5,67.5,Kong Lor,AR,65.23,,,,87.5,,,87.5,hs,M,B,Raw
1,75,Marcus Harris,KS,73.75,,,,112.5,,,112.5,hs,M,B,Raw
2,75,Dalton Schmidt,MO,72.57,,,,115,,,115,hs,M,B,Raw
3,75,Dylan Smith,MO,74.53,,,,97.5,,,97.5,hs,M,B,Raw
4,75,Chase Davis,MO,71.94,,,,90,,,90,hs,M,B,Raw
5,75,Jacob Freitas,MO,73.07,,,,85,,,85,hs,M,B,Raw
6,75,Peter Thao,AR,69.58,,,,90,,,90,hs,M,B,Raw
1,82.5,Hayden Robles,TN,81.51,,,,142.5,,,142.5,hs,M,B,Raw
2,82.5,Logan Parson,KS,81.74,,,,125,,,125,hs,M,B,Raw
3,82.5,Trey Welch,AR,81.96,,,,102.5,,,102.5,hs,M,B,Raw
DQ,82.5,Cody Briggs,OH,80.42,,,-152.50,150,,,,hs,M,B,Raw
1,56,Jared Clayton,OK,53.84,,72.5,,37.5,,92.5,202.5,hs,M,SBD,Single-ply
1,67.5,Brock Martin,TX,65.95,,162.5,,82.5,,172.5,417.5,hs,M,SBD,Single-ply
2,67.5,Daniel Passeri,IL,65.59,,125,,77.5,,145,347.5,hs,M,SBD,Single-ply
3,67.5,Billy Goen,OK,64.73,,100,,77.5,,147.5,325,hs,M,SBD,Single-ply
1,75,Nicolas Golden,TX,74.34,,180,,77.5,,217.5,475,hs,M,SBD,Single-ply
1,82.5,Syler Saenz,TX,78.83,,150,,107.5,,182.5,440,hs,M,SBD,Single-ply
2,82.5,Owen Swindell,OK,79.38,,127.5,,85,,160,372.5,hs,M,SBD,Single-ply
1,52,Brandon Williams,TX,51.48,,100,,57.5,,107.5,265,hs,M,SBD,Single-ply
1,60,Jacob Easley,TX,59.28,,155,,92.5,,152.5,400,hs,M,SBD,Single-ply
1,67.5,Charlie Goen,OK,64.05,,135,,92.5,,137.5,365,hs,M,SBD,Single-ply
1,75,Hunter Ross,TX,70.99,,135,,75,,150,360,hs,M,SBD,Single-ply
2,75,Jacob Bosquez,TX,73.39,,102.5,,75,,165,342.5,hs,M,SBD,Single-ply
1,82.5,Jett Bollinger,TX,79.74,,220,,127.5,,190,537.5,hs,M,SBD,Single-ply
2,82.5,Parker Taylor,TX,77.79,,205,,100,,210,515,hs,M,SBD,Single-ply
3,82.5,Cody Briggs,OH,80.42,,152.5,-152.50,150,,195,497.5,hs,M,SBD,Single-ply
4,82.5,Jackie Knighten,OK,82.33,,187.5,,95,,202.5,485,hs,M,SBD,Single-ply
5,82.5,Seth Sellars,OK,78.06,,185,,107.5,,185,477.5,hs,M,SBD,Single-ply
6,82.5,David Christian,OK,80.01,,122.5,,82.5,,167.5,372.5,hs,M,SBD,Single-ply
1,56,Khang Yang,AR,53.75,,,,62.5,137.50,135,197.5,hs,M,BD,Raw
2,56,Riley Blanchette,MO,55.16,,,,52.5,,100,152.5,hs,M,BD,Raw
1,67.5,Kong Lor,AR,65.23,,,,87.5,,192.5,280,hs,M,BD,Raw
2,67.5,Tyous Lor,AR,66.45,,,,100,,170,270,hs,M,BD,Raw
1,75,Peter Thao,AR,69.58,,,,90,,182.5,272.5,hs,M,BD,Raw
2,75,Jacob Freitas,MO,73.07,,,,85,,172.5,257.5,hs,M,BD,Raw
3,75,Tylor Lor,AR,69.26,,,,67.5,,155,222.5,hs,M,BD,Raw
1,82.5,Hayden Robles,TN,81.51,,,,142.5,,210,352.5,hs,M,BD,Raw
2,82.5,Keeten Jones,AR,79.38,,,,115,,212.5,327.5,hs,M,BD,Raw
3,82.5,Trey Welch,AR,81.96,,,,102.5,,165,267.5,hs,M,BD,Raw
DQ,82.5,Cody Briggs,OH,80.42,,,,137.5,,195,,hs,M,BD,Raw
1,60,Cordell Burks,TX,58.47,,,,55,,115,170,hs,M,BD,Raw
1,60,Cordell Burks,TX,58.47,,,,55,,115,170,so,M,BD,Raw
1,52,Lawrence Caro,AR,50.98,,,,67.5,-147.50,142.5,210,hs,M,BD,Raw
1,56,Khang Yang,AR,53.75,,,,62.5,137.50,135,197.5,hs,M,BD,Raw
1,67.5,Kong Lor,AR,65.23,,,,87.5,,192.5,280,hs,M,BD,Raw
2,67.5,Tyous Lor,AR,66.45,,,,100,,170,270,hs,M,BD,Raw
1,75,Peter Thao,AR,69.58,,,,90,,182.5,272.5,hs,M,BD,Raw
2,75,Tylor Lor,AR,69.26,,,,67.5,,155,222.5,hs,M,BD,Raw
1,82.5,Hayden Robles,TN,81.51,,,,142.5,,210,352.5,hs,M,BD,Raw
2,82.5,Keeten Jones,AR,79.38,,,,115,,212.5,327.5,hs,M,BD,Raw
3,82.5,Trey Welch,AR,81.96,,,,102.5,,165,267.5,hs,M,BD,Raw
1,90,Loegun Covey,MO,87.23,,,,120,,,120,hs,M,B,Raw
2,90,Max Bowers,MO,88.54,,,,112.5,,,112.5,hs,M,B,Raw
3,90,Brock Willis,MO,88.95,,,,100,,,100,hs,M,B,Raw
4,90,Brant Miller,OK,84.05,,,,102.5,,,102.5,hs,M,B,Raw
5,90,Tanner Christie,AR,86.95,,,,92.5,,,92.5,hs,M,B,Raw
1,100,Daniel Piburn,MO,99.43,,,-132.50,127.5,,,127.5,hs,M,B,Raw
2,100,Brennan Bradley,MO,94.48,,,,112.5,,,112.5,hs,M,B,Raw
3,100,Kevin Jordan,MO,90.99,,,,105,,,105,hs,M,B,Raw
4,100,Garrett Pazadara,MO,91.94,,,,112.5,,,112.5,hs,M,B,Raw
5,100,Cade Hampton,MO,93.98,,,,87.5,,,87.5,hs,M,B,Raw
1,110,Anthony Antos,MO,108.73,,,,117.5,,,117.5,hs,M,B,Raw
2,110,Mason Clark,AR,103.92,,,,110,,,110,hs,M,B,Raw
3,110,Tomas Gomez,AR,103.37,,,,105,,,105,hs,M,B,Raw
1,125,Chance Cooper,AR,117.66,,,,140,,,140,hs,M,B,Raw
2,125,Alex Updike,MO,117.34,,,,97.5,,,97.5,hs,M,B,Raw
1,90,Zach Willis,MO,84.19,,,,147.5,,,147.5,hs,M,B,Raw
2,90,Kaven Flesner,AR,87.09,,,,140,,,140,hs,M,B,Raw
3,90,Andrew Buckley,MO,87.27,,,,110,,,110,hs,M,B,Raw
4,90,James Riley,IL,88.13,,,,107.5,,,107.5,hs,M,B,Raw
1,100,Sam Baum,MO,98.88,,,,142.5,,,142.5,hs,M,B,Raw
2,100,Devin Hunter,MO,91.22,,,,125,,,125,hs,M,B,Raw
4,100,Larry Hall,MO,92.67,,,,102.5,,,102.5,hs,M,B,Raw
3,100,Jeremiah Smith,MO,91.08,,,,112.5,,,112.5,hs,M,B,Raw
5,100,Cole Prather,MO,96.16,,,,100,,,100,hs,M,B,Raw
1,110,Tucker Elkins,MO,102.56,,,,125,,,125,hs,M,B,Raw
2,110,Roger McDaniel,MO,108.73,,,,112.5,,,112.5,hs,M,B,Raw
3,110,Preston Guzman,MO,107.5,,,,110,,,110,hs,M,B,Raw
4,110,Brendan Nowack,MO,107.18,,,,105,,,105,hs,M,B,Raw
1,125,Brandon Gonzales,MO,122.24,,,152.50,150,,,150,hs,M,B,Raw
2,125,Garrett Miller,MO,123.24,,,,142.5,,,142.5,hs,M,B,Raw
4,125,Tusiata Huston,MO,122.88,,,,120,,,120,hs,M,B,Raw
3,125,Nick Freitas,MO,117.75,,,,140,,,140,hs,M,B,Raw
1,140,Louie Etuale,MO,129.55,,,,175,,,175,hs,M,B,Raw
1,140+,William Baker,MO,142.88,,,,140,,,140,hs,M,B,Raw
2,140+,Ham Nowack,MO,149.5,,,,127.5,,,127.5,hs,M,B,Raw
1,110,Camren Goens,OK,102.97,,162.5,,87.5,,167.5,417.5,hs,M,SBD,Single-ply
1,90,Dakota Carpenter,TX,88.36,,215,,142.5,,240,597.5,hs,M,SBD,Single-ply
2,90,Brett Mann,OK,87.91,,200,,117.5,,227.5,545,hs,M,SBD,Single-ply
3,90,Nick Ward,OK,88.09,,177.5,,107.5,,190,475,hs,M,SBD,Single-ply
1,100,Matthew Castle,TX,91.44,,200,,127.5,,207.5,535,hs,M,SBD,Single-ply
1,110,Jonathan Havis,TX,104.1,,260,,162.5,,227.5,650,hs,M,SBD,Single-ply
2,110,Joseph Howshar,OK,103.83,,195,,115,,227.5,537.5,hs,M,SBD,Single-ply
3,110,Michael Lindsey,OK,106.46,,132.5,,70,,162.5,365,hs,M,SBD,Single-ply
1,125,Adam Dyer,TX,123.69,,260,,120,,252.5,632.5,hs,M,SBD,Single-ply
2,125,Bryce Heye,TX,115.8,,207.5,,112.5,,217.5,537.5,hs,M,SBD,Single-ply
1,140,Jake Cox,TX,130.32,,232.5,,122.5,,222.5,577.5,hs,M,SBD,Single-ply
1,90,Brant Miller,OK,84.05,,,,102.5,,200,302.5,hs,M,BD,Raw
2,90,Tanner Christie,AR,86.95,,,,92.5,,135,227.5,hs,M,BD,Raw
1,100,Samson Hou-Seye,WI,99.34,,,,91,,187.5,278.5,hs,M,BD,Raw
1,110,Mason Clark,AR,103.92,,,,110,,160,270,hs,M,BD,Raw
2,110,Tomas Gomez,AR,103.37,,,,105,,157.5,262.5,hs,M,BD,Raw
1,125,Chance Cooper,AR,117.66,,,,140,,230,370,hs,M,BD,Raw
1,90,Kaven Flesner,AR,87.09,,,,140,,212.5,352.5,hs,M,BD,Raw
2,90,Dylon Kupka,OK,85,,,,132.5,,205,337.5,hs,M,BD,Raw
3,90,James Riley,IL,88.13,,,,107.5,,220,327.5,hs,M,BD,Raw
1,125,Nick Freitas,MO,117.75,,,,140,,240,380,hs,M,BD,Raw
1,90,Tanner Christie,AR,86.95,,,,92.5,,135,227.5,hs,M,BD,Raw
1,110,Mason Clark,AR,103.92,,,,110,,160,270,hs,M,BD,Raw
2,110,Tomas Gomez,AR,103.37,,,,105,,157.5,262.5,hs,M,BD,Raw
1,125,Chance Cooper,AR,117.66,,,,140,,230,370,hs,M,BD,Raw
1,90,Kaven Flesner,AR,87.09,,,,140,,212.5,352.5,hs,M,BD,Raw
