Name,Age,Sex,Tested,Event,Equipment,Division,BodyweightKg,WeightClassKg,Squat1Kg,Squat2Kg,Squat3Kg,Squat4Kg,Best3SquatKg,Bench1Kg,Bench2Kg,Bench3Kg,Bench4Kg,Best3BenchKg,Deadlift1Kg,Deadlift2Kg,Deadlift3Kg,Deadlift4Kg,Best3DeadliftKg,TotalKg,Place
Matt Fritz,24,M,No,SBD,Raw,M-O-FP-PRO-RC,107.95,110,250,-272.5,-292.5,,250,102.5,,,,102.5,265,312.5,-317.5,,312.5,665,1
Patrick Tessier,39,M,No,SBD,Raw,M-SM-FP-PRO-RC,74.84,75,177.5,190,-195,,190,102.5,110,-117.5,,110,185,192.5,205,,205,505,1
Brock Mantha,29,M,No,SBD,Raw,M-O-FP-PRO-RC,81.19,82.5,-195,210,-227.5,,210,145,157.5,170,,170,190,212.5,237.5,,237.5,617.5,1
Adam Arsenault,37,M,No,SBD,Raw,M-SM-FP-PRO-RC,99.79,100,200,-215,-227.5,,200,120,130,-137.5,,130,207.5,225,-235,,225,555,2
Andrew Jajo-Yacoub,24,M,No,SBD,Raw,M-O-FP-PRO-RC,89.81,90,225,235,242.5,,242.5,145,155,160,,160,225,240,250,,250,652.5,1
Andrew Bowes,26,M,No,SBD,Raw,M-O-FP-PRO-RC,88.9,90,220,225,235,,235,127.5,-137.5,-137.5,,127.5,232.5,235,245,,245,607.5,2
Paul Hewitt,26,M,No,SBD,Raw,M-O-FP-PRO-RC,97.98,100,267.5,285,-300,,285,165,177.5,-187.5,,177.5,245,265,280,,280,742.5,1
Darryl Burns,39,M,No,SBD,Raw,M-SM-FP-PRO-RC,98.88,100,190,200,207.5,,207.5,130,-135,-135,,130,262.5,275,285,,285,622.5,1
Craig Pellerin,47,M,No,BD,Raw,M-M2-IM-PRO-RC,104.33,110,,,,,,-165,175,180,185,180,220,230,245,,245,425,1
Cameron Carr,25,M,No,BD,Raw,M-O-IM-PRO-RC,102.06,110,,,,,,-172.5,-172.5,182.5,,182.5,265,280,290,,290,472.5,1
Ryan Silverson,44,M,No,SBD,Wraps,M-M1-FP-PRO-RA,108.41,110,240,260,272.5,,272.5,185,195,200,,200,230,-250,-250,,230,702.5,1
Jamie Seguin,30,M,No,SBD,Wraps,M-O-FP-PRO-RA,138.8,140,335,-352.5,360,,360,210,220,-227.5,,220,317.5,332.5,-340,,332.5,912.5,1
Karl Hjelholt,32,M,No,SBD,Wraps,M-O-FP-PRO-RA,140.61,140+,320,345,365,,365,170,182.5,187.5,,187.5,340,365,-375,,365,917.5,1
Jean-Francois Grenier,48,M,No,SBD,Wraps,M-M2-FP-PRO-RA,90.72,100,170,182.5,-185,,182.5,107.5,-112.5,-115,,107.5,180,182.5,-185,,182.5,472.5,1
Bellemare Mathieu,36,M,No,SBD,Wraps,M-SM-FP-PRO-RA,99.34,100,230,245,-255,,245,150,-157.5,-162.5,,150,210,220,230,,230,625,1
Chase Clark,28,M,No,SBD,Wraps,M-O-FP-PRO-RA,103.42,110,185,197.5,207.5,,207.5,137.5,147.5,155,,155,240,260,272.5,,272.5,635,1
Brendan Wood,23,M,No,SBD,Raw,M-J-FP-PRO-RC,112.04,125,-257.5,270,-282.5,,270,160,172.5,182.5,,182.5,272.5,290,305,,305,757.5,1
Steve Perkins,34,M,No,B,Raw,M-SM-BO-PRO-RC,88.9,90,,,,,,162.5,172.5,-182.5,,172.5,,,,,,172.5,1
Mike Martele,44,M,No,B,Raw,M-M1-BO-PRO-RC,127.01,140,,,,,,145,-152.5,-155,,145,,,,,,145,1
Dominic Ahier,39,M,No,B,Raw,M-SM-BO-PRO-RC,130.36,140,,,,,,185,-190,190,,190,,,,,,190,1
Audrey Bourgeois,40,F,No,SBD,Wraps,F-M1-FP-PRO-RA,74.84,75,130,137.5,150,,150,85,90,95,,95,135,140,150,155,150,395,1
Claudia Martellino,44,F,No,BD,Raw,F-M1-IM-PRO-RC,79.11,82.5,,,,,,95,100,-105,,100,140,145,150,155,150,250,1
Aneta Wilga,28,F,No,SBD,Raw,F-O-FP-PRO-RC,79.83,82.5,142.5,155,-162.5,,155,80,85,-90,,85,160,172.5,182.5,,182.5,422.5,1
Jason McLinton,44,M,Yes,SBD,Raw,M-M1-A-FP-RC,127.91,140,105,110,120,,120,105,110,115,,115,105,115,125,,125,360,1
Kanwaljeet Dewan,34,M,Yes,SBD,Raw,M-O-A-FP-RC,104.78,110,180,182.5,185,,185,102.5,105,110,,110,180,185,195,,195,490,1
Mackenzie Park,24,M,Yes,SBD,Raw,M-O-A-FP-RC,115.58,125,210,215,-222.5,,215,117.5,120,122.5,,122.5,217.5,222.5,230,,230,567.5,2
Thomas Byrne,25,M,Yes,SBD,Raw,M-O-A-FP-RC,113.4,125,257.5,265,-277.5,,265,145,160,170,,170,260,272.5,285,,285,720,1
Daniel Gervais,31,M,Yes,SBD,Raw,M-O-A-FP-RC,73.48,75,110,125,132.5,,132.5,75,90,95,,95,147.5,165,172.5,,172.5,400,1
Alain Hajjar,26,M,Yes,SBD,Raw,M-O-A-FP-RC,75.3,82.5,135,145,152.5,,152.5,105,112.5,-117.5,,112.5,177.5,197.5,205,,205,470,3
Jason Gauthier,34,M,Yes,SBD,Raw,M-SM-A-FP-RC,81.19,82.5,185,192.5,197.5,,197.5,132.5,-137.5,-137.5,,132.5,192.5,202.5,207.5,,207.5,537.5,1
Jordi Lafointaine,25,M,Yes,SBD,Raw,M-O-A-FP-RC,79.83,82.5,187.5,202.5,212.5,-220,212.5,107.5,117.5,130,,130,207.5,220,232.5,-240,232.5,575,1
Ryan McKenna,25,M,Yes,SBD,Raw,M-O-A-FP-RC,81.65,82.5,175,185,197.5,,197.5,125,135,-142.5,,135,207.5,230,-237.5,,230,562.5,2
James Hiscoe,48,M,Yes,SBD,Raw,M-M2-A-FP-RC,92.99,100,122.5,127.5,130,,130,75,80,85,,85,130,135,142.5,,142.5,357.5,1
Jordan Duval,27,M,Yes,SBD,Raw,M-O-A-FP-RC,89.81,90,-192.5,200,210,-215,210,120,130,-137.5,,130,242.5,250,-265,,250,590,2
Mike Steven,27,M,Yes,SBD,Raw,M-O-A-FP-RC,89.81,90,195,-210,,,195,130,140,-145,,140,245,265,275,,275,610,1
Garrett Hansen,30,M,Yes,SBD,Wraps,M-O-A-FP-RA,96.62,100,200,215,227.5,,227.5,127.5,137.5,150,,150,222.5,245,260,,260,637.5,1
Chris Roseman,35,M,Yes,SBD,Wraps,M-SM-A-FP-RA,117.03,125,237.5,257.5,,,257.5,160,172.5,-182.5,,172.5,240,257.5,-272.5,,257.5,687.5,1
Jean-Paul Martin,35,M,Yes,BD,Raw,M-O-A-IM-RC,88.9,90,,,,,,150,155,-165,,155,215,225,235,,235,390,1
Daylon Longchap,23,M,Yes,BD,Raw,M-J-A-IM-RC,80.97,82.5,,,,,,70,75,-80,,75,130,140,-150,,140,215,1
Jason Rossi,41,M,Yes,B,Raw,M-M1-A-BO-RC,81.65,82.5,,,,,,100,-110,-110,,100,,,,,,100,1
Braedon Hos,18,M,Yes,SBD,Raw,M-T3-A-FP-RC,69.4,75,102.5,110,120,,120,72.5,77.5,82.5,,82.5,137.5,145,155,,155,357.5,1
Philippe Dorion,19,M,Yes,SBD,Raw,M-T3-A-FP-RC,88,90,135,142.5,-150,,142.5,-85,90,97.5,,97.5,142.5,155,170,,170,410,1
Cory Kyle,18,M,Yes,SBD,Raw,M-T3-A-FP-RC,105.23,110,-170,170,180,,180,87.5,97.5,-110,,97.5,162.5,180,182.5,,182.5,460,1
Tyler Harrison,23,M,Yes,SBD,Raw,M-J-A-FP-RC,111.13,125,230,-245,,,230,-130,130,-132.5,,130,280,-295,,,280,640,1
Jordan Steinberg,23,M,Yes,SBD,Raw,M-J-A-FP-RC,66.22,75,155,160,167.5,,167.5,92.5,102.5,107.5,,107.5,165,182.5,190,,190,465,2
Christian Martin-Pasley,22,M,Yes,SBD,Raw,M-J-A-FP-RC,73.48,75,135,145,-152.5,,145,100,107.5,-110,,107.5,180,192.5,202.5,,202.5,455,3
Richard Domino,23,M,Yes,SBD,Raw,M-J-A-FP-RC,73.03,75,170,185,195,,195,115,125,-132.5,,125,185,195,210,,210,530,1
Brent Boland,22,M,Yes,SBD,Raw,M-J-A-FP-RC,94.35,100,157.5,170,180,,180,112.5,-122.5,122.5,,122.5,185,197.5,210,,210,512.5,2
Nick Ripley,23,M,Yes,SBD,Raw,M-J-A-FP-RC,86.18,90,192.5,-202.5,-202.5,,192.5,137.5,145,-152.5,,145,205,-207.5,-207.5,,205,542.5,1
Connor Thomas,22,M,Yes,SBD,Raw,M-J-A-FP-RC,94.8,100,180,-200,200,,200,122.5,132.5,140,,140,210,227.5,-242.5,,227.5,567.5,1
Sara Akkaoui,27,F,Yes,SBD,Raw,F-O-A-FP-RC,60.78,67.5,60,65,77.5,,77.5,-30,-32.5,-35,,,75,80,87.5,,87.5,165,1
Pratibha Dhillon,36,F,Yes,SBD,Raw,F-SM-A-FP-RC,56.93,60,57.5,60,62.5,,62.5,40,45,47.5,,47.5,77.5,87.5,92.5,,92.5,202.5,1
Jen Stoker,43,F,Yes,SBD,Raw,F-M1-A-FP-RC,57.06,60,75,-77.5,-77.5,,75,45,47.5,-50,,47.5,85,87.5,92.5,,92.5,215,2
Katrina Gobeille,31,F,Yes,SBD,Raw,F-O-A-FP-RC,54.66,56,85,95,100,,100,42.5,47.5,52.5,,52.5,92.5,102.5,112.5,,112.5,265,2
Eileen Thoo,25,F,Yes,SBD,Raw,F-O-A-FP-RC,55.75,56,95,-102.5,-102.5,,95,55,62.5,70,,70,100,-112.5,112.5,,112.5,277.5,1
Anne Marie Walton,40,F,Yes,SBD,Raw,F-M1-A-FP-RC,59.83,60,72.5,75,77.5,,77.5,47.5,52.5,-55,,52.5,110,115,120,,120,250,1
Alexandra Pontbriand,42,F,Yes,SBD,Raw,F-M1-A-FP-RC,51.03,52,-62.5,-62.5,-62.5,,,47.5,-50,-50,,47.5,115,117.5,120,,120,167.5,1
Bethany Savage,34,F,Yes,SBD,Raw,F-O-A-FP-RC,59.96,60,100,107.5,112.5,,112.5,-75,80,85,87.5,85,115,125,-130,,125,322.5,2
Heather Leitch,34,F,Yes,SBD,Raw,F-SM-A-FP-RC,65.32,67.5,97.5,-105,-105,,97.5,52.5,-57.5,-57.5,,52.5,125,-137.5,-137.5,,125,275,2
Megan Davis,24,F,Yes,SBD,Raw,F-O-A-FP-RC,58.97,60,102.5,107.5,110,,110,70,-75,-75,,70,142.5,155,-157.5,,155,335,1
Sherley Guay,44,F,Yes,SBD,Raw,F-M1-A-FP-RC,78.93,82.5,65,-70,70,,70,-47.5,50,-52.5,,50,75,-82.5,82.5,,82.5,202.5,2
Emily Farlam-Williams,24,F,Yes,SBD,Raw,F-O-A-FP-RC,73.26,75,87.5,92.5,-95,,92.5,42.5,45,-47.5,,45,97.5,102.5,115,,115,252.5,1
Michelle Derouin,37,F,Yes,SBD,Raw,F-SM-A-FP-RC,65.54,67.5,110,115,-120,,115,55,57.5,60,,60,125,130,140,,140,315,1
Gabrielle Fontaine,33,F,Yes,SBD,Raw,F-SM-A-FP-RC,78.02,82.5,-105,107.5,122.5,,122.5,82.5,87.5,95,102.5,95,127.5,137.5,145,,145,362.5,1
Shea Bramley,39,F,Yes,SBD,Raw,F-O-A-FP-RC,78.24,82.5,102.5,110,112.5,,112.5,65,70,-72.5,,70,130,140,-150,150,140,322.5,2
Sokly Chhay,35,F,Yes,SBD,Raw,F-O-A-FP-RC,80.74,82.5,135,145,-155,,145,72.5,80,-85,,80,150,160,-170,,160,385,1
Pamela Thistle,42,F,Yes,SBD,Raw,F-M1-A-FP-RC,84.37,90,110,115,-125,,115,62.5,67.5,70,,70,117.5,122.5,135,140,135,320,1
Valorie Butler,52,F,Yes,SBD,Raw,F-M3-A-FP-RC,95.48,90+,115,117.5,-130,,117.5,60,67.5,75,,75,117.5,125,135,,135,327.5,1
Chrystelle Moreau,35,F,Yes,SBD,Raw,F-SM-A-FP-RC,86.18,90,137.5,-145,147.5,,147.5,72.5,-77.5,-77.5,,72.5,135,-142.5,-142.5,,135,355,1
Christine Sanchez,44,F,Yes,SBD,Raw,F-M1-A-FP-RC,81.65,82.5,117.5,-130,-130,,117.5,72.5,77.5,-82.5,,77.5,147.5,-157.5,-157.5,,147.5,342.5,1
Treena Grevatt,47,F,Yes,SBD,Raw,F-M2-A-FP-RC,110.99,90+,105,125,137.5,140,137.5,55,62.5,-65,,62.5,125,147.5,-160,,147.5,347.5,1
Samantha Green,30,F,Yes,SBD,Raw,F-O-A-FP-RC,94.35,90+,155,167.5,180,,180,75,85,-90,,85,155,165,177.5,,177.5,442.5,1
Tracy Cleland,46,F,Yes,SBD,Raw,F-M2-A-FP-RC,80.74,82.5,-87.5,-87.5,-87.5,,,40,45,-50,,45,,,,,,,DQ
Emilee Harrison,16,F,Yes,SBD,Raw,F-T2-A-FP-RC,92.99,90+,100,110,117.5,,117.5,50,57.5,-62.5,,57.5,132.5,140,145,147.5,145,320,1
Jaspreet Kaur,24,F,Yes,SBD,Raw,F-J-A-FP-RC,59.87,60,60,-70,70,,70,30,37.5,,,37.5,80,87.5,90,,90,197.5,2
Emily Albano,21,F,Yes,SBD,Raw,F-J-A-FP-RC,118.16,90+,-90,-90,90,,90,45,50,-57.5,,50,102.5,112.5,127.5,,127.5,267.5,1
Savannah Blacksmith,22,F,Yes,SBD,Raw,F-J-A-FP-RC,75.3,82.5,75,80,87.5,,87.5,47.5,55,-60,,55,95,102.5,110,,110,252.5,1
Siddy Aten,25,F,Yes,SBD,Raw,F-J-A-FP-RC,62.6,67.5,105,115,127.5,,127.5,57.5,62.5,67.5,,67.5,132.5,142.5,155,,155,350,1
Krystina McReavy,21,F,Yes,SBD,Raw,F-J-A-FP-RC,56.93,60,85,100,105,,105,37.5,47.5,50,,50,102.5,125,137.5,,137.5,292.5,1
Kaylee Vaillancourt,22,F,Yes,SBD,Wraps,F-J-A-FP-RA,81.65,82.5,-150,152.5,-160,,152.5,70,77.5,-80,,77.5,170,180,-187.5,,180,410,1
Lucie Lafleur,45,F,Yes,BD,Raw,F-M2-A-IM-RC,81.65,82.5,,,,,,52.5,-57.5,-60,,52.5,117.5,125,132.5,137.5,132.5,185,1
Anne Marie Fontaine,67,F,Yes,B,Raw,F-M6-A-BO-RC,63.5,67.5,,,,,,25,27.5,-30,,27.5,,,,,,27.5,1
