Name,WeightClassKg,Division,Sex,Best3SquatKg,Best3BenchKg,Best3DeadliftKg,TotalKg,Event,Equipment,Place
T. Peters,52,High School Pure,M,50,30,52.5,132.5,SBD,Single-ply,1
C. Plyter,56,High School Pure,M,122.5,77.5,162.5,362.5,SBD,Single-ply,1
P. Norbury,60,High School Pure,M,145,92.5,187.5,425,SBD,Single-ply,1
R. Davis,60,High School Pure,M,162.5,85,150,397.5,SBD,Single-ply,2
T. Hepner,60,High School Pure,M,150,77.5,147.5,375,SBD,Single-ply,3
B. Simms,60,High School Pure,M,100,67.5,115,282.5,SBD,Single-ply,4
S. Goldberg,52,Intermediate,M,102.5,62.5,147.5,312.5,SBD,Single-ply,1
J. Franklin,60,Natural,M,197.5,110,210,517.5,SBD,Single-ply,1
T. Peters,52,Pure,M,50,30,52.5,132.5,SBD,Single-ply,1
J. Franklin,60,Pure,M,197.5,110,210,517.5,SBD,Single-ply,1
A. Csiszar,60,Pure,M,170,112.5,215,497.5,SBD,Single-ply,2
T. Peters,52,Pure Novice,M,50,30,52.5,132.5,SBD,Single-ply,1
J. Franklin,60,Pure Novice,M,197.5,110,210,517.5,SBD,Single-ply,1
G. Rempfer,60,Submasters 1,M,125,92.5,145,362.5,SBD,Single-ply,1
A. Young,60,Submasters 2,M,147.5,120,175,442.5,SBD,Single-ply,1
A. Nobbe,56,Grand Masters,F,77.5,37.5,95,210,SBD,Single-ply,1
A. Lyles,56,High School Pure,F,87.5,42.5,92.5,222.5,SBD,Single-ply,1
P. Conley,48,Intermediate,F,70,42.5,90,202.5,SBD,Single-ply,1
K. Hudgins,52,Intermediate,F,92.5,55,107.5,255,SBD,Single-ply,1
E. Maxwell,48,Juniors,F,95,42.5,122.5,260,SBD,Single-ply,1
S. Stauffer,48,Pure,F,72.5,45,95,212.5,SBD,Single-ply,1
J. Linscott,52,Pure,F,115,60,115,290,SBD,Single-ply,1
C. Berry,52,Pure,F,77.5,32.5,92.5,202.5,SBD,Single-ply,2
P. Casper,56,Pure,F,97.5,57.5,120,275,SBD,Single-ply,1
Mary Hetzel,60,Pure,F,140,77.5,157.5,375,SBD,Single-ply,1
S. Stauffer,48,Pure Novice,F,72.5,45,95,212.5,SBD,Single-ply,1
K. Goodson,52,Pure Novice,F,80,52.5,102.5,235,SBD,Single-ply,1
P. Casper,56,Pure Novice,F,97.5,57.5,120,275,SBD,Single-ply,1
J. Gutierrez,52,Submasters 1,F,102.5,60,115,277.5,SBD,Single-ply,1
R. Heldman,56,Submasters 1,F,125,72.5,137.5,335,SBD,Single-ply,1
P. Casper,56,Submasters 2,F,97.5,57.5,120,275,SBD,Single-ply,1
Mary Hetzel,60,Submasters 2,F,140,77.5,157.5,375,SBD,Single-ply,1
J. Gutierrez,52,Open,F,,60,,60,B,Single-ply,1
A. Nobbe,56,Open,F,,37.5,,37.5,B,Single-ply,1
Mary Hetzel,60,Open,F,,77.5,,77.5,B,Single-ply,1
J. Barron,67.5,High School Pure,M,115,80,150,345,SBD,Single-ply,1
B. Arnold,67.5,High School Pure,M,110,70,130,310,SBD,Single-ply,2
R. Holden,67.5,Masters 3,M,182.5,97.5,205,485,SBD,Single-ply,1
Mike Ewoldsen,67.5,Pure,M,235,137.5,230,602.5,SBD,Single-ply,1
M. Woodworth,67.5,Pure,M,217.5,150,217.5,585,SBD,Single-ply,2
R. Sheckles,67.5,Pure Novice,M,190,105,220,515,SBD,Single-ply,1
M. Royal,67.5,Pure Novice,M,162.5,115,200,477.5,SBD,Single-ply,2
M. Woodworth,67.5,Submasters 1,M,217.5,150,217.5,585,SBD,Single-ply,1
M. Royal,67.5,Submasters 1,M,162.5,115,200,477.5,SBD,Single-ply,2
B. Williams,75,Masters 3,M,150,110,205,465,SBD,Single-ply,1
J. Smith,75,Pure,M,262.5,142.5,250,655,SBD,Single-ply,1
D. Sorenson,75,Pure,M,240,153.5,245,638.5,SBD,Single-ply,2
D. Gilley,75,Pure,M,205,135,247.5,587.5,SBD,Single-ply,3
E. Jusino,75,Pure Novice,M,215,122.5,245,582.5,SBD,Single-ply,1
D. Sorenson,75,Submasters 1,M,240,153.5,245,638.5,SBD,Single-ply,1
A. Koehler,75,Submasters 1,M,165,115,,,SBD,Single-ply,DQ
J. Garcia,75,Submasters 2,M,242.5,150,260,652.5,SBD,Single-ply,1
B. Schnabel,75,Submasters 2,M,130,95,182.5,407.5,SBD,Single-ply,2
B. Williams,75,Open,M,,110,,,B,Single-ply,DQ
R. Butera,75,Open,M,,162.5,,,B,Single-ply,DQ
S. Daniels,82.5,High School Pure,M,195,115,207.5,517.5,SBD,Single-ply,1
C. Kyte,82.5,High School Pure,M,192.5,90,212.5,495,SBD,Single-ply,2
R. Simmons,82.5,High School Pure,M,157.5,122.5,192.5,472.5,SBD,Single-ply,3
B. Rothgery,82.5,Intermediate,M,275,147.5,250,672.5,SBD,Single-ply,1
J. Weatherly,82.5,Juniors,M,220,122.5,245,587.5,SBD,Single-ply,1
E. McKinney,82.5,Juniors,M,227.5,140,200,567.5,SBD,Single-ply,2
C. Diaz,82.5,Juniors,M,170,110,192.5,472.5,SBD,Single-ply,3
Aaron Byas,82.5,Masters 1,M,220,150,285,655,SBD,Single-ply,1
J. Skates,82.5,Masters 2,M,182.5,77.5,180,440,SBD,Single-ply,1
Jim Yakubovsky,82.5,Masters 3,M,185,120,210,515,SBD,Single-ply,1
D. West,82.5,Masters 4,M,,,,,SBD,Single-ply,DQ
Greg Zweig,82.5,Natural,M,260,157.5,296,713.5,SBD,Single-ply,1
Mike Pilkenton,82.5,Pure,M,287.5,187.5,287.5,762.5,SBD,Single-ply,1
Greg Zweig,82.5,Pure,M,260,157.5,296,713.5,SBD,Single-ply,2
B. Rothgery,82.5,Pure,M,275,147.5,250,672.5,SBD,Single-ply,3
S. Ramage,82.5,Pure,M,255,187.5,217.5,660,SBD,Single-ply,4
B. Rothgery,82.5,Pure Novice,M,275,147.5,250,672.5,SBD,Single-ply,1
L. Gonzalez,82.5,Pure Novice,M,255,145,265,665,SBD,Single-ply,2
S. Pemage,82.5,Pure Novice,M,255,187.5,217.5,660,SBD,Single-ply,3
M. McGrady,82.5,Pure Novice,M,230,165,237.5,632.5,SBD,Single-ply,4
W. Sabir,82.5,Pure Novice,M,235,157.5,237.5,630,SBD,Single-ply,5
Bob Scales,82.5,Pure Novice,M,202.5,147.5,260,610,SBD,Single-ply,6
J. Weatherly,82.5,Pure Novice,M,220,122.5,245,587.5,SBD,Single-ply,7
J. Castro,82.5,Pure Novice,M,225,152.5,200,577.5,SBD,Single-ply,8
E. McKinney,82.5,Pure Novice,M,227.5,140,200,567.5,SBD,Single-ply,9
E. Harrison,82.5,Submasters 1,M,275,147.5,282.5,705,SBD,Single-ply,1
L. Gonzalez,82.5,Submasters 1,M,255,145,265,665,SBD,Single-ply,2
T. Castor,82.5,Submasters 1,M,242.5,165,212.5,620,SBD,Single-ply,3
S. Scott,82.5,Submasters 1,M,227.5,150,230,607.5,SBD,Single-ply,4
D. Nicodemus,82.5,Submasters 1,M,197.5,137.5,207.5,542.5,SBD,Single-ply,5
Greg Zweig,82.5,Submasters 2,M,260,157.5,296,713.5,SBD,Single-ply,1
D. Gill,82.5,Submasters 2,M,207.5,127.5,250,585,SBD,Single-ply,2
F. Langhorst,82.5,Submasters 2,M,205,155,220,580,SBD,Single-ply,3
C. Oliger,82.5,Submasters 2,M,190,120,210,520,SBD,Single-ply,4
S. Ramage,82.5,Open,M,,187.5,,187.5,B,Single-ply,1
F. Langhorst,82.5,Open,M,,155,,155,B,Single-ply,2
R. Simmons,82.5,Open,M,,122.5,,122.5,B,Single-ply,3
M. Potts,90,High School Pure,M,205,125,246,576,SBD,Single-ply,1
M. Noble,90,High School Pure,M,212.5,130,227.5,570,SBD,Single-ply,2
J. Ales,90,High School Pure,M,192.5,112.5,220,525,SBD,Single-ply,3
Greg Titus,90,Intermediate,M,282.5,202.5,275,760,SBD,Single-ply,1
J. Goodson,90,Intermediate,M,277.5,185,277.5,740,SBD,Single-ply,2
D. Yarnell,90,Intermediate,M,197.5,112.5,227.5,537.5,SBD,Single-ply,3
J. Cantu,90,Intermediate,M,185,137.5,207.5,530,SBD,Single-ply,4
J. Short,90,Juniors,M,175,130,182.5,487.5,SBD,Single-ply,1
P. Edwards,90,Juniors,M,155,80,185,420,SBD,Single-ply,2
C. Fugate,90,Juniors,M,140,105,142.5,387.5,SBD,Single-ply,3
B. Scott,90,Masters 1,M,195,112.5,210,517.5,SBD,Single-ply,1
J. Ites,90,Masters 2,M,160,145,210,515,SBD,Single-ply,1
J. Atkinson,90,Masters 3,M,245,177.5,257.5,680,SBD,Single-ply,1
E. Rodriguez,90,Masters 3,M,227.5,147.5,227.5,602.5,SBD,Single-ply,2
D. Anthony,90,Masters 3,M,192.5,100,212.5,505,SBD,Single-ply,3
S. Westrich,90,Masters 3,M,160,115,192.5,467.5,SBD,Single-ply,4
J. Goodson,90,Natural,M,277.5,185,277.5,740,SBD,Single-ply,1
B. Carey,90,Natural,M,207.5,165,240,612.5,SBD,Single-ply,2
Greg Titus,90,Pure,M,282.5,202.5,275,760,SBD,Single-ply,1
L. Cicconi,90,Pure,M,252.5,137.5,250,640,SBD,Single-ply,2
C. Fugate,90,Pure,M,140,105,142.5,387.5,SBD,Single-ply,3
D. Kouf,90,Pure,M,,,,,SBD,Single-ply,DQ
D. Rothgery,90,Pure,M,,,,,SBD,Single-ply,DQ
A. Hudgins,90,Pure Novice,M,265,177.5,277.5,720,SBD,Single-ply,1
M. Enochs,90,Pure Novice,M,272.5,170,245,687.5,SBD,Single-ply,2
R. Day,90,Pure Novice,M,227.5,160,242.5,630,SBD,Single-ply,3
D. Banker,90,Pure Novice,M,217.5,145,245,607.5,SBD,Single-ply,4
G. Green,90,Pure Novice,M,215,147.5,235,597.5,SBD,Single-ply,5
D. Baldwin,90,Pure Novice,M,227.5,140,225,592.5,SBD,Single-ply,6
K. Spencer,90,Pure Novice,M,197.5,122.5,210,530,SBD,Single-ply,7
G. Schuster,90,Pure Novice,M,197.5,,,,SBD,Single-ply,DQ
L. Cicconi,90,Submasters 1,M,252.5,137.5,250,640,SBD,Single-ply,1
R. Day,90,Submasters 1,M,227.5,160,242.5,630,SBD,Single-ply,2
D. Banker,90,Submasters 1,M,217.5,145,245,607.5,SBD,Single-ply,3
D. Rothgery,90,Submasters 1,M,,,,,SBD,Single-ply,DQ
D. Woosley,90,Submasters 2,M,227.5,190,210,627.5,SBD,Single-ply,1
T. Marks,90,Submasters 2,M,235,147.5,227.5,610,SBD,Single-ply,2
G. Schuster,90,Submasters 2,M,197.5,,,,SBD,Single-ply,DQ
Greg Titus,90,Open,M,,202.5,,202.5,B,Single-ply,1
D. Woosley,90,Open,M,,190,,190,B,Single-ply,2
J. Atkinson,90,Open,M,,177.5,,177.5,B,Single-ply,3
B. Carey,90,Open,M,,165,,165,B,Single-ply,4
R. Day,90,Open,M,,160,,160,B,Single-ply,5
E. Rodriguez,90,Open,M,,147.5,,147.5,B,Single-ply,6
D. Banker,90,Open,M,,145,,145,B,Single-ply,7
G. Schuster,90,Open,M,,,,,SBD,Single-ply,DQ
C. Loveless,100,High School Pure,M,192.5,100,190,482.5,SBD,Single-ply,1
G. Brueggen,100,High School Pure,M,165,90,157.5,412.5,SBD,Single-ply,2
M. Skates,100,Intermediate,M,282.5,165,260,707.5,SBD,Single-ply,1
B. Shields,100,Juniors,M,252.5,152.5,260,665,SBD,Single-ply,1
C. Stanchfield,100,Juniors,M,220,157.5,250,627.5,SBD,Single-ply,2
M. Zimmer,100,Juniors,M,267.5,,,,SBD,Single-ply,DQ
Ray Harper,100,Masters 1,M,260,155,300,715,SBD,Single-ply,1
R. McCoy,100,Masters 1,M,245,162.5,245,652.5,SBD,Single-ply,2
Ray Harper,100,Masters 3,M,260,155,300,715,SBD,Single-ply,1
D. Johnson,100,Masters 3,M,272.5,157.5,260,690,SBD,Single-ply,2
R. McCoy,100,Masters 3,M,245,162.5,245,652.5,SBD,Single-ply,3
D. Johnson,100,Grand Masters,M,272.5,157.5,260,690,SBD,Single-ply,1
Ron Carter,100,Pure,M,257.5,167.5,272.5,697.5,SBD,Single-ply,1
G. Johnson,100,Pure,M,202.5,132.5,215,550,SBD,Single-ply,2
S. King,100,Pure Novice,M,305,182.5,277.5,765,SBD,Single-ply,1
L. Washington,100,Pure Novice,M,287.5,175,295,757.5,SBD,Single-ply,2
P. Jackson,100,Pure Novice,M,257.5,165,290,712.5,SBD,Single-ply,3
M. Skates,100,Pure Novice,M,282.5,165,260,707.5,SBD,Single-ply,4
M. Zimmer,100,Pure Novice,M,267.5,,,,SBD,Single-ply,DQ
A. Barnes,100,Submasters 1,M,272.5,187.5,247.5,707.5,SBD,Single-ply,1
D. McCarthy,100,Submasters 1,M,262.5,172.5,267.5,702.5,SBD,Single-ply,2
R. Heldman,100,Submasters 1,M,275,165,235,675,SBD,Single-ply,3
L. Washington,100,Submasters 2,M,287.5,175,295,757.5,SBD,Single-ply,1
Bob Boyles,100,Submasters 2,M,287.5,162.5,265,715,SBD,Single-ply,2
Ron Carter,100,Submasters 2,M,257.5,167.5,272.5,697.5,SBD,Single-ply,3
E. Payne,100,Submasters 2,M,235,160,250,645,SBD,Single-ply,4
E. McDonald,100,Submasters 2,M,212.5,145,182.5,540,SBD,Single-ply,5
D. McCarthy,100,Open,M,,172.5,,172.5,B,Single-ply,1
Ron Carter,100,Open,M,,167.5,,167.5,B,Single-ply,2
J. Bruce,110,Juniors,M,220,165,212.5,597.5,SBD,Single-ply,1
M. Zuber,110,Juniors,M,235,147.5,215,597.5,SBD,Single-ply,2
T. Tinsman,110,Masters 1,M,225,182.5,275,682.5,SBD,Single-ply,1
James Hodges,110,Masters 2,M,280,142.5,330,752.5,SBD,Single-ply,1
Jim Duree,110,Masters 2,M,272.5,132.5,237.5,642.5,SBD,Single-ply,2
T. Tinsman,110,Masters 3,M,225,182.5,275,682.5,SBD,Single-ply,1
G. Barnett,110,Masters 3,M,242.5,152.5,242.5,637.5,SBD,Single-ply,2
M. Slaughter,110,Masters 3,M,107.5,107.5,137.5,352.5,SBD,Single-ply,3
D. Gonzalez,110,Natural,M,337.5,215,287.5,840,SBD,Single-ply,1
R. Falcioni,110,Natural,M,292.5,182.5,282.5,757.5,SBD,Single-ply,2
J. Dentice,110,Natural,M,252.5,185,270,707.5,SBD,Single-ply,3
B. Youngs,110,Natural,M,267.5,180,250,697.5,SBD,Single-ply,4
R. Delavaga,110,Natural,M,272.5,160,257.5,690,SBD,Single-ply,5
J. Dentice,110,Pure,M,252.5,185,270,707.5,SBD,Single-ply,1
R. Delavaga,110,Pure,M,272.5,160,257.5,690,SBD,Single-ply,2
J. Bruce,110,Pure,M,227.5,165,212.5,605,SBD,Single-ply,3
J. Bruce,110,Pure Novice,M,227.5,165,212.5,605,SBD,Single-ply,1
T. Severino,110,Pure Novice,M,207.5,170,227.5,605,SBD,Single-ply,2
V. Currie,110,Pure Novice,M,,,,,SBD,Single-ply,DQ
D. Gonzalez,110,Submasters 1,M,337.5,215,287.5,840,SBD,Single-ply,1
R. Falcioni,110,Submasters 2,M,292.5,182.5,282.5,757.5,SBD,Single-ply,1
Paris Mason,110,Submasters 2,M,272.5,182.5,272.5,727.5,SBD,Single-ply,2
J. Dentice,110,Submasters 2,M,252.5,185,270,707.5,SBD,Single-ply,3
D. Gonzalez,110,Open,M,,215,,215,B,Single-ply,1
T. Severino,110,Open,M,,170,,170,B,Single-ply,2
Jim Duree,110,Open,M,,132.5,,132.5,B,Single-ply,3
R. Hall,125,High School Pure,M,215,120,227.5,562.5,SBD,Single-ply,1
J. McAlister,125,High School Pure,M,205,95,210,510,SBD,Single-ply,2
J. Angton,125,Intermediate,M,275,197.5,272.5,745,SBD,Single-ply,1
M. Sheffler,125,Intermediate,M,265,157.5,272.5,695,SBD,Single-ply,2
R. Williams,125,Intermediate,M,250,200,237.5,687.5,SBD,Single-ply,3
C. Knowles,125,Juniors,M,230,187.5,255,672.5,SBD,Single-ply,1
M. Farney,125,Masters 1,M,260,192.5,250,702.5,SBD,Single-ply,1
J. Seager,125,Masters 1,M,320,152.5,227.5,700,SBD,Single-ply,2
D. McAlester,125,Masters 1,M,205,158.5,232.5,596,SBD,Single-ply,3
B. Sawyer,125,Masters 2,M,242.5,137.5,227.5,607.5,SBD,Single-ply,1
P. Tewksbury,125,Natural,M,315,210,320,845,SBD,Single-ply,1
M. Sheffler,125,Natural,M,265,157.5,272.5,695,SBD,Single-ply,2
W. Tarras,125,Natural,M,225,220,225,670,SBD,Single-ply,3
William Nichols,125,Natural,M,,,,,SBD,Single-ply,DQ
A. Keffer,125,Pure,M,300,197.5,277.5,775,SBD,Single-ply,1
J. Angton,125,Pure,M,275,197.5,272.5,745,SBD,Single-ply,2
M. Sheffler,125,Pure,M,265,157.5,272.5,695,SBD,Single-ply,3
C. Knowles,125,Pure,M,230,187.5,255,672.5,SBD,Single-ply,4
P. Spangenberg,125,Pure,M,,,,,SBD,Single-ply,DQ
M. Sheffler,125,Pure Novice,M,265,157.5,272.5,695,SBD,Single-ply,1
R. Williams,125,Pure Novice,M,250,200,237.5,687.5,SBD,Single-ply,2
C. Knowles,125,Pure Novice,M,230,187.5,255,672.5,SBD,Single-ply,3
G. Agnes,125,Pure Novice,M,230,152.5,242.5,625,SBD,Single-ply,4
P. Tewksbury,125,Submasters 1,M,315,210,320,845,SBD,Single-ply,1
A. Keffer,125,Submasters 2,M,300,197.5,277.5,775,SBD,Single-ply,1
W. Tarras,125,Submasters 2,M,225,220,225,670,SBD,Single-ply,2
B. Pierce,125,Submasters 2,M,227.5,155,260,642.5,SBD,Single-ply,3
K. Williams,125,Submasters 2,M,240,187.5,205,632.5,SBD,Single-ply,4
W. Tarras,125,Open,M,,220,,220,B,Single-ply,1
K. Williams,125,Open,M,,187.5,,187.5,B,Single-ply,2
C. Knowles,125,Open,M,,187.5,,187.5,B,Single-ply,3
B. Sawyer,125,Open,M,,137.5,,137.5,B,Single-ply,4
William Nichols,125,Open,M,,,,,SBD,Single-ply,DQ
C. James,140,Juniors,M,217.5,172.5,245,635,SBD,Single-ply,1
D. Helkenn,140,Masters 1,M,237.5,162.5,242.5,642.5,SBD,Single-ply,1
B. Fellows,140,Masters 2,M,240,105,227.5,572.5,SBD,Single-ply,1
E. Smith,140,Natural,M,342.5,215,305,862.5,SBD,Single-ply,1
T. Ahrens,140,Natural,M,320,235,272.5,827.5,SBD,Single-ply,2
M. Fernandez,140,Natural,M,320,187.5,312.5,820,SBD,Single-ply,3
T. Ahrens,140,Pure,M,320,235,272.5,827.5,SBD,Single-ply,1
S. Jones,140,Pure,M,305,155,227.5,687.5,SBD,Single-ply,2
A. Jones,140,Pure,M,237.5,165,255,657.5,SBD,Single-ply,3
E. Smith,140,Submasters 1,M,342.5,215,305,862.5,SBD,Single-ply,1
M. Fernandez,140,Submasters 2,M,320,187.5,312.5,820,SBD,Single-ply,1
T. Stout,140,Submasters 2,M,322.5,195,295,812.5,SBD,Single-ply,2
S. Jones,140,Submasters 2,M,305,155,227.5,687.5,SBD,Single-ply,3
B. Kehn,140+,High School Pure,M,240,142.5,215,597.5,SBD,Single-ply,1
T. Wright,140+,Intermediate,M,267.5,162.5,232.5,662.5,SBD,Single-ply,1
J. McGee,140+,Masters 1,M,337.5,195,265,797.5,SBD,Single-ply,1
Steve Brodsky,140+,Natural,M,365,245,300,910,SBD,Single-ply,1
J. McGee,140+,Natural,M,337.5,195,265,797.5,SBD,Single-ply,2
D. Oyler,140+,Natural,M,295,165,287.5,747.5,SBD,Single-ply,3
D. Oyler,140+,Pure,M,295,165,287.5,747.5,SBD,Single-ply,1
T. Wright,140+,Pure Novice,M,267.5,162.5,232.5,662.5,SBD,Single-ply,1
D. Oyler,140+,Submasters 1,M,295,165,287.5,747.5,SBD,Single-ply,1
B. Bowman,140+,Submasters 1,M,250,182.5,272.5,705,SBD,Single-ply,2
M. Mitchell,140+,Submasters 2,M,300,187.5,260,747.5,SBD,Single-ply,1
M. Payne,82.5,Masters 1,F,110,,,,SBD,Single-ply,DQ
L. Ward,82.5,Pure,F,90,57.5,90,237.5,SBD,Single-ply,1
L. Ward,82.5,Pure Novice,F,90,57.5,90,237.5,SBD,Single-ply,1
L. Ward,82.5,Submasters 2,F,90,57.5,90,237.5,SBD,Single-ply,1
Mary Herdon,90+,Pure Novice,F,157.5,77.5,157.5,392.5,SBD,Single-ply,1
