Division,WeightClassKg,Place,Name,Team,BodyweightKg,Best3SquatKg,Best3BenchKg,Best3DeadliftKg,TotalKg,Equipment,Event,Sex
Boys,51.71,1,Sammy Hernandez,Perryton,51.62,117.93,68.04,136.08,322.05,Single-ply,SBD,M
Boys,51.71,2,Payton Rhodes,Hart,51.26,108.86,61.23,108.86,278.96,Single-ply,SBD,M
Boys,51.71,DQ,Santos Figueroa,Plainview,51.03,138.35,,,,Single-ply,SBD,M
Boys,55.79,1,Bryan Quinteros Jr,Lamesa,55.25,167.83,102.06,183.7,453.59,Single-ply,SBD,M
Boys,55.79,2,Derek Barron,Muleshoe,54.43,136.08,70.31,145.15,351.53,Single-ply,SBD,M
Boys,55.79,3,Avery Gallegos,Plainview,53.52,136.08,74.84,127.01,337.93,Single-ply,SBD,M
Boys,55.79,4,Brian Tejada,Perryton,54.43,92.99,70.31,136.08,299.37,Single-ply,SBD,M
Boys,55.79,5,Bryan Ordaz,Dumas,53.98,111.13,72.57,113.4,297.1,Single-ply,SBD,M
Boys,55.79,6,Christian Rayos,Levelland,55.34,92.99,77.11,127.01,297.1,Single-ply,SBD,M
Boys,59.87,1,Cysco Barrera,Plainview,59.6,147.42,68.04,163.29,378.75,Single-ply,SBD,M
Boys,59.87,2,Ryan Garcia,Ralls,59.69,147.42,70.31,147.42,365.14,Single-ply,SBD,M
Boys,59.87,3,Skyler Steen,Plainview,58.24,136.08,58.97,147.42,342.46,Single-ply,SBD,M
Boys,59.87,4,Max Foster,Canyon Randall,58.79,99.79,74.84,136.08,310.71,Single-ply,SBD,M
Boys,59.87,5,Alejandro Diaz,Hart,57.88,108.86,52.16,133.81,294.84,Single-ply,SBD,M
Boys,59.87,6,Hayden Montgomery,Tulia,56.79,92.99,56.7,127.01,276.69,Single-ply,SBD,M
Boys,59.87,7,Lane Wilson,Sudan,57.52,86.18,58.97,106.59,251.74,Single-ply,SBD,M
Boys,59.87,DQ,Uriel Ibanez,Dumas,58.6,,,,,Single-ply,SBD,M
Boys,67.13,1,Josue Becerril,Perryton,66.77,215.46,127.01,235.87,578.33,Single-ply,SBD,M
Boys,67.13,2,Luis Uruchutu,Canyon Randall,67.04,206.38,131.54,219.99,557.92,Single-ply,SBD,M
Boys,67.13,3,Robert Zavala,Ralls,66.22,192.78,122.47,192.78,508.02,Single-ply,SBD,M
Boys,67.13,4,Faustino Lopez,Plainview,66.81,172.37,102.06,179.17,453.59,Single-ply,SBD,M
Boys,67.13,5,Chance Cruz,Argyle,64.77,174.63,83.91,192.78,451.32,Single-ply,SBD,M
Boys,67.13,6,Evan Judd,Dumas,65.05,174.63,102.06,172.37,449.06,Single-ply,SBD,M
Boys,67.13,7,Kade Tinsley,Bushland,66.95,156.49,83.91,183.7,424.11,Single-ply,SBD,M
Boys,67.13,8,Chase Harris,Canyon Randall,66.86,136.08,88.45,156.49,381.02,Single-ply,SBD,M
Boys,67.13,9,Khup Thang,Dumas,66.86,145.15,83.91,145.15,374.21,Single-ply,SBD,M
Boys,67.13,10,Andrew Gonzales,Floydada,64.5,145.15,83.91,136.08,365.14,Single-ply,SBD,M
Boys,67.13,11,Case Dickey,Wolfforth Frenship,65.95,136.08,74.84,147.42,358.34,Single-ply,SBD,M
Boys,67.13,12,Jagger Lopez,Levelland,66.41,120.2,90.72,147.42,358.34,Single-ply,SBD,M
Boys,67.13,13,Ariel DeLaCerda,Ralls,64.32,136.08,58.97,151.95,347,Single-ply,SBD,M
Boys,67.13,14,Henry Robinson,Argyle,65.23,124.74,72.57,142.88,340.19,Single-ply,SBD,M
Boys,67.13,15,Christian Velasquez,Ralls,62.87,124.74,63.5,145.15,333.39,Single-ply,SBD,M
Boys,67.13,16,Devan Perez,Floydada,61.14,122.47,79.38,129.27,331.12,Single-ply,SBD,M
Boys,67.13,17,Benjamin Njenga,Ralls,67.13,111.13,52.16,142.88,306.17,Single-ply,SBD,M
Boys,67.13,DQ,Eric Soto,Plainview,66.95,188.24,,,,Single-ply,SBD,M
Boys,67.13,DQ,Ivan Fernandez,Tulia,62.78,108.86,,,,Single-ply,SBD,M
Boys,74.84,1,Slade Harris,Canyon Randall,73.75,272.16,165.56,249.48,687.19,Single-ply,SBD,M
Boys,74.84,2,Brock Martin,Argyle,74.39,226.8,136.08,226.8,589.67,Single-ply,SBD,M
Boys,74.84,3,Matthew Cano,Perryton,74.84,210.92,142.88,226.8,580.6,Single-ply,SBD,M
Boys,74.84,4,Gus Garcia,Plainview,73.39,197.31,124.74,185.97,508.02,Single-ply,SBD,M
Boys,74.84,5,Kingsley Rodriguez,Seagraves,72.85,188.24,111.13,192.78,492.15,Single-ply,SBD,M
Boys,74.84,6,John Chavez,Plainview,74.16,176.9,111.13,176.9,464.93,Single-ply,SBD,M
Boys,74.84,7,Timothy Dettle,Dalhart,73.84,170.1,102.06,181.44,453.59,Single-ply,SBD,M
Boys,74.84,8,Jerry Flores,Ralls,70.03,149.69,97.52,170.1,417.3,Single-ply,SBD,M
Boys,74.84,9,Uriel Avila,Perryton,67.95,142.88,106.59,165.56,415.04,Single-ply,SBD,M
Boys,74.84,10,Alex Carmona,Floydada,73.66,170.1,90.72,154.22,415.04,Single-ply,SBD,M
Boys,74.84,11,Israel Vasquez,Muleshoe,73.3,154.22,92.99,161.03,408.23,Single-ply,SBD,M
Boys,74.84,12,Steven Salazar,Ralls,69.22,149.69,92.99,147.42,390.09,Single-ply,SBD,M
Boys,74.84,13,Mark Castle,Argyle,72.12,145.15,68.04,165.56,378.75,Single-ply,SBD,M
Boys,74.84,14,Diego Deleon,Ralls,69.94,136.08,72.57,149.69,358.34,Single-ply,SBD,M
Boys,74.84,15,Luke Unterkircher,Tulia,71.49,129.27,68.04,154.22,351.53,Single-ply,SBD,M
Boys,74.84,16,Andrew Suarez,Floydada,71.12,117.93,70.31,145.15,333.39,Single-ply,SBD,M
Boys,74.84,17,Jose Flores,Seagraves,71.58,122.47,70.31,136.08,328.85,Single-ply,SBD,M
Boys,74.84,18,John Schulte,Levelland,74.57,86.18,70.31,136.08,292.57,Single-ply,SBD,M
Boys,74.84,DQ,Chris Rodriguez,Lamesa,72.76,,,,,Single-ply,SBD,M
Boys,74.84,DQ,Kathan Valenzuela,Tulia,73.3,142.88,,,,Single-ply,SBD,M
Boys,82.1,1,Joseph Jenkins,Perryton,79.47,197.31,136.08,188.24,521.63,Single-ply,SBD,M
Boys,82.1,2,Isaac Garza,Levelland,81.1,174.63,127.01,210.92,512.56,Single-ply,SBD,M
Boys,82.1,3,Tobi Banire,Wolfforth Frenship,78.74,197.31,97.52,215.46,510.29,Single-ply,SBD,M
Boys,82.1,4,Logan Terrel,Bushland,78.93,149.69,136.08,224.53,510.29,Single-ply,SBD,M
Boys,82.1,5,Usbaldo Zarate,Dalhart,77.66,183.7,99.79,188.24,471.74,Single-ply,SBD,M
Boys,82.1,6,Kaleb Salazar,Ralls,82.1,181.44,92.99,192.78,467.2,Single-ply,SBD,M
Boys,82.1,7,Mike Delefuente,Floydada,82.01,176.9,104.33,183.7,464.93,Single-ply,SBD,M
Boys,82.1,8,Sergio Salinas,Ralls,81.1,181.44,90.72,172.37,444.52,Single-ply,SBD,M
Boys,82.1,9,Alex Conley,Sudan,81.56,181.44,106.59,145.15,433.18,Single-ply,SBD,M
Boys,82.1,10,Beto Diaz,Sudan,75.75,138.35,90.72,145.15,374.21,Single-ply,SBD,M
Boys,82.1,11,Coby Rendon,Ralls,79.65,124.74,83.91,154.22,362.87,Single-ply,SBD,M
Boys,82.1,DQ,Naton Edwards,Argyle,81.28,,,,,Single-ply,SBD,M
Boys,89.81,1,Robert Herndon,Perryton,89.72,272.16,158.76,249.48,680.39,Single-ply,SBD,M
Boys,89.81,2,Julian Rios,Wolfforth Frenship,84.73,197.31,120.2,204.12,521.63,Single-ply,SBD,M
Boys,89.81,3,Sergio Marquez,Plainview,87.09,197.31,120.2,195.04,512.56,Single-ply,SBD,M
Boys,89.81,4,Anthony Aguilera,Dalhart,86.82,188.24,115.67,199.58,503.49,Single-ply,SBD,M
Boys,89.81,5,Manuel Ramos,Bovina,86.73,172.37,120.2,197.31,489.88,Single-ply,SBD,M
Boys,89.81,6,Julian Flores,Wolfforth Frenship,86.64,165.56,131.54,174.63,471.74,Single-ply,SBD,M
Boys,89.81,7,Payton Roberts,Levelland,83.46,142.88,104.33,151.95,399.16,Single-ply,SBD,M
Boys,89.81,8,Gavin Groll,Dalhart,87.72,149.69,81.65,131.54,362.87,Single-ply,SBD,M
Boys,89.81,DQ,Cooper Sherrill,Dalhart,83.91,,,,,Single-ply,SBD,M
Boys,89.81,DQ,Joe Barrera,Tulia,84.37,,,,,Single-ply,SBD,M
Boys,89.81,DQ,Alonso Tarango,Perryton,88.09,,,,,Single-ply,SBD,M
Boys,89.81,DQ,Mark Hernandez,Dumas,85.37,158.76,,,,Single-ply,SBD,M
Boys,89.81,DQ,Jonathan Rodriguez,Lamesa,89.09,165.56,,,,Single-ply,SBD,M
Boys,99.79,1,D'Shae Casias,Plainview,99.43,256.28,140.61,226.8,623.69,Single-ply,SBD,M
Boys,99.79,2,Jay Ramirez,Perryton,99.7,219.99,131.54,215.46,566.99,Single-ply,SBD,M
Boys,99.79,3,Cardell Wickware,Floydada,97.34,185.97,149.69,201.85,537.51,Single-ply,SBD,M
Boys,99.79,4,Preston Love,Bushland,93.53,195.04,113.4,192.78,501.22,Single-ply,SBD,M
Boys,99.79,5,Andrew Rodriguez,Bushland,98.34,197.31,108.86,185.97,492.15,Single-ply,SBD,M
Boys,99.79,6,Elias Martinez,Ralls,90.08,185.97,86.18,204.12,476.27,Single-ply,SBD,M
Boys,99.79,7,Josue Alonso,Plainview,99.06,188.24,122.47,136.08,446.79,Single-ply,SBD,M
Boys,99.79,8,Brian Davilla,Sudan,94.44,147.42,99.79,158.76,405.97,Single-ply,SBD,M
Boys,99.79,9,Austin Criswell,Argyle,99.61,151.95,79.38,170.1,401.43,Single-ply,SBD,M
Boys,99.79,10,Gabe Cisneros,Sudan,98.16,163.29,97.52,136.08,396.89,Single-ply,SBD,M
Boys,99.79,11,Griffin Crume,Wolfforth Frenship,96.52,156.49,83.91,142.88,383.29,Single-ply,SBD,M
Boys,99.79,12,Devin Riojas,Floydada,93.89,117.93,77.11,142.88,337.93,Single-ply,SBD,M
Boys,99.79,13,Jesus Martinez,Dumas,89.99,117.93,63.5,124.74,306.17,Single-ply,SBD,M
Boys,99.79,DQ,Armando Cardenas,Dumas,99.25,124.74,,,,Single-ply,SBD,M
Boys,109.77,1,Adrian Ramirez,Plainview,105.87,240.4,151.95,233.6,625.96,Single-ply,SBD,M
Boys,109.77,2,Chris Delatorre,Dumas,103.6,213.19,117.93,199.58,530.7,Single-ply,SBD,M
Boys,109.77,3,Dylan Wolfe,Levelland,100.15,226.8,111.13,183.7,521.63,Single-ply,SBD,M
Boys,109.77,4,Yostin Villagomez,Dalhart,104.33,181.44,136.08,195.04,512.56,Single-ply,SBD,M
Boys,109.77,5,Chris Omeire,Canyon Randall,107.23,197.31,129.27,181.44,508.02,Single-ply,SBD,M
Boys,109.77,6,Cody Barker,Wolfforth Frenship,107.68,188.24,106.59,206.38,501.22,Single-ply,SBD,M
Boys,109.77,7,Elias Aguirre,Muleshoe,107.14,190.51,122.47,183.7,496.68,Single-ply,SBD,M
Boys,109.77,8,Isaiah Montes,Sudan,108.14,176.9,120.2,195.04,492.15,Single-ply,SBD,M
Boys,109.77,9,Alan Mendoza,Seagraves,104.24,183.7,111.13,170.1,464.93,Single-ply,SBD,M
Boys,109.77,10,Damon Monroe,Floydada,109.59,181.44,102.06,181.44,464.93,Single-ply,SBD,M
Boys,109.77,11,Jacob Bartlett,Ralls,106.05,156.49,86.18,183.7,426.38,Single-ply,SBD,M
Boys,109.77,12,Bobby Villegas,Tulia,108.59,188.24,77.11,158.76,424.11,Single-ply,SBD,M
Boys,124.74,1,Yordi Hernandez,Perryton,123.47,306.17,165.56,244.94,716.68,Single-ply,SBD,M
Boys,124.74,2,Bryan Martinez,Plainview,112.31,256.28,158.76,213.19,628.23,Single-ply,SBD,M
Boys,124.74,3,Ubaldo Tarango,Perryton,112.31,226.8,147.42,222.26,596.47,Single-ply,SBD,M
Boys,124.74,4,Ivien Gonzales,Lamesa,118.48,213.19,154.22,226.8,594.21,Single-ply,SBD,M
Boys,124.74,5,Javier Olvera,Floydada,118.57,204.12,136.08,204.12,544.31,Single-ply,SBD,M
Boys,124.74,6,Gus Jameson,Dalhart,118.02,199.58,117.93,204.12,521.63,Single-ply,SBD,M
Boys,124.74,7,Brendan Herring,Dalhart,122.65,170.1,136.08,199.58,505.76,Single-ply,SBD,M
Boys,124.74,8,Jaime Lopez,Wolfforth Frenship,119.39,165.56,120.2,197.31,483.08,Single-ply,SBD,M
Boys,124.74,9,Rudy Ruiz,Muleshoe,111.13,181.44,111.13,181.44,474,Single-ply,SBD,M
Boys,124.74,10,Luke Osuna,Dalhart,110.95,174.63,120.2,174.63,469.47,Single-ply,SBD,M
Boys,124.74,11,JJ Jesus Martinez,Dumas,113.4,170.1,102.06,142.88,415.04,Single-ply,SBD,M
Boys,124.74,12,John Rodgriuez,Levelland,121.2,136.08,90.72,124.74,351.53,Single-ply,SBD,M
Boys,124.74,DQ,Ethan Martinez,Lamesa,117.39,272.16,,,,Single-ply,SBD,M
Boys,124.74+,1,Jaden Massey,Dalhart,154.77,258.55,197.31,226.8,682.66,Single-ply,SBD,M
Boys,124.74+,2,JJ Castro,Levelland,190.6,249.48,147.42,254.01,650.91,Single-ply,SBD,M
Boys,124.74+,3,Omar Hernandez,Dumas,127.55,233.6,174.63,197.31,605.55,Single-ply,SBD,M
Boys,124.74+,4,Myles Johnson,Levelland,132.18,226.8,117.93,244.94,589.67,Single-ply,SBD,M
Boys,124.74+,5,Bill Overton,Denton Guyer,136.62,242.67,131.54,201.85,576.06,Single-ply,SBD,M
Boys,124.74+,6,Dominick Longoria,Seagraves,151.32,217.72,136.08,204.12,557.92,Single-ply,SBD,M
Boys,124.74+,7,Josh Hicks,Argyle,126.37,222.26,124.74,197.31,544.31,Single-ply,SBD,M
Boys,124.74+,8,Fernando Rivas,Muleshoe,127.01,210.92,127.01,170.1,508.02,Single-ply,SBD,M
Boys,124.74+,9,Jerik Reed,Tulia,127.64,192.78,111.13,195.04,498.95,Single-ply,SBD,M
Boys,124.74+,10,Beau Zuniga,Levelland,133.99,190.51,97.52,181.44,469.47,Single-ply,SBD,M
Boys,124.74+,11,Miguel Rodriguez,Muleshoe,127.55,204.12,97.52,161.03,462.66,Single-ply,SBD,M
Boys,124.74+,12,Kevin Sanders,Wolfforth Frenship,157.94,170.1,115.67,161.03,446.79,Single-ply,SBD,M
Boys,124.74+,13,Noah Martinez,Lamesa,145.42,197.31,102.06,142.88,442.25,Single-ply,SBD,M
