Division,WeightClassKg,Place,Name,Team,BodyweightKg,Best3SquatKg,Best3BenchKg,Best3DeadliftKg,TotalKg,Equipment,Event,Sex
Boys,51.71,1,Tyler Morrow,Copperas Cove,48.44,106.59,54.43,133.81,294.84,Single-ply,SBD,M
Boys,51.71,2,Jaydon Kremer,Killeen Harker Heights,50.26,72.57,49.9,95.25,217.72,Single-ply,SBD,M
Boys,51.71,3,Ryan Merrill,Belton,44.91,68.04,47.63,81.65,197.31,Single-ply,SBD,M
Boys,51.71,4,Malachi Seawood-Martinez,Killeen Harker Heights,50.89,54.43,43.09,97.52,195.04,Single-ply,SBD,M
Boys,55.79,1,Richard Willess,Belton,53.61,124.74,65.77,133.81,324.32,Single-ply,SBD,M
Boys,55.79,2,James Langerman,Waco Midway,54.16,79.38,52.16,92.99,224.53,Single-ply,SBD,M
Boys,55.79,DQ,Andrew Medina,Belton,55.34,,,,,Single-ply,SBD,M
Boys,59.87,1,Max Casteli,Belton,56.88,156.49,86.18,163.29,405.97,Single-ply,SBD,M
Boys,59.87,2,Patrick Martis,Killeen Harker Heights,59.42,136.08,97.52,170.1,403.7,Single-ply,SBD,M
Boys,59.87,3,Angel Longoria,Belton,58.97,140.61,83.91,158.76,383.29,Single-ply,SBD,M
Boys,59.87,4,Nathan Hunt,Belton,59.87,131.54,68.04,129.27,328.85,Single-ply,SBD,M
Boys,59.87,5,Gauge Nelson,Copperas Cove,59.87,124.74,63.5,133.81,322.05,Single-ply,SBD,M
Boys,67.13,1,Patrick Frazho,Belton,64.68,161.03,92.99,181.44,435.45,Single-ply,SBD,M
Boys,67.13,2,Xavier McCarter,Copperas Cove,62.05,161.03,95.25,161.03,417.3,Single-ply,SBD,M
Boys,67.13,3,Scott Gurnett,Belton,65.95,136.08,88.45,136.08,360.61,Single-ply,SBD,M
Boys,67.13,4,Kyle Gascon,Belton,60.51,158.76,72.57,127.01,358.34,Single-ply,SBD,M
Boys,67.13,5,Cameron West,Copperas Cove,67.13,127.01,83.91,142.88,353.8,Single-ply,SBD,M
Boys,67.13,6,Angel Torres,Temple,60.51,124.74,86.18,136.08,347,Single-ply,SBD,M
Boys,67.13,7,Jalen Bridges,Temple,60.96,136.08,88.45,122.47,347,Single-ply,SBD,M
Boys,67.13,8,Chandler Gastelo,Copperas Cove,66.04,142.88,63.5,138.35,344.73,Single-ply,SBD,M
Boys,74.84,1,Samuel Garcia,Belton,72.12,176.9,115.67,192.78,485.34,Single-ply,SBD,M
Boys,74.84,2,Angelo Sibile,Belton,72.85,181.44,115.67,183.7,480.81,Single-ply,SBD,M
Boys,74.84,3,Thomas McVade,Temple,68.49,124.74,102.06,181.44,408.23,Single-ply,SBD,M
Boys,74.84,4,Tarin Morrow,Copperas Cove,68.76,149.69,81.65,165.56,396.89,Single-ply,SBD,M
Boys,74.84,5,Travis Stoffrahn,Copperas Cove,70.76,138.35,68.04,181.44,387.82,Single-ply,SBD,M
Boys,74.84,6,Jalen Robinson,Temple,70.03,158.76,90.72,127.01,376.48,Single-ply,SBD,M
Boys,74.84,7,Benny Shumaker,Copperas Cove,74.66,145.15,68.04,136.08,349.27,Single-ply,SBD,M
Boys,74.84,DQ,Tavaris Sullivan,Temple,70.4,,,,,Single-ply,SBD,M
Boys,74.84,DQ,Samari Howard,Temple,68.58,,,,,Single-ply,SBD,M
Boys,82.1,1,Josiah Kilgo,Killeen Harker Heights,78.38,181.44,106.59,206.38,494.42,Single-ply,SBD,M
Boys,82.1,2,Kai Concepcion-Duenas,Copperas Cove,79.38,131.54,97.52,163.29,392.36,Single-ply,SBD,M
Boys,82.1,3,Robbie Burns,Killeen Harker Heights,76.75,102.06,74.84,131.54,308.44,Single-ply,SBD,M
Boys,82.1,DQ,Ky'Juan Pugh,Temple,78.38,179.17,,,,Single-ply,SBD,M
Boys,82.1,DQ,Craig Dawson,Waco Midway,81.28,,,,,Single-ply,SBD,M
Boys,89.81,1,James Fullbright,Waco Midway,88.13,222.26,142.88,247.21,612.35,Single-ply,SBD,M
Boys,89.81,2,Keaton Kaulfus,Belton,87.09,204.12,122.47,201.85,528.44,Single-ply,SBD,M
Boys,89.81,3,Devyn Taylor,Copperas Cove,89.63,183.7,122.47,197.31,503.49,Single-ply,SBD,M
Boys,89.81,4,Quincy Marshall,Temple,89.81,165.56,136.08,197.31,498.95,Single-ply,SBD,M
Boys,89.81,5,Joey Harrison,Copperas Cove,82.74,158.76,81.65,183.7,424.11,Single-ply,SBD,M
Boys,89.81,6,Jonah Myers,Belton,86.64,161.03,97.52,158.76,417.3,Single-ply,SBD,M
Boys,89.81,7,Kani Bowers,Temple,86.45,131.54,111.13,156.49,399.16,Single-ply,SBD,M
Boys,99.79,1,Devin Martinez,Belton,99.34,226.8,142.88,233.6,603.28,Single-ply,SBD,M
Boys,99.79,2,Jawaun Howard,Belton,96.34,195.04,149.69,188.24,532.97,Single-ply,SBD,M
Boys,99.79,3,Jayven Taylor,Temple,96.07,204.12,108.86,201.85,514.83,Single-ply,SBD,M
Boys,99.79,4,Andrew Mace,Belton,91.81,192.78,117.93,190.51,501.22,Single-ply,SBD,M
Boys,99.79,5,Daniel Ford,Waco Midway,91.13,170.1,102.06,170.1,442.25,Single-ply,SBD,M
Boys,99.79,6,Malachi Robinson,Killeen Harker Heights,90.45,179.17,86.18,174.63,439.98,Single-ply,SBD,M
Boys,99.79,7,Christian Eseroma,Copperas Cove,91.17,161.03,102.06,172.37,435.45,Single-ply,SBD,M
Boys,99.79,8,Luke Horner,Waco Midway,91.08,124.74,97.52,161.03,383.29,Single-ply,SBD,M
Boys,99.79,DQ,Derrance Daniels,Belton,93.89,190.51,,,,Single-ply,SBD,M
Boys,99.79,DQ,Timothy Apodaca,Belton,91.9,217.72,115.67,,,Single-ply,SBD,M
Boys,109.77,1,Carson Byrd,Waco Midway,109.5,183.7,113.4,210.92,508.02,Single-ply,SBD,M
Boys,109.77,2,David Orozco,Copperas Cove,109.04,183.7,88.45,183.7,455.86,Single-ply,SBD,M
Boys,109.77,3,Cameron Drayton,Killeen Harker Heights,104.24,156.49,90.72,172.37,419.57,Single-ply,SBD,M
Boys,109.77,DQ,Ashton Salas,Waco Midway,109.36,,,,,Single-ply,SBD,M
Boys,124.74,1,Sidney Sherwood,Belton,122.56,263.08,174.63,190.51,628.23,Single-ply,SBD,M
Boys,124.74,2,John Gorrell,Waco Midway,117.57,219.99,151.95,215.46,587.4,Single-ply,SBD,M
Boys,124.74,3,Dorian Black,Killeen Harker Heights,119.75,235.87,124.74,226.8,587.4,Single-ply,SBD,M
Boys,124.74,4,Bryan Luna,Belton,124.38,201.85,147.42,176.9,526.17,Single-ply,SBD,M
Boys,124.74,5,Winston Vasquez,Copperas Cove,110.59,197.31,111.13,190.51,498.95,Single-ply,SBD,M
Boys,124.74,6,Noah Castillo,Temple,116.03,170.1,142.88,172.37,485.34,Single-ply,SBD,M
Boys,124.74,7,Kiarry White,Temple,123.83,181.44,129.27,174.63,485.34,Single-ply,SBD,M
Boys,124.74,8,Calvin Poweroy,Copperas Cove,116.39,174.63,97.52,195.04,467.2,Single-ply,SBD,M
Boys,124.74,9,Shelby Telker,Copperas Cove,115.58,170.1,108.86,179.17,458.13,Single-ply,SBD,M
Boys,124.74,10,Micah Koen,Waco Midway,117.3,158.76,122.47,172.37,453.59,Single-ply,SBD,M
Boys,124.74+,1,Phillip Haskins,Temple,140.61,256.28,174.63,254.01,684.92,Single-ply,SBD,M
Boys,124.74+,2,Aaron Shanahan,Copperas Cove,147.87,267.62,138.35,263.08,669.05,Single-ply,SBD,M
Boys,124.74+,3,Jake Long,Waco Midway,155.17,215.46,170.1,215.46,601.01,Single-ply,SBD,M
Boys,124.74+,4,Josh Echeverria,Waco Midway,136.17,213.19,120.2,235.87,569.26,Single-ply,SBD,M
Boys,124.74+,5,Dale Wright,Copperas Cove,127.64,242.67,113.4,201.85,557.92,Single-ply,SBD,M
Boys,124.74+,6,Tre Colbert,Temple,144.79,215.46,149.69,181.44,546.58,Single-ply,SBD,M
Boys,124.74+,7,Daniel Lopez,Temple,131.09,167.83,122.47,197.31,487.61,Single-ply,SBD,M
Boys,124.74+,8,Dakari White,Temple,138.35,158.76,124.74,174.63,458.13,Single-ply,SBD,M
Boys,124.74+,9,Ryan Connor,Copperas Cove,141.52,176.9,102.06,165.56,444.52,Single-ply,SBD,M
Boys,124.74+,10,LeLei Tuitasi,Killeen Harker Heights,141.88,154.22,104.33,165.56,424.11,Single-ply,SBD,M
Boys,124.74+,11,Chris Brown,Belton,172.18,195.04,,,195.04,Single-ply,S,M
Boys,124.74+,DQ,Miguel Convento,Waco Midway,146.87,,,,,Single-ply,SBD,M
Boys,,NS,Caleb Newberry,Copperas Cove,,,,,,Single-ply,SBD,M
Boys,,NS,William Wilson,Copperas Cove,,,,,,Single-ply,SBD,M
