Name,Age,Sex,Equipment,Division,BodyweightKg,WeightClassKg,Squat1Kg,Squat2Kg,Squat3Kg,Squat4Kg,Best3SquatKg,Bench1Kg,Bench2Kg,Bench3Kg,Best3BenchKg,Deadlift1Kg,Deadlift2Kg,Deadlift3Kg,Deadlift4Kg,Best3DeadliftKg,TotalKg,Event,Place,Tested
Emma Keyes,21,F,Wraps,F-J,65.4,67.5,92.5,97.5,100,,100,42.5,45,47.5,47.5,107.5,112.5,115,,115,262.5,SBD,1,Yes
Amy Sheerin,19,F,Wraps,F-J,75,75,95,107.5,-112.5,,107.5,45,50,55,55,105,115,120,125,120,282.5,SBD,1,Yes
Poipin Dearg,41,F,Wraps,FM-1,64.8,67.5,95,105,110,,110,50,55,-57.5,55,107.5,-112.5,112.5,,112.5,277.5,SBD,1,Yes
Anita Lenehan,44,F,Raw,FM-1 R,73.8,75,105,110,112.5,,112.5,42.5,45,50,50,110,115,120,,120,282.5,SBD,1,Yes
Deanne McGuinness,46,F,Raw,FM-2 R,58.4,60,55,62.5,67.5,,67.5,45,47.5,-50,47.5,-97.5,,,,,,SBD,DQ,Yes
Sophia Pauzin,26,F,Wraps,FO,57.6,60,95,-105,105,,105,42.5,45,47.5,47.5,-112.5,112.5,-117.5,,112.5,265,SBD,3,Yes
Sinead Murtagh,24,F,Wraps,FO,59.4,60,97.5,105,-107.5,,105,42.5,45,-47.5,45,120,127.5,137.5,,137.5,287.5,SBD,2,Yes
Natasha Maloney,31,F,Wraps,FO,58,60,137.5,147.5,-150,,147.5,65,70,-72.5,70,135,145,-150,,145,362.5,SBD,1,Yes
Lisa Towell,30,F,Wraps,FO,67.5,67.5,90,95,100,,100,45,47.5,50,50,115,120,125,,125,275,SBD,2,Yes
Tara Maguire,32,F,Wraps,FO,63.6,67.5,117.5,122.5,-125,,122.5,57.5,60,62.5,62.5,125,130,132.5,,132.5,317.5,SBD,1,Yes
Aoife Byrne,26,F,Wraps,FO,72.4,75,70,80,85,,85,47.5,50,52.5,52.5,120,130,135,,135,272.5,SBD,1,Yes
Katie Kavanagh,25,F,Wraps,FO,79,82.5,95,102.5,107.5,,107.5,52.5,57.5,60,60,120,127.5,135,,135,302.5,SBD,1,Yes
Aileen Whelan,32,F,Raw,FO R,97.4,90+,85,90,95,,95,45,50,-55,50,100,105,112.5,,112.5,257.5,SBD,2,Yes
Nicola Crawley,38,F,Raw,FO R,124,90+,110,120,130,,130,60,65,67.5,67.5,140,-150,150,,150,347.5,SBD,1,Yes
Wioleta Lorek,29,F,Raw,FO R,50.8,52,92.5,97.5,100,102.5,100,47.5,50,52.5,52.5,105,110,115,,115,267.5,SBD,1,Yes
Sandra Evans,33,F,Raw,FO R,58.2,60,82.5,-87.5,87.5,,87.5,52.5,-55,55,55,107.5,-115,-115,,107.5,250,SBD,2,Yes
Villy O'Malley,,F,Raw,FO R,59.4,60,85,-95,-95,,85,-45,45,-52.5,45,117.5,125,-130,,125,255,SBD,1,Yes
Grainne O'Connor,28,F,Raw,FO R,67.4,67.5,80,85,95,,95,47.5,-50,50,50,120,130,137.5,,137.5,282.5,SBD,3,Yes
Joleen Bradley,37,F,Raw,FO R,67.2,67.5,95,100,110,,110,47.5,50,52.5,52.5,115,125,135,,135,297.5,SBD,2,Yes
Vanessa O'Keeffe,30,F,Raw,FO R,65.2,67.5,115,-125,125,,125,62.5,67.5,-70,67.5,130,-150,-150,,130,322.5,SBD,1,Yes
Laura O'Shea,33,F,Raw,FO R,80.4,82.5,-97.5,97.5,105,,105,62.5,65,-67.5,65,147.5,-155,-155,,147.5,317.5,SBD,1,Yes
Sarah McBride,33,F,Raw,FO R,83.2,90,-85,85,-90,,85,40,45,-47.5,45,100,105,112.5,,112.5,242.5,SBD,2,Yes
Louise Kershaw,24,F,Raw,FO R,88.4,90,105,110,-115,,110,47.5,50,52.5,52.5,120,130,137.5,,137.5,300,SBD,1,Yes
David Carroll #1,47,M,Raw,M-2 R,83.6,90,-135,135,142.5,,142.5,95,100,-105,100,150,160,170,,170,412.5,SBD,1,Yes
Sean Óg Flaherty,23,M,Raw,M-J R,77,82.5,130,140,-145,,140,100,105,-110,105,180,190,200,,200,445,SBD,1,Yes
Tommy Breathnach,23,M,Raw,M-J R,96.6,100,205,215,225,,225,127.5,137.5,-142.5,137.5,220,237.5,245,250,245,607.5,SBD,1,Yes
Tommy Evans,37,M,Raw,MO R,74,75,125,132.5,-137.5,,132.5,82.5,87.5,-92.5,87.5,160,170,175,,175,395,SBD,1,Yes
Thomas McCague,37,M,Raw,MO R,81.8,82.5,-25,,,,,130,137.5,142.5,142.5,-25,,,,,,SBD,DQ,Yes
Andrew Conneely,27,M,Raw,MO R,107.5,110,-180,180,190,,190,100,105,110,110,180,190,200,,200,500,SBD,1,Yes
Ian Howley,26,M,Wraps,MO,73,75,160,170,-185,,170,105,110,-115,110,200,210,215,220,215,495,SBD,1,Yes
Dave Fitzpatrick,29,M,Wraps,MO,80.4,82.5,210,222.5,-227.5,,222.5,117.5,125,130,130,200,215,220,,220,572.5,SBD,1,Yes
John O'Dwyer,25,M,Wraps,MO,79.2,82.5,185,-200,-200,,185,110,115,117.5,117.5,210,225,-230,,225,527.5,SBD,2,Yes
Nick Sazenski,23,M,Wraps,MO,88.2,90,190,200,-205,,200,-130,130,-140,130,240,245,-247.5,,245,575,SBD,1,Yes
Grant Grieve,46,M,Wraps,MO,89.2,90,170,180,190,,190,-100,-100,100,100,190,200,210,,210,500,SBD,2,Yes
Marc Galligan,32,M,Wraps,MO,98.6,100,265,280,-295,,280,140,150,160,160,240,270,-280,,270,710,SBD,1,Yes
Ronan Gray,25,M,Wraps,MO,92.6,100,215,230,-240,,230,120,-130,130,130,200,220,-230,,220,580,SBD,2,Yes
Gavin Browne,27,M,Wraps,MO,97.8,100,180,190,-200,,190,-105,-105,-105,,190,205,210,,210,,SBD,DQ,Yes
Gerard Buckley,25,M,Wraps,MO,106.4,110,245,257.5,265,,265,142.5,147.5,152.5,152.5,230,245,255,,255,672.5,SBD,1,Yes
Jakub Hubisz,35,M,Wraps,MO,116.6,125,200,205,-210,,205,110,115,117.5,117.5,205,215,217.5,,217.5,540,SBD,1,Yes
Seán Cregan,52,M,Wraps,M-3,78,82.5,170,180,190,,190,100,102.5,,102.5,180,190,200,-210,200,492.5,SBD,1,Yes
Richard Smith,50,M,Wraps,M-3,85.8,90,-120,120,,,120,77.5,82.5,-87.5,82.5,140,150,160,,160,362.5,SBD,1,Yes
Anthony O'Halloran,52,M,Wraps,M-3,100,100,200,207.5,212.5,,212.5,125,132.5,-137.5,132.5,225,232.5,237.5,,237.5,582.5,SBD,1,Yes
Finbarr O'Riordan,40,M,Wraps,M-1,87.9,90,-185,185,195,,195,110,117.5,-120,117.5,200,210,-220,,210,522.5,SBD,1,Yes
Dave Looney,40,M,Wraps,M-1,108,110,235,-245,245,,245,102.5,107.5,110,110,240,-255,-255,,240,595,SBD,1,Yes
Kieran Bennett,21,M,Wraps,M-J,85.2,90,185,195,205,,205,100,105,107.5,107.5,235,247.5,260,,260,572.5,SBD,1,Yes
Killian Prendeville,9,M,Wraps,MT-3,89.2,90,235,245,255,,255,-125,132.5,,132.5,260,275,285,,285,672.5,SBD,1,
Paul Kelly,11,M,Wraps,MO,96.2,100,240,252.5,262.5,,262.5,170,180,-185,180,275,290,300,,300,742.5,SBD,1,
Fionn Mullan,19,M,Wraps,MT-3,99.6,100,160,170,180,,180,125,-135,-135,125,190,210,220,,220,525,SBD,1,
Aaron Hayes,20,M,Wraps,M-J,144.5,140+,290,-310,-310,,290,150,160,-167.5,160,250,,,,250,700,SBD,1,
Jesse Moran,23,M,Wraps,M-J,98.6,100,270,-285,-285,,270,-185,-185,,,-280,,,,,,SBD,DQ,
Michael Morrisey,23,M,Wraps,MO,93,100,170,185,192.5,,192.5,90,105,-110,105,200,215,-222.5,,215,512.5,SBD,1,
Glen Purdy,26,M,Raw,MO R,69,75,120,135,145,,145,-82.5,-82.5,82.5,82.5,145,155,-165,,155,382.5,SBD,1,
Jason Boggan,28,M,Wraps,MO,97.6,100,250,-260,260,,260,-130,130,-135,130,250,260,,,260,650,SBD,1,
Ruairi McCann,30,M,Wraps,MO,67,67.5,220,235,242.5,,242.5,140,147.5,-152.5,147.5,220,-242.5,-242.5,,220,610,SBD,1,
Tara Mooney,31,F,Wraps,FO,56,56,100,110,120,,120,55,-57.5,57.5,57.5,120,130,140,,140,317.5,SBD,1,
Emma Rogan,33,F,Wraps,FO,60.4,67.5,140,150,155,,155,75,80,-82.5,80,160,-170,170,,170,405,SBD,1,
Eoin Cashen,41,M,Wraps,M-1,102.4,110,180,195,200,,200,117.5,122.5,125,125,190,205,220,,220,545,SBD,1,
Seán Hoey,44,M,Wraps,M-1,98.8,100,285,302.5,-317.5,,302.5,135,140,145,145,300,320,-327.5,,320,767.5,SBD,1,
Monica Magee,51,F,Wraps,FM-3,53.8,56,-70,-70,70,,70,45,-47.5,-47.5,45,-100,105,,,105,220,SBD,1,
JJ Dunne,55,M,Single-ply,M-4 SP,90.6,100,250,265,280,,280,145,-157.5,157.5,157.5,230,245,,,245,682.5,SBD,1,
