Name,Sex,Event,Division,Equipment,BirthYear,State,WeightClassKg,BodyweightKg,Squat1Kg,Squat2Kg,Squat3Kg,Best3SquatKg,Bench1Kg,Bench2Kg,Bench3Kg,Best3BenchKg,Deadlift1Kg,Deadlift2Kg,Deadlift3Kg,Best3DeadliftKg,TotalKg,Place
Jennifer Fidelman,F,SBD,F-O,Single-ply,1985,MN,72,68.54,70.3,79.4,86.2,86.2,43.1,47.6,-49.9,47.6,-102.1,106.6,111.1,111.1,244.9,1
Moriah Boldon,F,SBD,FR-Jr,Raw,1994,WI,57,54.7,77.1,90.7,99.8,99.8,61.2,68,-72.6,68,115.7,-124.7,136.1,136.1,303.9,1
Esther Theisen,F,SBD,FR-Jr,Raw,1998,WI,72,66.04,124.7,133.8,-142.9,133.8,52.2,56.7,-63.5,56.7,113.4,124.7,129.3,129.3,319.8,1
Kylie Katers,F,SBD,FR-Jr,Raw,1995,WI,72,70.81,106.6,113.4,-122.5,113.4,56.7,61.2,63.5,63.5,127,-136.1,142.9,142.9,319.8,2
Brittany Moncrief,F,SBD,FR-Jr,Raw,1995,MN,72,70.03,104.3,111.1,-115.7,111.1,61.2,65.8,70.3,70.3,127,133.8,-138.4,133.8,315.3,3
Tracey Quast,F,SBD,FR-M1,Raw,1968,WI,52,49.49,93,-95.3,95.3,95.3,-52.2,52.2,-54.4,52.2,97.5,,,97.5,244.9,1
Tanya Snell,F,SBD,FR-M1,Raw,1974,WI,84+,85.32,-97.5,102.1,117.9,117.9,56.7,65.8,-74.8,65.8,124.7,142.9,-152,142.9,326.6,1
Amy Suzan,F,SBD,FR-M1,Raw,1976,WI,72,65.82,83.9,93,-97.5,93,52.2,56.7,-61.2,56.7,102.1,111.1,117.9,117.9,267.6,1
Kimberly Leisner,F,SBD,FR-M1,Raw,1973,WI,84,78.65,65.8,72.6,81.7,81.7,40.8,45.4,-49.9,45.4,65.8,74.8,83.9,83.9,210.9,1
Eve Weatherwax,F,SBD,FR-O,Raw,1980,MN,84+,102.92,120.2,129.3,138.4,138.4,65.8,72.6,77.1,77.1,136.1,147.4,158.8,158.8,374.2,1
Cayla Penn,F,SBD,FR-O,Raw,1992,MN,63,62.37,72.6,81.7,-86.2,81.7,34,38.6,40.8,40.8,83.9,95.3,104.3,104.3,226.8,1
April Lucker,F,SBD,FR-O,Raw,1978,MN,72,71.35,79.4,88.5,93,93,-43.1,43.1,-47.6,43.1,102.1,111.1,-122.5,111.1,247.2,1
Kindall Perea,F,SBD,FR-O,Raw,1985,MN,84+,84.32,74.8,83.9,90.7,90.7,47.6,52.2,56.7,56.7,102.1,106.6,115.7,115.7,263.1,2
Heather Grotjahn,F,SBD,FR-O,Raw,1979,WI,72,69.9,61.2,65.8,70.3,70.3,38.6,-40.8,43.1,43.1,81.7,88.5,95.3,95.3,208.7,2
Laura Pohl,F,SBD,FR-O,Raw,1985,MN,72,71.76,-83.9,-83.9,-83.9,,43.1,-47.6,47.6,47.6,104.3,111.1,117.9,117.9,165.6,3
Amy Thimmesh,F,SBD,FR-O,Raw,1978,MN,84,80.78,-102.1,-102.1,-102.1,,45.4,47.6,49.9,49.9,97.5,106.6,111.1,111.1,161,1
Elizabeth Brisson,F,SBD,FR-O,Raw,1996,WI,72,71.62,-124.7,-124.7,-124.7,,56.7,-59,59,59,-127,-127,-127,,59,4
Elizabeth Dimick,F,SBD,FR-Y1,Raw,2003,WI,84,72.71,88.5,95.3,104.3,104.3,40.8,45.4,47.6,47.6,95.3,106.6,-115.7,106.6,258.6,1
Lydia Anderson,F,SBD,FR-Y2,Raw,2000,WI,63,62.69,90.7,97.5,102.1,102.1,45.4,47.6,49.9,49.9,93,102.1,106.6,106.6,258.6,1
Kyla Hatzenbeler,F,SBD,FR-Y2,Raw,2000,WI,84,79.47,99.8,106.6,111.1,111.1,54.4,56.7,59,59,106.6,113.4,122.5,122.5,292.6,1
Lauren Hildebrandt,F,SBD,FR-Y2,Raw,2001,WI,84,80.65,90.7,99.8,104.3,104.3,43.1,45.4,49.9,49.9,97.5,104.3,113.4,113.4,267.6,2
Coryn Davidson,F,SBD,FR-Y2,Raw,2001,WI,84+,123.88,-111.1,-113.4,113.4,113.4,52.2,56.7,-65.8,56.7,136.1,-156.5,-156.5,136.1,306.2,1
Sierra Keyes,F,SBD,FR-Y3,Raw,1999,WI,84+,97.07,102.1,113.4,117.9,117.9,61.2,65.8,-70.3,65.8,111.1,122.5,-133.8,122.5,306.2,1
Abigail Mcnitt,F,SBD,FR-Y3,Raw,1999,WI,84+,86.27,88.5,-95.3,95.3,95.3,43.1,-45.4,-45.4,43.1,108.9,117.9,-122.5,117.9,256.3,2
Madelyn Woychik,F,SBD,F-Y2,Single-ply,2000,WI,84,81.74,136.1,-147.4,-147.4,136.1,88.5,-93,-93,88.5,140.6,149.7,158.8,158.8,383.3,1
Alex Stoll,M,SBD,MR-Jr,Raw,1997,WI,120,115.3,254,274.4,285.8,285.8,145.2,152,154.2,154.2,260.8,-274.4,,260.8,700.8,1
Brandon VanderMarliere,M,SBD,MR-Jr,Raw,1995,WI,93,85.91,174.6,186,197.3,197.3,-117.9,117.9,-122.5,117.9,272.2,279,290.3,290.3,605.5,1
Pieter Koopmans,M,SBD,MR-Jr,Raw,1997,WI,105,102.56,201.9,213.2,226.8,226.8,136.1,142.9,149.7,149.7,233.6,249.5,265.4,265.4,641.8,1
Tony Lee,M,SBD,MR-Jr,Raw,1998,MN,93,91.44,190.5,204.1,210.9,210.9,113.4,120.2,-122.5,120.2,181.4,192.8,201.9,201.9,533,2
Shivang Tallapaka,M,SBD,MR-Jr,Raw,1997,MN,83,81.6,122.5,133.8,142.9,142.9,83.9,90.7,-95.3,90.7,154.2,165.6,174.6,174.6,408.2,1
Troy Schriever,M,SBD,MR-M1,Raw,1970,SD,120,106.55,197.3,215.5,-238.1,215.5,142.9,149.7,-158.8,149.7,242.7,260.8,272.2,272.2,637.3,1
Wade Kish,M,SBD,MR-M1,Raw,1970,MN,83,82.69,179.2,190.5,-195,190.5,133.8,142.9,145.2,145.2,192.8,-208.7,210.9,210.9,546.6,1
Blake Leisner,M,SBD,MR-M1,Raw,1971,WI,120,114.4,136.1,147.4,156.5,156.5,108.9,113.4,117.9,117.9,158.8,170.1,179.2,179.2,453.6,2
Joe Theisen,M,SBD,MR-M2,Raw,1965,WI,120+,122.79,174.6,190.5,204.1,204.1,142.9,154.2,-163.3,154.2,215.5,229.1,-238.1,229.1,587.4,1
Steve Harstad,M,SBD,MR-M2,Raw,1963,MN,83,82.37,131.5,147.4,-149.7,147.4,90.7,-99.8,-99.8,90.7,183.7,192.8,-201.9,192.8,430.9,1
Roger Rineck,M,SBD,MR-M2,Raw,1960,MN,83,79.74,102.1,-124.7,-142.9,102.1,-95.3,-97.5,97.5,97.5,158.8,-172.4,-172.4,158.8,358.3,2
Robert Lawson,M,SBD,MR-M3,Raw,1957,WI,93,89.95,-163.3,167.8,174.6,174.6,99.8,104.3,106.6,106.6,201.9,220,,220,501.2,1
Sid Reid,M,SBD,MR-M3,Raw,1948,MN,83,81.42,124.7,131.5,136.1,136.1,70.3,72.6,-74.8,72.6,152,158.8,163.3,163.3,371.9,1
Robert Sainati,M,SBD,MR-M4,Raw,1945,MN,93,84.1,59,68,77.1,77.1,-59,59,,59,106.6,,,106.6,242.7,1
Taylor Moon,M,SBD,MR-O,Raw,1993,MN,105,101.33,208.7,222.3,231.3,231.3,147.4,158.8,167.8,167.8,224.5,235.9,247.2,247.2,646.4,1
Richard Hailey,M,SBD,MR-O,Raw,1987,WI,105,101.38,224.5,238.1,242.7,242.7,147.4,158.8,-163.3,158.8,244.9,-260.8,-260.8,244.9,646.4,2
Aaron Gustum,M,SBD,MR-O,Raw,1994,WI,105,101.79,199.6,-208.7,-210.9,199.6,133.8,138.4,142.9,142.9,238.1,249.5,258.6,258.6,601,3
Nicholas Griepentrog,M,SBD,MR-O,Raw,1978,WI,120+,158.26,235.9,242.7,249.5,249.5,145.2,152,-158.8,152,226.8,238.1,244.9,244.9,646.4,1
Brent Wittwer,M,SBD,MR-O,Raw,1981,MN,105,101.15,183.7,192.8,204.1,204.1,-133.8,133.8,-142.9,133.8,238.1,-247.2,-247.2,238.1,576.1,4
Erik Knutson,M,SBD,MR-O,Raw,1983,WI,83,82.64,161,165.6,-172.4,165.6,111.1,120.2,-124.7,120.2,210.9,220,229.1,229.1,514.8,1
Cole Visger,M,SBD,MR-O,Raw,1987,WI,105,94.98,142.9,165.6,174.6,174.6,133.8,142.9,-145.2,142.9,142.9,147.4,183.7,183.7,501.2,5
Nicholas Kurtz,M,SBD,MR-Y1,Raw,2003,MN,53,51.71,70.3,-83.9,83.9,83.9,59,61.2,-63.5,61.2,102.1,108.9,113.4,113.4,258.5,1
Brandon Haag,M,SBD,MR-Y2,Raw,1999,WI,93,85.82,165.6,179.2,186,186,99.8,104.3,111.1,111.1,247.2,254,263.1,263.1,560.2,1
Justin Bartolazzi,M,SBD,MR-Y2,Raw,2000,WI,120+,123.42,188.2,201.9,-210.9,201.9,-106.6,111.1,-117.9,111.1,233.6,-244.9,,233.6,546.6,1
Travis Messer,M,SBD,MR-Y2,Raw,2000,WI,93,90.67,-172.4,-181.4,181.4,181.4,-113.4,-124.7,-124.7,,204.1,-213.2,-217.7,204.1,385.6,2
